# Created by Octave 4.2.1, Mon Dec 10 11:14:26 2018 CET <alatina@lxclicbpk20>
# name: X_min
# type: matrix
# rows: 6
# columns: 1
 109.7572123871274
 1093.312595987856
 -530.3503655090599
 427.5733394860119
 -0.6998100257960921
 -366.9610625849799


# name: F_min
# type: scalar
5.405827907403697


# name: i
# type: scalar
94


