%!PS-Adobe-2.0 EPSF-2.0
%%Title: plot_Vt.eps
%%Creator: gnuplot 5.2 patchlevel 5
%%CreationDate: Thu Dec  6 17:17:57 2018
%%DocumentFonts: (atend)
%%BoundingBox: 50 50 626 482
%%EndComments
%%BeginProlog
/gnudict 256 dict def
gnudict begin
%
% The following true/false flags may be edited by hand if desired.
% The unit line width and grayscale image gamma correction may also be changed.
%
/Color true def
/Blacktext false def
/Solid false def
/Dashlength 2 def
/Landscape false def
/Level1 false def
/Level3 false def
/Rounded false def
/ClipToBoundingBox false def
/SuppressPDFMark false def
/TransparentPatterns false def
/gnulinewidth 5.000 def
/userlinewidth gnulinewidth def
/Gamma 1.0 def
/BackgroundColor {1.000 1.000 1.000} def
%
/vshift -93 def
/dl1 {
  10.0 Dashlength userlinewidth gnulinewidth div mul mul mul
  Rounded { currentlinewidth 0.75 mul sub dup 0 le { pop 0.01 } if } if
} def
/dl2 {
  10.0 Dashlength userlinewidth gnulinewidth div mul mul mul
  Rounded { currentlinewidth 0.75 mul add } if
} def
/hpt_ 31.5 def
/vpt_ 31.5 def
/hpt hpt_ def
/vpt vpt_ def
/doclip {
  ClipToBoundingBox {
    newpath 50 50 moveto 626 50 lineto 626 482 lineto 50 482 lineto closepath
    clip
  } if
} def
%
% Gnuplot Prolog Version 5.2 (Dec 2017)
%
%/SuppressPDFMark true def
%
/M {moveto} bind def
/L {lineto} bind def
/R {rmoveto} bind def
/V {rlineto} bind def
/N {newpath moveto} bind def
/Z {closepath} bind def
/C {setrgbcolor} bind def
/f {rlineto fill} bind def
/g {setgray} bind def
/Gshow {show} def   % May be redefined later in the file to support UTF-8
/vpt2 vpt 2 mul def
/hpt2 hpt 2 mul def
/Lshow {currentpoint stroke M 0 vshift R 
	Blacktext {gsave 0 setgray textshow grestore} {textshow} ifelse} def
/Rshow {currentpoint stroke M dup stringwidth pop neg vshift R
	Blacktext {gsave 0 setgray textshow grestore} {textshow} ifelse} def
/Cshow {currentpoint stroke M dup stringwidth pop -2 div vshift R 
	Blacktext {gsave 0 setgray textshow grestore} {textshow} ifelse} def
/UP {dup vpt_ mul /vpt exch def hpt_ mul /hpt exch def
  /hpt2 hpt 2 mul def /vpt2 vpt 2 mul def} def
/DL {Color {setrgbcolor Solid {pop []} if 0 setdash}
 {pop pop pop 0 setgray Solid {pop []} if 0 setdash} ifelse} def
/BL {stroke userlinewidth 2 mul setlinewidth
	Rounded {1 setlinejoin 1 setlinecap} if} def
/AL {stroke userlinewidth 2 div setlinewidth
	Rounded {1 setlinejoin 1 setlinecap} if} def
/UL {dup gnulinewidth mul /userlinewidth exch def
	dup 1 lt {pop 1} if 10 mul /udl exch def} def
/PL {stroke userlinewidth setlinewidth
	Rounded {1 setlinejoin 1 setlinecap} if} def
3.8 setmiterlimit
% Classic Line colors (version 5.0)
/LCw {1 1 1} def
/LCb {0 0 0} def
/LCa {0 0 0} def
/LC0 {1 0 0} def
/LC1 {0 1 0} def
/LC2 {0 0 1} def
/LC3 {1 0 1} def
/LC4 {0 1 1} def
/LC5 {1 1 0} def
/LC6 {0 0 0} def
/LC7 {1 0.3 0} def
/LC8 {0.5 0.5 0.5} def
% Default dash patterns (version 5.0)
/LTB {BL [] LCb DL} def
/LTw {PL [] 1 setgray} def
/LTb {PL [] LCb DL} def
/LTa {AL [1 udl mul 2 udl mul] 0 setdash LCa setrgbcolor} def
/LT0 {PL [] LC0 DL} def
/LT1 {PL [2 dl1 3 dl2] LC1 DL} def
/LT2 {PL [1 dl1 1.5 dl2] LC2 DL} def
/LT3 {PL [6 dl1 2 dl2 1 dl1 2 dl2] LC3 DL} def
/LT4 {PL [1 dl1 2 dl2 6 dl1 2 dl2 1 dl1 2 dl2] LC4 DL} def
/LT5 {PL [4 dl1 2 dl2] LC5 DL} def
/LT6 {PL [1.5 dl1 1.5 dl2 1.5 dl1 1.5 dl2 1.5 dl1 6 dl2] LC6 DL} def
/LT7 {PL [3 dl1 3 dl2 1 dl1 3 dl2] LC7 DL} def
/LT8 {PL [2 dl1 2 dl2 2 dl1 6 dl2] LC8 DL} def
/SL {[] 0 setdash} def
/Pnt {stroke [] 0 setdash gsave 1 setlinecap M 0 0 V stroke grestore} def
/Dia {stroke [] 0 setdash 2 copy vpt add M
  hpt neg vpt neg V hpt vpt neg V
  hpt vpt V hpt neg vpt V closepath stroke
  Pnt} def
/Pls {stroke [] 0 setdash vpt sub M 0 vpt2 V
  currentpoint stroke M
  hpt neg vpt neg R hpt2 0 V stroke
 } def
/Box {stroke [] 0 setdash 2 copy exch hpt sub exch vpt add M
  0 vpt2 neg V hpt2 0 V 0 vpt2 V
  hpt2 neg 0 V closepath stroke
  Pnt} def
/Crs {stroke [] 0 setdash exch hpt sub exch vpt add M
  hpt2 vpt2 neg V currentpoint stroke M
  hpt2 neg 0 R hpt2 vpt2 V stroke} def
/TriU {stroke [] 0 setdash 2 copy vpt 1.12 mul add M
  hpt neg vpt -1.62 mul V
  hpt 2 mul 0 V
  hpt neg vpt 1.62 mul V closepath stroke
  Pnt} def
/Star {2 copy Pls Crs} def
/BoxF {stroke [] 0 setdash exch hpt sub exch vpt add M
  0 vpt2 neg V hpt2 0 V 0 vpt2 V
  hpt2 neg 0 V closepath fill} def
/TriUF {stroke [] 0 setdash vpt 1.12 mul add M
  hpt neg vpt -1.62 mul V
  hpt 2 mul 0 V
  hpt neg vpt 1.62 mul V closepath fill} def
/TriD {stroke [] 0 setdash 2 copy vpt 1.12 mul sub M
  hpt neg vpt 1.62 mul V
  hpt 2 mul 0 V
  hpt neg vpt -1.62 mul V closepath stroke
  Pnt} def
/TriDF {stroke [] 0 setdash vpt 1.12 mul sub M
  hpt neg vpt 1.62 mul V
  hpt 2 mul 0 V
  hpt neg vpt -1.62 mul V closepath fill} def
/DiaF {stroke [] 0 setdash vpt add M
  hpt neg vpt neg V hpt vpt neg V
  hpt vpt V hpt neg vpt V closepath fill} def
/Pent {stroke [] 0 setdash 2 copy gsave
  translate 0 hpt M 4 {72 rotate 0 hpt L} repeat
  closepath stroke grestore Pnt} def
/PentF {stroke [] 0 setdash gsave
  translate 0 hpt M 4 {72 rotate 0 hpt L} repeat
  closepath fill grestore} def
/Circle {stroke [] 0 setdash 2 copy
  hpt 0 360 arc stroke Pnt} def
/CircleF {stroke [] 0 setdash hpt 0 360 arc fill} def
/C0 {BL [] 0 setdash 2 copy moveto vpt 90 450 arc} bind def
/C1 {BL [] 0 setdash 2 copy moveto
	2 copy vpt 0 90 arc closepath fill
	vpt 0 360 arc closepath} bind def
/C2 {BL [] 0 setdash 2 copy moveto
	2 copy vpt 90 180 arc closepath fill
	vpt 0 360 arc closepath} bind def
/C3 {BL [] 0 setdash 2 copy moveto
	2 copy vpt 0 180 arc closepath fill
	vpt 0 360 arc closepath} bind def
/C4 {BL [] 0 setdash 2 copy moveto
	2 copy vpt 180 270 arc closepath fill
	vpt 0 360 arc closepath} bind def
/C5 {BL [] 0 setdash 2 copy moveto
	2 copy vpt 0 90 arc
	2 copy moveto
	2 copy vpt 180 270 arc closepath fill
	vpt 0 360 arc} bind def
/C6 {BL [] 0 setdash 2 copy moveto
	2 copy vpt 90 270 arc closepath fill
	vpt 0 360 arc closepath} bind def
/C7 {BL [] 0 setdash 2 copy moveto
	2 copy vpt 0 270 arc closepath fill
	vpt 0 360 arc closepath} bind def
/C8 {BL [] 0 setdash 2 copy moveto
	2 copy vpt 270 360 arc closepath fill
	vpt 0 360 arc closepath} bind def
/C9 {BL [] 0 setdash 2 copy moveto
	2 copy vpt 270 450 arc closepath fill
	vpt 0 360 arc closepath} bind def
/C10 {BL [] 0 setdash 2 copy 2 copy moveto vpt 270 360 arc closepath fill
	2 copy moveto
	2 copy vpt 90 180 arc closepath fill
	vpt 0 360 arc closepath} bind def
/C11 {BL [] 0 setdash 2 copy moveto
	2 copy vpt 0 180 arc closepath fill
	2 copy moveto
	2 copy vpt 270 360 arc closepath fill
	vpt 0 360 arc closepath} bind def
/C12 {BL [] 0 setdash 2 copy moveto
	2 copy vpt 180 360 arc closepath fill
	vpt 0 360 arc closepath} bind def
/C13 {BL [] 0 setdash 2 copy moveto
	2 copy vpt 0 90 arc closepath fill
	2 copy moveto
	2 copy vpt 180 360 arc closepath fill
	vpt 0 360 arc closepath} bind def
/C14 {BL [] 0 setdash 2 copy moveto
	2 copy vpt 90 360 arc closepath fill
	vpt 0 360 arc} bind def
/C15 {BL [] 0 setdash 2 copy vpt 0 360 arc closepath fill
	vpt 0 360 arc closepath} bind def
/Rec {newpath 4 2 roll moveto 1 index 0 rlineto 0 exch rlineto
	neg 0 rlineto closepath} bind def
/Square {dup Rec} bind def
/Bsquare {vpt sub exch vpt sub exch vpt2 Square} bind def
/S0 {BL [] 0 setdash 2 copy moveto 0 vpt rlineto BL Bsquare} bind def
/S1 {BL [] 0 setdash 2 copy vpt Square fill Bsquare} bind def
/S2 {BL [] 0 setdash 2 copy exch vpt sub exch vpt Square fill Bsquare} bind def
/S3 {BL [] 0 setdash 2 copy exch vpt sub exch vpt2 vpt Rec fill Bsquare} bind def
/S4 {BL [] 0 setdash 2 copy exch vpt sub exch vpt sub vpt Square fill Bsquare} bind def
/S5 {BL [] 0 setdash 2 copy 2 copy vpt Square fill
	exch vpt sub exch vpt sub vpt Square fill Bsquare} bind def
/S6 {BL [] 0 setdash 2 copy exch vpt sub exch vpt sub vpt vpt2 Rec fill Bsquare} bind def
/S7 {BL [] 0 setdash 2 copy exch vpt sub exch vpt sub vpt vpt2 Rec fill
	2 copy vpt Square fill Bsquare} bind def
/S8 {BL [] 0 setdash 2 copy vpt sub vpt Square fill Bsquare} bind def
/S9 {BL [] 0 setdash 2 copy vpt sub vpt vpt2 Rec fill Bsquare} bind def
/S10 {BL [] 0 setdash 2 copy vpt sub vpt Square fill 2 copy exch vpt sub exch vpt Square fill
	Bsquare} bind def
/S11 {BL [] 0 setdash 2 copy vpt sub vpt Square fill 2 copy exch vpt sub exch vpt2 vpt Rec fill
	Bsquare} bind def
/S12 {BL [] 0 setdash 2 copy exch vpt sub exch vpt sub vpt2 vpt Rec fill Bsquare} bind def
/S13 {BL [] 0 setdash 2 copy exch vpt sub exch vpt sub vpt2 vpt Rec fill
	2 copy vpt Square fill Bsquare} bind def
/S14 {BL [] 0 setdash 2 copy exch vpt sub exch vpt sub vpt2 vpt Rec fill
	2 copy exch vpt sub exch vpt Square fill Bsquare} bind def
/S15 {BL [] 0 setdash 2 copy Bsquare fill Bsquare} bind def
/D0 {gsave translate 45 rotate 0 0 S0 stroke grestore} bind def
/D1 {gsave translate 45 rotate 0 0 S1 stroke grestore} bind def
/D2 {gsave translate 45 rotate 0 0 S2 stroke grestore} bind def
/D3 {gsave translate 45 rotate 0 0 S3 stroke grestore} bind def
/D4 {gsave translate 45 rotate 0 0 S4 stroke grestore} bind def
/D5 {gsave translate 45 rotate 0 0 S5 stroke grestore} bind def
/D6 {gsave translate 45 rotate 0 0 S6 stroke grestore} bind def
/D7 {gsave translate 45 rotate 0 0 S7 stroke grestore} bind def
/D8 {gsave translate 45 rotate 0 0 S8 stroke grestore} bind def
/D9 {gsave translate 45 rotate 0 0 S9 stroke grestore} bind def
/D10 {gsave translate 45 rotate 0 0 S10 stroke grestore} bind def
/D11 {gsave translate 45 rotate 0 0 S11 stroke grestore} bind def
/D12 {gsave translate 45 rotate 0 0 S12 stroke grestore} bind def
/D13 {gsave translate 45 rotate 0 0 S13 stroke grestore} bind def
/D14 {gsave translate 45 rotate 0 0 S14 stroke grestore} bind def
/D15 {gsave translate 45 rotate 0 0 S15 stroke grestore} bind def
/DiaE {stroke [] 0 setdash vpt add M
  hpt neg vpt neg V hpt vpt neg V
  hpt vpt V hpt neg vpt V closepath stroke} def
/BoxE {stroke [] 0 setdash exch hpt sub exch vpt add M
  0 vpt2 neg V hpt2 0 V 0 vpt2 V
  hpt2 neg 0 V closepath stroke} def
/TriUE {stroke [] 0 setdash vpt 1.12 mul add M
  hpt neg vpt -1.62 mul V
  hpt 2 mul 0 V
  hpt neg vpt 1.62 mul V closepath stroke} def
/TriDE {stroke [] 0 setdash vpt 1.12 mul sub M
  hpt neg vpt 1.62 mul V
  hpt 2 mul 0 V
  hpt neg vpt -1.62 mul V closepath stroke} def
/PentE {stroke [] 0 setdash gsave
  translate 0 hpt M 4 {72 rotate 0 hpt L} repeat
  closepath stroke grestore} def
/CircE {stroke [] 0 setdash 
  hpt 0 360 arc stroke} def
/Opaque {gsave closepath 1 setgray fill grestore 0 setgray closepath} def
/DiaW {stroke [] 0 setdash vpt add M
  hpt neg vpt neg V hpt vpt neg V
  hpt vpt V hpt neg vpt V Opaque stroke} def
/BoxW {stroke [] 0 setdash exch hpt sub exch vpt add M
  0 vpt2 neg V hpt2 0 V 0 vpt2 V
  hpt2 neg 0 V Opaque stroke} def
/TriUW {stroke [] 0 setdash vpt 1.12 mul add M
  hpt neg vpt -1.62 mul V
  hpt 2 mul 0 V
  hpt neg vpt 1.62 mul V Opaque stroke} def
/TriDW {stroke [] 0 setdash vpt 1.12 mul sub M
  hpt neg vpt 1.62 mul V
  hpt 2 mul 0 V
  hpt neg vpt -1.62 mul V Opaque stroke} def
/PentW {stroke [] 0 setdash gsave
  translate 0 hpt M 4 {72 rotate 0 hpt L} repeat
  Opaque stroke grestore} def
/CircW {stroke [] 0 setdash 
  hpt 0 360 arc Opaque stroke} def
/BoxFill {gsave Rec 1 setgray fill grestore} def
/Density {
  /Fillden exch def
  currentrgbcolor
  /ColB exch def /ColG exch def /ColR exch def
  /ColR ColR Fillden mul Fillden sub 1 add def
  /ColG ColG Fillden mul Fillden sub 1 add def
  /ColB ColB Fillden mul Fillden sub 1 add def
  ColR ColG ColB setrgbcolor} def
/BoxColFill {gsave Rec PolyFill} def
/PolyFill {gsave Density fill grestore grestore} def
/h {rlineto rlineto rlineto closepath gsave fill grestore stroke} bind def
%
% PostScript Level 1 Pattern Fill routine for rectangles
% Usage: x y w h s a XX PatternFill
%	x,y = lower left corner of box to be filled
%	w,h = width and height of box
%	  a = angle in degrees between lines and x-axis
%	 XX = 0/1 for no/yes cross-hatch
%
/PatternFill {gsave /PFa [ 9 2 roll ] def
  PFa 0 get PFa 2 get 2 div add PFa 1 get PFa 3 get 2 div add translate
  PFa 2 get -2 div PFa 3 get -2 div PFa 2 get PFa 3 get Rec
  TransparentPatterns {} {gsave 1 setgray fill grestore} ifelse
  clip
  currentlinewidth 0.5 mul setlinewidth
  /PFs PFa 2 get dup mul PFa 3 get dup mul add sqrt def
  0 0 M PFa 5 get rotate PFs -2 div dup translate
  0 1 PFs PFa 4 get div 1 add floor cvi
	{PFa 4 get mul 0 M 0 PFs V} for
  0 PFa 6 get ne {
	0 1 PFs PFa 4 get div 1 add floor cvi
	{PFa 4 get mul 0 2 1 roll M PFs 0 V} for
 } if
  stroke grestore} def
%
/languagelevel where
 {pop languagelevel} {1} ifelse
dup 2 lt
	{/InterpretLevel1 true def
	 /InterpretLevel3 false def}
	{/InterpretLevel1 Level1 def
	 2 gt
	    {/InterpretLevel3 Level3 def}
	    {/InterpretLevel3 false def}
	 ifelse }
 ifelse
%
% PostScript level 2 pattern fill definitions
%
/Level2PatternFill {
/Tile8x8 {/PaintType 2 /PatternType 1 /TilingType 1 /BBox [0 0 8 8] /XStep 8 /YStep 8}
	bind def
/KeepColor {currentrgbcolor [/Pattern /DeviceRGB] setcolorspace} bind def
<< Tile8x8
 /PaintProc {0.5 setlinewidth pop 0 0 M 8 8 L 0 8 M 8 0 L stroke} 
>> matrix makepattern
/Pat1 exch def
<< Tile8x8
 /PaintProc {0.5 setlinewidth pop 0 0 M 8 8 L 0 8 M 8 0 L stroke
	0 4 M 4 8 L 8 4 L 4 0 L 0 4 L stroke}
>> matrix makepattern
/Pat2 exch def
<< Tile8x8
 /PaintProc {0.5 setlinewidth pop 0 0 M 0 8 L
	8 8 L 8 0 L 0 0 L fill}
>> matrix makepattern
/Pat3 exch def
<< Tile8x8
 /PaintProc {0.5 setlinewidth pop -4 8 M 8 -4 L
	0 12 M 12 0 L stroke}
>> matrix makepattern
/Pat4 exch def
<< Tile8x8
 /PaintProc {0.5 setlinewidth pop -4 0 M 8 12 L
	0 -4 M 12 8 L stroke}
>> matrix makepattern
/Pat5 exch def
<< Tile8x8
 /PaintProc {0.5 setlinewidth pop -2 8 M 4 -4 L
	0 12 M 8 -4 L 4 12 M 10 0 L stroke}
>> matrix makepattern
/Pat6 exch def
<< Tile8x8
 /PaintProc {0.5 setlinewidth pop -2 0 M 4 12 L
	0 -4 M 8 12 L 4 -4 M 10 8 L stroke}
>> matrix makepattern
/Pat7 exch def
<< Tile8x8
 /PaintProc {0.5 setlinewidth pop 8 -2 M -4 4 L
	12 0 M -4 8 L 12 4 M 0 10 L stroke}
>> matrix makepattern
/Pat8 exch def
<< Tile8x8
 /PaintProc {0.5 setlinewidth pop 0 -2 M 12 4 L
	-4 0 M 12 8 L -4 4 M 8 10 L stroke}
>> matrix makepattern
/Pat9 exch def
/Pattern1 {PatternBgnd KeepColor Pat1 setpattern} bind def
/Pattern2 {PatternBgnd KeepColor Pat2 setpattern} bind def
/Pattern3 {PatternBgnd KeepColor Pat3 setpattern} bind def
/Pattern4 {PatternBgnd KeepColor Landscape {Pat5} {Pat4} ifelse setpattern} bind def
/Pattern5 {PatternBgnd KeepColor Landscape {Pat4} {Pat5} ifelse setpattern} bind def
/Pattern6 {PatternBgnd KeepColor Landscape {Pat9} {Pat6} ifelse setpattern} bind def
/Pattern7 {PatternBgnd KeepColor Landscape {Pat8} {Pat7} ifelse setpattern} bind def
} def
%
%
%End of PostScript Level 2 code
%
/PatternBgnd {
  TransparentPatterns {} {gsave 1 setgray fill grestore} ifelse
} def
%
% Substitute for Level 2 pattern fill codes with
% grayscale if Level 2 support is not selected.
%
/Level1PatternFill {
/Pattern1 {0.250 Density} bind def
/Pattern2 {0.500 Density} bind def
/Pattern3 {0.750 Density} bind def
/Pattern4 {0.125 Density} bind def
/Pattern5 {0.375 Density} bind def
/Pattern6 {0.625 Density} bind def
/Pattern7 {0.875 Density} bind def
} def
%
% Now test for support of Level 2 code
%
Level1 {Level1PatternFill} {Level2PatternFill} ifelse
%
/Symbol-Oblique /Symbol findfont [1 0 .167 1 0 0] makefont
dup length dict begin {1 index /FID eq {pop pop} {def} ifelse} forall
currentdict end definefont pop
%
/Metrics {ExtendTextBox Gswidth} def
/Lwidth {currentpoint stroke M 0 vshift R Metrics} def
/Rwidth {currentpoint stroke M dup stringwidth pop neg vshift R Metrics} def
/Cwidth {currentpoint stroke M dup stringwidth pop -2 div vshift R Metrics} def
/GLwidth {currentpoint stroke M 0 vshift R {ExtendTextBox} forall} def
/GRwidth {currentpoint stroke M dup Gwidth vshift R {ExtendTextBox} forall} def
/GCwidth {currentpoint stroke M dup Gwidth 2 div vshift R {ExtendTextBox} forall} def
/GLwidth2 {0 Gwidth AddGlyphWidth} def
/GRwidth2 {Gwidth -1 mul 0 AddGlyphWidth} def
/GCwidth2 {Gwidth 2 div dup -1 mul AddGlyphWidth} def
/AddGlyphWidth { dup TBx2 gt {userdict /TBx2 3 -1 roll put} {pop} ifelse
                 dup TBx1 lt {userdict /TBx1 3 -1 roll put} {pop} ifelse } def
/MFshow {
   { dup 5 get 3 ge
     { 5 get 3 eq {gsave} {grestore} ifelse }
     {dup dup 0 get findfont exch 1 get scalefont setfont
     [ currentpoint ] exch dup 2 get 0 exch R dup 5 get 2 ne {dup dup 6
     get exch 4 get {textshow} {Metrics pop 0 R} ifelse }if dup 5 get 0 eq
     {dup 3 get {2 get neg 0 exch R pop} {pop aload pop M} ifelse} {dup 5
     get 1 eq {dup 2 get exch dup 3 get exch 6 get Gswidth pop -2 div
     dup 0 R} {dup 6 get Gswidth pop -2 div 0 R 6 get
     textshow 2 index {aload pop M neg 3 -1 roll neg R pop pop} {pop pop pop
     pop aload pop M} ifelse }ifelse }ifelse }
     ifelse }
   forall} def
/Gswidth {dup type /stringtype eq {stringwidth} {pop (n) stringwidth} ifelse} def
/MFwidth {0 exch { dup 5 get 3 ge { 5 get 3 eq { 0 } { pop } ifelse }
 {dup 3 get{dup dup 0 get findfont exch 1 get scalefont setfont
     6 get Gswidth pop add} {pop} ifelse} ifelse} forall} def
/MLshow { currentpoint stroke M
  0 exch R
  Blacktext {gsave 0 setgray MFshow grestore} {MFshow} ifelse } bind def
/MRshow { currentpoint stroke M
  exch dup MFwidth neg 3 -1 roll R
  Blacktext {gsave 0 setgray MFshow grestore} {MFshow} ifelse } bind def
/MCshow { currentpoint stroke M
  exch dup MFwidth -2 div 3 -1 roll R
  Blacktext {gsave 0 setgray MFshow grestore} {MFshow} ifelse } bind def
/XYsave    { [( ) 1 2 true false 3 ()] } bind def
/XYrestore { [( ) 1 2 true false 4 ()] } bind def
Level1 SuppressPDFMark or 
{} {
/SDict 10 dict def
systemdict /pdfmark known not {
  userdict /pdfmark systemdict /cleartomark get put
} if
SDict begin [
  /Title (plot_Vt.eps)
  /Subject (gnuplot plot)
  /Creator (gnuplot 5.2 patchlevel 5)
%  /Producer (gnuplot)
%  /Keywords ()
  /CreationDate (Thu Dec  6 17:17:57 2018)
  /DOCINFO pdfmark
end
} ifelse
%
% Support for boxed text - Ethan A Merritt Sep 2016
%
/InitTextBox { userdict /TBy2 3 -1 roll put userdict /TBx2 3 -1 roll put
           userdict /TBy1 3 -1 roll put userdict /TBx1 3 -1 roll put
	   /Boxing true def } def
/ExtendTextBox { dup type /stringtype eq
    { Boxing { gsave dup false charpath pathbbox
      dup TBy2 gt {userdict /TBy2 3 -1 roll put} {pop} ifelse
      dup TBx2 gt {userdict /TBx2 3 -1 roll put} {pop} ifelse
      dup TBy1 lt {userdict /TBy1 3 -1 roll put} {pop} ifelse
      dup TBx1 lt {userdict /TBx1 3 -1 roll put} {pop} ifelse
      grestore } if }
    {} ifelse} def
/PopTextBox { newpath TBx1 TBxmargin sub TBy1 TBymargin sub M
               TBx1 TBxmargin sub TBy2 TBymargin add L
	       TBx2 TBxmargin add TBy2 TBymargin add L
	       TBx2 TBxmargin add TBy1 TBymargin sub L closepath } def
/DrawTextBox { PopTextBox stroke /Boxing false def} def
/FillTextBox { gsave PopTextBox fill grestore /Boxing false def} def
0 0 0 0 InitTextBox
/TBxmargin 20 def
/TBymargin 20 def
/Boxing false def
/textshow { ExtendTextBox Gshow } def
%
end
%%EndProlog
%%Page: 1 1
gnudict begin
gsave
doclip
50 50 translate
0.050 0.050 scale
0 setgray
newpath
(Helvetica) findfont 280 scalefont setfont
BackgroundColor 0 lt 3 1 roll 0 lt exch 0 lt or or not {BackgroundColor C 1.000 0 0 11520.00 8640.00 BoxColFill} if
gsave % colour palette begin
/maxcolors 64 def
/HSV2RGB {  exch dup 0.0 eq {pop exch pop dup dup} % achromatic gray
  { /HSVs exch def /HSVv exch def 6.0 mul dup floor dup 3 1 roll sub
     /HSVf exch def /HSVi exch cvi def /HSVp HSVv 1.0 HSVs sub mul def
	 /HSVq HSVv 1.0 HSVs HSVf mul sub mul def 
	 /HSVt HSVv 1.0 HSVs 1.0 HSVf sub mul sub mul def
	 /HSVi HSVi 6 mod def 0 HSVi eq {HSVv HSVt HSVp}
	 {1 HSVi eq {HSVq HSVv HSVp}{2 HSVi eq {HSVp HSVv HSVt}
	 {3 HSVi eq {HSVp HSVq HSVv}{4 HSVi eq {HSVt HSVp HSVv}
	 {HSVv HSVp HSVq} ifelse} ifelse} ifelse} ifelse} ifelse
  } ifelse} def
/Constrain {
  dup 0 lt {0 exch pop}{dup 1 gt {1 exch pop} if} ifelse} def
/CMY2RGB {  1 exch sub exch 1 exch sub 3 2 roll 1 exch sub 3 1 roll exch } def
/XYZ2RGB {  3 copy -0.9017 mul exch -0.1187 mul add exch 0.0585 mul exch add
  Constrain 4 1 roll 3 copy -0.0279 mul exch 1.999 mul add exch
  -0.9844 mul add Constrain 5 1 roll -0.2891 mul exch -0.5338 mul add
  exch 1.91 mul exch add Constrain 3 1 roll} def
/SelectSpace {ColorSpace (HSV) eq {HSV2RGB}{ColorSpace (XYZ) eq {
  XYZ2RGB}{ColorSpace (CMY) eq {CMY2RGB}{ColorSpace (YIQ) eq {YIQ2RGB}
  if} ifelse} ifelse} ifelse} def
/InterpolatedColor true def
/grayindex {/gidx 0 def
  {GrayA gidx get grayv ge {exit} if /gidx gidx 1 add def} loop} def
/dgdx {grayv GrayA gidx get sub GrayA gidx 1 sub get
  GrayA gidx get sub div} def 
/redvalue {RedA gidx get RedA gidx 1 sub get
  RedA gidx get sub dgdxval mul add} def
/greenvalue {GreenA gidx get GreenA gidx 1 sub get
  GreenA gidx get sub dgdxval mul add} def
/bluevalue {BlueA gidx get BlueA gidx 1 sub get
  BlueA gidx get sub dgdxval mul add} def
/interpolate {
  grayindex grayv GrayA gidx get sub abs 1e-5 le
    {RedA gidx get GreenA gidx get BlueA gidx get}
    {/dgdxval dgdx def redvalue greenvalue bluevalue} ifelse} def
/GrayA [0 .0159 .0317 .0476 .0635 .0794 .0952 .1111 .127 .1429 .1587 .1746 
  .1905 .2063 .2222 .2381 .254 .2698 .2857 .3016 .3175 .3333 .3492 .3651 
  .381 .3968 .4127 .4286 .4444 .4603 .4762 .4921 .5079 .5238 .5397 .5556 
  .5714 .5873 .6032 .619 .6349 .6508 .6667 .6825 .6984 .7143 .7302 .746 
  .7619 .7778 .7937 .8095 .8254 .8413 .8571 .873 .8889 .9048 .9206 .9365 
  .9524 .9683 .9841 1 ] def
/RedA [.267 .2727 .2771 .2804 .2824 .2832 .2828 .2812 .2785 .2747 .27 .2644 
  .258 .2511 .2437 .2361 .2283 .2204 .2127 .2051 .1977 .1906 .1838 .1773 
  .171 .1648 .1588 .153 .1471 .1414 .1358 .1306 .1259 .1222 .1199 .1196 .122 
  .1277 .1368 .1496 .166 .1855 .208 .2331 .2605 .29 .3213 .3544 .3889 .4249 
  .4622 .5008 .5403 .5809 .6222 .6641 .7064 .7489 .7913 .8333 .8747 .9153 
  .9548 .9932 ] def
/GreenA [.0049 .0258 .0509 .0742 .096 .1169 .1374 .1575 .1773 .197 .2163 
  .2354 .2542 .2726 .2906 .3083 .3256 .3425 .3591 .3754 .3913 .4071 .4226 
  .4379 .4531 .4681 .4831 .4981 .513 .5279 .5428 .5577 .5726 .5875 .6024 
  .6173 .6321 .6469 .6616 .6761 .6905 .7047 .7187 .7324 .7458 .7588 .7715 
  .7837 .7955 .8067 .8173 .8274 .8369 .8457 .8538 .8613 .8682 .8745 .8803 
  .8858 .8909 .896 .901 .9062 ] def
/BlueA [.3294 .3534 .3762 .3979 .4183 .4372 .4546 .4704 .4847 .4973 .5083 
  .5177 .5258 .5325 .5381 .5427 .5463 .5493 .5516 .5535 .555 .5561 .557 
  .5576 .558 .5581 .5581 .5577 .557 .5559 .5543 .5522 .5494 .546 .5418 .5368 
  .5308 .5239 .516 .5069 .4968 .4854 .4729 .4591 .4441 .4278 .4103 .3915 
  .3714 .3501 .3275 .3038 .2789 .253 .2262 .1989 .1715 .145 .1213 .1033 
  .0954 .1005 .1179 .1439 ] def
/pm3dround {maxcolors 0 gt {dup 1 ge
	{pop 1} {maxcolors mul floor maxcolors 1 sub div} ifelse} if} def
/pm3dGamma 1.0 1.5 Gamma mul div def
/ColorSpace (RGB) def
Color InterpolatedColor or { % COLOUR vs. GRAY map
  InterpolatedColor { %% Interpolation vs. RGB-Formula
    /g {stroke pm3dround /grayv exch def interpolate
        SelectSpace setrgbcolor} bind def
  }{
  /g {stroke pm3dround dup cF7 Constrain exch dup cF5 Constrain exch cF15 Constrain 
       SelectSpace setrgbcolor} bind def
  } ifelse
}{
  /g {stroke pm3dround pm3dGamma exp setgray} bind def
} ifelse
1.000 UL
LTb
1.00 1.00 1.00 C 1.000 1497 950 8926 7040 BoxColFill
1.000 UL
LTb
0.00 0.00 0.00 C 1497 950 M
88 0 V
stroke
0.00 0.45 0.74 C 1329 950 M
[ [(Helvetica) 280.0 0.0 true true 0 (0)]
] -93.3 MRshow
/Helvetica findfont 280 scalefont setfont
/vshift -93 def
1.000 UL
LTb
0.00 0.00 0.00 C 1497 1830 M
88 0 V
stroke
0.00 0.45 0.74 C 1329 1830 M
[ [(Helvetica) 280.0 0.0 true true 0 (0.5)]
] -93.3 MRshow
/Helvetica findfont 280 scalefont setfont
1.000 UL
LTb
0.00 0.00 0.00 C 1497 2710 M
88 0 V
stroke
0.00 0.45 0.74 C 1329 2710 M
[ [(Helvetica) 280.0 0.0 true true 0 (1)]
] -93.3 MRshow
/Helvetica findfont 280 scalefont setfont
1.000 UL
LTb
0.00 0.00 0.00 C 1497 3590 M
88 0 V
stroke
0.00 0.45 0.74 C 1329 3590 M
[ [(Helvetica) 280.0 0.0 true true 0 (1.5)]
] -93.3 MRshow
/Helvetica findfont 280 scalefont setfont
1.000 UL
LTb
0.00 0.00 0.00 C 1497 4471 M
88 0 V
stroke
0.00 0.45 0.74 C 1329 4471 M
[ [(Helvetica) 280.0 0.0 true true 0 (2)]
] -93.3 MRshow
/Helvetica findfont 280 scalefont setfont
1.000 UL
LTb
0.00 0.00 0.00 C 1497 5351 M
88 0 V
stroke
0.00 0.45 0.74 C 1329 5351 M
[ [(Helvetica) 280.0 0.0 true true 0 (2.5)]
] -93.3 MRshow
/Helvetica findfont 280 scalefont setfont
1.000 UL
LTb
0.00 0.00 0.00 C 1497 6231 M
88 0 V
stroke
0.00 0.45 0.74 C 1329 6231 M
[ [(Helvetica) 280.0 0.0 true true 0 (3)]
] -93.3 MRshow
/Helvetica findfont 280 scalefont setfont
1.000 UL
LTb
0.00 0.00 0.00 C 1497 7111 M
88 0 V
stroke
0.00 0.45 0.74 C 1329 7111 M
[ [(Helvetica) 280.0 0.0 true true 0 (3.5)]
] -93.3 MRshow
/Helvetica findfont 280 scalefont setfont
1.000 UL
LTb
0.00 0.00 0.00 C 1497 7991 M
88 0 V
stroke
0.00 0.45 0.74 C 1329 7991 M
[ [(Helvetica) 280.0 0.0 true true 0 (4)]
] -93.3 MRshow
/Helvetica findfont 280 scalefont setfont
1.000 UL
LTb
0.00 0.00 0.00 C 1497 950 M
0 88 V
stroke
0.15 0.15 0.15 C 1497 670 M
[ [(Helvetica) 280.0 0.0 true true 0 (0)]
] -93.3 MCshow
/Helvetica findfont 280 scalefont setfont
1.000 UL
LTb
0.00 0.00 0.00 C 2737 950 M
0 88 V
stroke
0.15 0.15 0.15 C 2737 670 M
[ [(Helvetica) 280.0 0.0 true true 0 (0.5)]
] -93.3 MCshow
/Helvetica findfont 280 scalefont setfont
1.000 UL
LTb
0.00 0.00 0.00 C 3978 950 M
0 88 V
stroke
0.15 0.15 0.15 C 3978 670 M
[ [(Helvetica) 280.0 0.0 true true 0 (1)]
] -93.3 MCshow
/Helvetica findfont 280 scalefont setfont
1.000 UL
LTb
0.00 0.00 0.00 C 5218 950 M
0 88 V
stroke
0.15 0.15 0.15 C 5218 670 M
[ [(Helvetica) 280.0 0.0 true true 0 (1.5)]
] -93.3 MCshow
/Helvetica findfont 280 scalefont setfont
1.000 UL
LTb
0.00 0.00 0.00 C 6459 950 M
0 88 V
stroke
0.15 0.15 0.15 C 6459 670 M
[ [(Helvetica) 280.0 0.0 true true 0 (2)]
] -93.3 MCshow
/Helvetica findfont 280 scalefont setfont
1.000 UL
LTb
0.00 0.00 0.00 C 7699 950 M
0 88 V
stroke
0.15 0.15 0.15 C 7699 670 M
[ [(Helvetica) 280.0 0.0 true true 0 (2.5)]
] -93.3 MCshow
/Helvetica findfont 280 scalefont setfont
1.000 UL
LTb
0.00 0.00 0.00 C 8940 950 M
0 88 V
stroke
0.15 0.15 0.15 C 8940 670 M
[ [(Helvetica) 280.0 0.0 true true 0 (3)]
] -93.3 MCshow
/Helvetica findfont 280 scalefont setfont
1.000 UL
LTb
0.00 0.00 0.00 C 10180 950 M
0 88 V
stroke
0.15 0.15 0.15 C 10180 670 M
[ [(Helvetica) 280.0 0.0 true true 0 (3.5)]
] -93.3 MCshow
/Helvetica findfont 280 scalefont setfont
1.000 UL
LTb
0.00 0.00 0.00 C 1.000 UP
1.000 UL
LTb
0.00 0.00 0.00 C 0.00 0.45 0.74 C 545 4470 M
currentpoint gsave translate 90 rotate 0 0 moveto
[ [(Helvetica) 308.0 0.0 true true 0 (Vt [keV])]
] -102.7 MCshow
grestore
/Helvetica findfont 280 scalefont setfont
LTb
0.15 0.15 0.15 C 5960 250 M
[ [(Helvetica) 308.0 0.0 true true 0 (S [mm])]
] -102.7 MCshow
/Helvetica findfont 280 scalefont setfont
LTb
% Begin plot #1
2.000 UP
0.500 UL
LTb
[10.0 dl1 10.0 dl2 ] 0 setdash
0.00 0.00 1.00 C 1497 950 M
4 27 V
5 26 V
4 25 V
4 24 V
5 24 V
4 23 V
5 23 V
4 23 V
4 22 V
5 22 V
4 21 V
4 22 V
5 21 V
4 21 V
4 20 V
5 21 V
4 20 V
5 20 V
4 19 V
4 20 V
5 19 V
4 20 V
4 19 V
5 18 V
4 19 V
4 19 V
5 18 V
4 18 V
5 18 V
4 18 V
4 18 V
5 17 V
4 18 V
4 17 V
5 18 V
4 17 V
4 17 V
5 17 V
4 16 V
5 17 V
4 16 V
4 17 V
5 16 V
4 16 V
4 16 V
5 16 V
4 16 V
4 16 V
5 16 V
4 15 V
5 16 V
4 15 V
4 16 V
5 15 V
4 15 V
4 15 V
5 15 V
4 15 V
4 15 V
5 14 V
4 15 V
5 15 V
4 14 V
4 15 V
5 14 V
4 14 V
4 14 V
5 14 V
4 14 V
4 14 V
5 14 V
4 14 V
5 14 V
4 13 V
4 14 V
5 14 V
4 13 V
4 13 V
5 14 V
4 13 V
4 13 V
5 13 V
4 13 V
5 13 V
4 13 V
4 13 V
5 13 V
4 13 V
4 13 V
5 12 V
4 13 V
4 12 V
5 13 V
4 12 V
4 13 V
5 12 V
4 12 V
5 13 V
4 12 V
4 12 V
5 12 V
4 12 V
4 12 V
5 12 V
4 12 V
4 12 V
5 11 V
4 12 V
5 12 V
4 11 V
4 12 V
5 11 V
4 12 V
4 11 V
5 12 V
4 11 V
4 11 V
5 12 V
4 11 V
5 11 V
4 11 V
4 11 V
5 11 V
4 11 V
4 11 V
5 11 V
4 11 V
4 11 V
5 10 V
4 11 V
5 11 V
4 10 V
4 11 V
5 11 V
4 10 V
4 11 V
5 10 V
4 11 V
4 10 V
5 10 V
4 11 V
5 10 V
4 10 V
4 10 V
5 10 V
4 11 V
4 10 V
5 10 V
4 10 V
4 10 V
5 10 V
4 10 V
5 9 V
4 10 V
4 10 V
5 10 V
4 10 V
4 9 V
5 10 V
4 10 V
4 9 V
5 10 V
4 9 V
5 10 V
4 9 V
4 10 V
5 9 V
4 10 V
4 9 V
5 9 V
4 10 V
4 9 V
5 9 V
4 9 V
5 9 V
4 10 V
4 9 V
5 9 V
4 9 V
4 9 V
5 9 V
4 9 V
4 9 V
5 9 V
4 9 V
5 8 V
4 9 V
4 9 V
5 9 V
4 9 V
4 8 V
5 9 V
4 9 V
4 8 V
5 9 V
4 8 V
5 9 V
4 9 V
4 8 V
5 9 V
4 8 V
4 8 V
5 9 V
4 8 V
4 9 V
5 8 V
4 8 V
5 8 V
4 9 V
4 8 V
5 8 V
4 8 V
4 8 V
5 9 V
4 8 V
4 8 V
5 8 V
4 8 V
5 8 V
4 8 V
4 8 V
5 8 V
4 8 V
4 8 V
5 8 V
4 7 V
4 8 V
5 8 V
4 8 V
5 8 V
4 7 V
4 8 V
5 8 V
4 7 V
4 8 V
5 8 V
4 7 V
4 8 V
5 7 V
4 8 V
5 8 V
4 7 V
4 8 V
5 7 V
4 7 V
4 8 V
5 7 V
4 8 V
4 7 V
stroke 2583 3988 M
5 7 V
4 8 V
5 7 V
4 7 V
4 8 V
5 7 V
4 7 V
4 7 V
5 7 V
4 8 V
4 7 V
5 7 V
4 7 V
5 7 V
4 7 V
4 7 V
5 7 V
4 7 V
4 7 V
5 7 V
4 7 V
4 7 V
5 7 V
4 7 V
5 7 V
4 7 V
4 7 V
5 6 V
4 7 V
4 7 V
5 7 V
4 7 V
4 6 V
5 7 V
4 7 V
4 6 V
5 7 V
4 7 V
5 6 V
4 7 V
4 7 V
5 6 V
4 7 V
4 6 V
5 7 V
4 6 V
4 7 V
5 6 V
4 7 V
5 6 V
4 7 V
4 6 V
5 7 V
4 6 V
4 7 V
5 6 V
4 6 V
4 7 V
5 6 V
4 6 V
5 7 V
4 6 V
4 6 V
5 6 V
4 7 V
4 6 V
5 6 V
4 6 V
4 6 V
5 6 V
4 7 V
5 6 V
4 6 V
4 6 V
5 6 V
4 6 V
4 6 V
5 6 V
4 6 V
4 6 V
5 6 V
4 6 V
5 6 V
4 6 V
4 6 V
5 6 V
4 6 V
4 6 V
5 6 V
4 6 V
4 5 V
5 6 V
4 6 V
5 6 V
4 6 V
4 5 V
5 6 V
4 6 V
4 6 V
5 5 V
4 6 V
4 6 V
5 6 V
4 5 V
5 6 V
4 6 V
4 5 V
5 6 V
4 6 V
4 5 V
5 6 V
4 5 V
4 6 V
5 5 V
4 6 V
5 6 V
4 5 V
4 6 V
5 5 V
4 6 V
4 5 V
5 5 V
4 6 V
4 5 V
5 6 V
4 5 V
5 6 V
4 5 V
4 5 V
5 6 V
4 5 V
4 5 V
5 6 V
4 5 V
4 5 V
5 6 V
4 5 V
5 5 V
4 5 V
4 6 V
5 5 V
4 5 V
4 5 V
5 5 V
4 6 V
4 5 V
5 5 V
4 5 V
5 5 V
4 5 V
4 6 V
5 5 V
4 5 V
4 5 V
5 5 V
4 5 V
4 5 V
5 5 V
4 5 V
5 5 V
4 5 V
4 5 V
5 5 V
4 5 V
4 5 V
5 5 V
4 5 V
4 5 V
5 5 V
4 5 V
5 5 V
4 5 V
4 4 V
5 5 V
4 5 V
4 5 V
5 5 V
4 5 V
4 5 V
5 4 V
4 5 V
5 5 V
4 5 V
4 5 V
5 4 V
4 5 V
4 5 V
5 5 V
4 4 V
4 5 V
5 5 V
4 4 V
5 5 V
4 5 V
4 4 V
5 5 V
4 5 V
4 4 V
5 5 V
4 5 V
4 4 V
5 5 V
4 4 V
5 5 V
4 5 V
4 4 V
5 5 V
4 4 V
4 5 V
5 4 V
4 5 V
4 4 V
5 5 V
4 4 V
5 5 V
4 4 V
4 5 V
5 4 V
4 5 V
4 4 V
5 5 V
4 4 V
4 4 V
5 5 V
4 4 V
4 5 V
5 4 V
4 4 V
5 5 V
4 4 V
4 4 V
5 5 V
4 4 V
4 4 V
5 5 V
4 4 V
4 4 V
5 5 V
4 4 V
5 4 V
4 4 V
4 5 V
5 4 V
4 4 V
4 4 V
5 5 V
4 4 V
4 4 V
5 4 V
stroke 3670 5366 M
4 4 V
5 5 V
4 4 V
4 4 V
5 4 V
4 4 V
4 4 V
5 5 V
4 4 V
4 4 V
5 4 V
4 4 V
5 4 V
4 4 V
4 4 V
5 4 V
4 4 V
4 4 V
5 4 V
4 4 V
4 5 V
5 4 V
4 4 V
5 4 V
4 4 V
4 4 V
5 4 V
4 4 V
4 3 V
5 4 V
4 4 V
4 4 V
5 4 V
4 4 V
5 4 V
4 4 V
4 4 V
5 4 V
4 4 V
4 4 V
5 4 V
4 3 V
4 4 V
5 4 V
4 4 V
5 4 V
4 4 V
4 4 V
5 3 V
4 4 V
4 4 V
5 4 V
4 4 V
4 3 V
5 4 V
4 4 V
5 4 V
4 3 V
4 4 V
5 4 V
4 4 V
4 3 V
5 4 V
4 4 V
4 4 V
5 3 V
4 4 V
5 4 V
4 3 V
4 4 V
5 4 V
4 3 V
4 4 V
5 4 V
4 3 V
4 4 V
5 4 V
4 3 V
5 4 V
4 4 V
4 3 V
5 4 V
4 3 V
4 4 V
5 4 V
4 3 V
4 4 V
5 3 V
4 4 V
5 3 V
4 4 V
4 3 V
5 4 V
4 4 V
4 3 V
5 4 V
4 3 V
4 4 V
5 3 V
4 4 V
5 3 V
4 4 V
4 3 V
5 3 V
4 4 V
4 3 V
5 4 V
4 3 V
4 4 V
5 3 V
4 4 V
5 3 V
4 3 V
4 4 V
5 3 V
4 4 V
4 3 V
5 3 V
4 4 V
4 3 V
5 3 V
4 4 V
5 3 V
4 4 V
4 3 V
5 3 V
4 4 V
4 3 V
5 3 V
4 3 V
4 4 V
5 3 V
4 3 V
5 4 V
4 3 V
4 3 V
5 4 V
4 3 V
4 3 V
5 3 V
4 4 V
4 3 V
5 3 V
4 3 V
5 4 V
4 3 V
4 3 V
5 3 V
4 3 V
4 4 V
5 3 V
4 3 V
4 3 V
5 3 V
4 4 V
4 3 V
5 3 V
4 3 V
5 3 V
4 3 V
4 3 V
5 4 V
4 3 V
4 3 V
5 3 V
4 3 V
4 3 V
5 3 V
4 3 V
5 4 V
4 3 V
4 3 V
5 3 V
4 3 V
4 3 V
5 3 V
4 3 V
4 3 V
5 3 V
4 3 V
5 3 V
4 3 V
4 3 V
5 3 V
4 3 V
4 3 V
5 3 V
4 3 V
4 3 V
5 3 V
4 3 V
5 3 V
4 3 V
4 3 V
5 3 V
4 3 V
4 3 V
5 3 V
4 3 V
4 3 V
5 3 V
4 3 V
5 3 V
4 3 V
4 3 V
5 3 V
4 3 V
4 2 V
5 3 V
4 3 V
4 3 V
5 3 V
4 3 V
5 3 V
4 3 V
4 3 V
5 2 V
4 3 V
4 3 V
5 3 V
4 3 V
4 3 V
5 3 V
4 2 V
5 3 V
4 3 V
4 3 V
5 3 V
4 2 V
4 3 V
5 3 V
4 3 V
4 3 V
5 2 V
4 3 V
5 3 V
4 3 V
4 3 V
5 2 V
4 3 V
4 3 V
5 3 V
4 2 V
4 3 V
5 3 V
4 3 V
5 2 V
4 3 V
4 3 V
stroke 4756 6208 M
5 3 V
4 2 V
4 3 V
5 3 V
4 2 V
4 3 V
5 3 V
4 2 V
5 3 V
4 3 V
4 3 V
5 2 V
4 3 V
4 3 V
5 2 V
4 3 V
4 2 V
5 3 V
4 3 V
5 2 V
4 3 V
4 3 V
5 2 V
4 3 V
4 3 V
5 2 V
4 3 V
4 2 V
5 3 V
4 3 V
5 2 V
4 3 V
4 2 V
5 3 V
4 3 V
4 2 V
5 3 V
4 2 V
4 3 V
5 2 V
4 3 V
5 3 V
4 2 V
4 3 V
5 2 V
4 3 V
4 2 V
5 3 V
4 2 V
4 3 V
5 2 V
4 3 V
5 2 V
4 3 V
4 2 V
5 3 V
4 2 V
4 3 V
5 2 V
4 3 V
4 2 V
5 3 V
4 2 V
5 3 V
4 2 V
4 3 V
5 2 V
4 3 V
4 2 V
5 2 V
4 3 V
4 2 V
5 3 V
4 2 V
5 3 V
4 2 V
4 2 V
5 3 V
4 2 V
4 3 V
5 2 V
4 3 V
4 2 V
5 2 V
4 3 V
5 2 V
4 2 V
4 3 V
5 2 V
4 3 V
4 2 V
5 2 V
4 3 V
4 2 V
5 2 V
4 3 V
4 2 V
5 2 V
4 3 V
5 2 V
4 2 V
4 3 V
5 2 V
4 2 V
4 3 V
5 2 V
4 2 V
4 3 V
5 2 V
4 2 V
5 3 V
4 2 V
4 2 V
5 3 V
4 2 V
4 2 V
5 2 V
4 3 V
4 2 V
5 2 V
4 3 V
5 2 V
4 2 V
4 2 V
5 3 V
4 2 V
4 2 V
5 2 V
4 3 V
4 2 V
5 2 V
4 2 V
5 2 V
4 3 V
4 2 V
5 2 V
4 2 V
4 3 V
5 2 V
4 2 V
4 2 V
5 2 V
4 3 V
5 2 V
4 2 V
4 2 V
5 2 V
4 3 V
4 2 V
5 2 V
4 2 V
4 2 V
5 2 V
4 3 V
5 2 V
4 2 V
4 2 V
5 2 V
4 2 V
4 2 V
5 3 V
4 2 V
4 2 V
5 2 V
4 2 V
5 2 V
4 2 V
4 3 V
5 2 V
4 2 V
4 2 V
5 2 V
4 2 V
4 2 V
5 2 V
4 2 V
5 2 V
4 3 V
4 2 V
5 2 V
4 2 V
4 2 V
5 2 V
4 2 V
4 2 V
5 2 V
4 2 V
5 2 V
4 2 V
4 2 V
5 2 V
4 2 V
4 3 V
5 2 V
4 2 V
4 2 V
5 2 V
4 2 V
5 2 V
4 2 V
4 2 V
5 2 V
4 2 V
4 2 V
5 2 V
4 2 V
4 2 V
5 2 V
4 2 V
5 2 V
4 2 V
4 2 V
5 2 V
4 2 V
4 2 V
5 2 V
4 2 V
4 2 V
5 2 V
4 2 V
5 2 V
4 2 V
4 2 V
5 2 V
4 2 V
4 1 V
5 2 V
4 2 V
4 2 V
5 2 V
4 2 V
5 2 V
4 2 V
4 2 V
5 2 V
4 2 V
4 2 V
5 2 V
4 2 V
4 2 V
5 1 V
4 2 V
5 2 V
4 2 V
4 2 V
5 2 V
4 2 V
4 2 V
5 2 V
stroke 5843 6774 M
4 2 V
4 2 V
5 1 V
4 2 V
5 2 V
4 2 V
4 2 V
5 2 V
4 2 V
4 2 V
5 1 V
4 2 V
4 2 V
5 2 V
4 2 V
5 2 V
4 2 V
4 1 V
5 2 V
4 2 V
4 2 V
5 2 V
4 2 V
4 1 V
5 2 V
4 2 V
5 2 V
4 2 V
4 2 V
5 1 V
4 2 V
4 2 V
5 2 V
4 2 V
4 1 V
5 2 V
4 2 V
4 2 V
5 2 V
4 1 V
5 2 V
4 2 V
4 2 V
5 2 V
4 1 V
4 2 V
5 2 V
4 2 V
4 1 V
5 2 V
4 2 V
5 2 V
4 2 V
4 1 V
5 2 V
4 2 V
4 2 V
5 1 V
4 2 V
4 2 V
5 2 V
4 1 V
5 2 V
4 2 V
4 2 V
5 1 V
4 2 V
4 2 V
5 1 V
4 2 V
4 2 V
5 2 V
4 1 V
5 2 V
4 2 V
4 1 V
5 2 V
4 2 V
4 2 V
5 1 V
4 2 V
4 2 V
5 1 V
4 2 V
5 2 V
4 1 V
4 2 V
5 2 V
4 1 V
4 2 V
5 2 V
4 2 V
4 1 V
5 2 V
4 2 V
5 1 V
4 2 V
4 2 V
5 1 V
4 2 V
4 2 V
5 1 V
4 2 V
4 1 V
5 2 V
4 2 V
5 1 V
4 2 V
4 2 V
5 1 V
4 2 V
4 2 V
5 1 V
4 2 V
4 1 V
5 2 V
4 2 V
5 1 V
4 2 V
4 2 V
5 1 V
4 2 V
4 1 V
5 2 V
4 2 V
4 1 V
5 2 V
4 1 V
5 2 V
4 2 V
4 1 V
5 2 V
4 1 V
4 2 V
5 2 V
4 1 V
4 2 V
5 1 V
4 2 V
5 1 V
4 2 V
4 2 V
5 1 V
4 2 V
4 1 V
5 2 V
4 1 V
4 2 V
5 2 V
4 1 V
5 2 V
4 1 V
4 2 V
5 1 V
4 2 V
4 1 V
5 2 V
4 1 V
4 2 V
5 2 V
4 1 V
5 2 V
4 1 V
4 2 V
5 1 V
4 2 V
4 1 V
5 2 V
4 1 V
4 2 V
5 1 V
4 2 V
5 1 V
4 2 V
4 1 V
5 2 V
4 1 V
4 2 V
5 1 V
4 2 V
4 1 V
5 2 V
4 1 V
5 2 V
4 1 V
4 2 V
5 1 V
4 2 V
4 1 V
5 2 V
4 1 V
4 2 V
5 1 V
4 2 V
5 1 V
4 2 V
4 1 V
5 1 V
4 2 V
4 1 V
5 2 V
4 1 V
4 2 V
5 1 V
4 2 V
5 1 V
4 2 V
4 1 V
5 1 V
4 2 V
4 1 V
5 2 V
4 1 V
4 2 V
5 1 V
4 1 V
4 2 V
5 1 V
4 2 V
5 1 V
4 2 V
4 1 V
5 1 V
4 2 V
4 1 V
5 2 V
4 1 V
4 2 V
5 1 V
4 1 V
5 2 V
4 1 V
4 2 V
5 1 V
4 1 V
4 2 V
5 1 V
4 2 V
4 1 V
5 1 V
4 2 V
5 1 V
4 1 V
4 2 V
5 1 V
4 2 V
4 1 V
5 1 V
4 2 V
stroke 6929 7176 M
4 1 V
5 2 V
4 1 V
5 1 V
4 2 V
4 1 V
5 1 V
4 2 V
4 1 V
5 1 V
4 2 V
4 1 V
5 1 V
4 2 V
5 1 V
4 2 V
4 1 V
5 1 V
4 2 V
4 1 V
5 1 V
4 2 V
4 1 V
5 1 V
4 2 V
5 1 V
4 1 V
4 2 V
5 1 V
4 1 V
4 2 V
5 1 V
4 1 V
4 2 V
5 1 V
4 1 V
5 1 V
4 2 V
4 1 V
5 1 V
4 2 V
4 1 V
5 1 V
4 2 V
4 1 V
5 1 V
4 2 V
5 1 V
4 1 V
4 1 V
5 2 V
4 1 V
4 1 V
5 2 V
4 1 V
4 1 V
5 1 V
4 2 V
5 1 V
4 1 V
4 2 V
5 1 V
4 1 V
4 1 V
5 2 V
4 1 V
4 1 V
5 1 V
4 2 V
5 1 V
4 1 V
4 2 V
5 1 V
4 1 V
4 1 V
5 2 V
4 1 V
4 1 V
5 1 V
4 2 V
5 1 V
4 1 V
4 1 V
5 2 V
4 1 V
4 1 V
5 1 V
4 1 V
4 2 V
5 1 V
4 1 V
5 1 V
4 2 V
4 1 V
5 1 V
4 1 V
4 2 V
5 1 V
4 1 V
4 1 V
5 1 V
4 2 V
5 1 V
4 1 V
4 1 V
5 1 V
4 2 V
4 1 V
5 1 V
4 1 V
4 2 V
5 1 V
4 1 V
5 1 V
4 1 V
4 2 V
5 1 V
4 1 V
4 1 V
5 1 V
4 1 V
4 2 V
5 1 V
4 1 V
5 1 V
4 1 V
4 2 V
5 1 V
4 1 V
4 1 V
5 1 V
4 1 V
4 2 V
5 1 V
4 1 V
5 1 V
4 1 V
4 2 V
5 1 V
4 1 V
4 1 V
5 1 V
4 1 V
4 1 V
5 2 V
4 1 V
5 1 V
4 1 V
4 1 V
5 1 V
4 2 V
4 1 V
5 1 V
4 1 V
4 1 V
5 1 V
4 1 V
4 2 V
5 1 V
4 1 V
5 1 V
4 1 V
4 1 V
5 1 V
4 2 V
4 1 V
5 1 V
4 1 V
4 1 V
5 1 V
4 1 V
5 1 V
4 2 V
4 1 V
5 1 V
4 1 V
4 1 V
5 1 V
4 1 V
4 1 V
5 1 V
4 2 V
5 1 V
4 1 V
4 1 V
5 1 V
4 1 V
4 1 V
5 1 V
4 1 V
4 1 V
5 2 V
4 1 V
5 1 V
4 1 V
4 1 V
5 1 V
4 1 V
4 1 V
5 1 V
4 1 V
4 1 V
5 2 V
4 1 V
5 1 V
4 1 V
4 1 V
5 1 V
4 1 V
4 1 V
5 1 V
4 1 V
4 1 V
5 1 V
4 1 V
5 2 V
4 1 V
4 1 V
5 1 V
4 1 V
4 1 V
5 1 V
4 1 V
4 1 V
5 1 V
4 1 V
5 1 V
4 1 V
4 1 V
5 1 V
4 1 V
4 1 V
5 2 V
4 1 V
4 1 V
5 1 V
4 1 V
5 1 V
4 1 V
4 1 V
5 1 V
4 1 V
4 1 V
5 1 V
4 1 V
4 1 V
5 1 V
4 1 V
5 1 V
stroke 8016 7472 M
4 1 V
4 1 V
5 1 V
4 1 V
4 1 V
5 1 V
4 1 V
4 1 V
5 1 V
4 1 V
5 1 V
4 1 V
4 1 V
5 1 V
4 1 V
4 1 V
5 1 V
4 1 V
4 1 V
5 1 V
4 1 V
5 1 V
4 1 V
4 1 V
5 1 V
4 1 V
4 1 V
5 1 V
4 1 V
4 1 V
5 1 V
4 1 V
5 1 V
4 1 V
4 1 V
5 1 V
4 1 V
4 1 V
5 1 V
4 1 V
4 1 V
5 1 V
4 1 V
5 1 V
4 1 V
4 1 V
5 1 V
4 1 V
4 1 V
5 1 V
4 1 V
4 1 V
5 1 V
4 1 V
5 1 V
4 1 V
4 1 V
5 1 V
4 1 V
4 1 V
5 1 V
4 1 V
4 1 V
5 1 V
4 1 V
5 1 V
4 1 V
4 0 V
5 1 V
4 1 V
4 1 V
5 1 V
4 1 V
4 1 V
5 1 V
4 1 V
5 1 V
4 1 V
4 1 V
5 1 V
4 1 V
4 1 V
5 1 V
4 1 V
4 1 V
5 0 V
4 1 V
4 1 V
5 1 V
4 1 V
5 1 V
4 1 V
4 1 V
5 1 V
4 1 V
4 1 V
5 1 V
4 1 V
4 1 V
5 0 V
4 1 V
5 1 V
4 1 V
4 1 V
5 1 V
4 1 V
4 1 V
5 1 V
4 1 V
4 1 V
5 1 V
4 0 V
5 1 V
4 1 V
4 1 V
5 1 V
4 1 V
4 1 V
5 1 V
4 1 V
4 1 V
5 1 V
4 0 V
5 1 V
4 1 V
4 1 V
5 1 V
4 1 V
4 1 V
5 1 V
4 1 V
4 0 V
5 1 V
4 1 V
5 1 V
4 1 V
4 1 V
5 1 V
4 1 V
4 1 V
5 0 V
4 1 V
4 1 V
5 1 V
4 1 V
5 1 V
4 1 V
4 1 V
5 0 V
4 1 V
4 1 V
5 1 V
4 1 V
4 1 V
5 1 V
4 1 V
5 0 V
4 1 V
4 1 V
5 1 V
4 1 V
4 1 V
5 1 V
4 1 V
4 0 V
5 1 V
4 1 V
5 1 V
4 1 V
4 1 V
5 1 V
4 0 V
4 1 V
5 1 V
4 1 V
4 1 V
5 1 V
4 0 V
5 1 V
4 1 V
4 1 V
5 1 V
4 1 V
4 1 V
5 0 V
4 1 V
4 1 V
5 1 V
4 1 V
5 1 V
4 0 V
4 1 V
5 1 V
4 1 V
4 1 V
5 1 V
4 0 V
4 1 V
5 1 V
4 1 V
5 1 V
4 1 V
4 0 V
5 1 V
4 1 V
4 1 V
5 1 V
4 1 V
4 0 V
5 1 V
4 1 V
5 1 V
4 1 V
4 0 V
5 1 V
4 1 V
4 1 V
5 1 V
4 1 V
4 0 V
5 1 V
4 1 V
5 1 V
4 1 V
4 0 V
5 1 V
4 1 V
4 1 V
5 1 V
4 0 V
4 1 V
5 1 V
4 1 V
5 1 V
4 0 V
4 1 V
5 1 V
4 1 V
4 1 V
5 0 V
4 1 V
4 1 V
5 1 V
4 1 V
5 0 V
4 1 V
4 1 V
5 1 V
4 1 V
stroke 9102 7697 M
4 0 V
5 1 V
4 1 V
4 1 V
5 0 V
4 1 V
5 1 V
4 1 V
4 1 V
5 0 V
4 1 V
4 1 V
5 1 V
4 0 V
4 1 V
5 1 V
4 1 V
5 1 V
4 0 V
4 1 V
5 1 V
4 1 V
4 0 V
5 1 V
4 1 V
4 1 V
5 1 V
4 0 V
4 1 V
5 1 V
4 1 V
5 0 V
4 1 V
4 1 V
5 1 V
4 0 V
4 1 V
5 1 V
4 1 V
4 0 V
5 1 V
4 1 V
5 1 V
4 0 V
4 1 V
5 1 V
4 1 V
4 0 V
5 1 V
4 1 V
4 1 V
5 0 V
4 1 V
5 1 V
4 1 V
4 0 V
5 1 V
4 1 V
4 1 V
5 0 V
4 1 V
4 1 V
5 1 V
4 0 V
5 1 V
4 1 V
4 1 V
5 0 V
4 1 V
4 1 V
5 0 V
4 1 V
4 1 V
5 1 V
4 0 V
5 1 V
4 1 V
4 1 V
5 0 V
4 1 V
4 1 V
5 0 V
4 1 V
4 1 V
5 1 V
4 0 V
5 1 V
4 1 V
4 1 V
5 0 V
4 1 V
4 1 V
5 0 V
4 1 V
4 1 V
5 1 V
4 0 V
5 1 V
4 1 V
4 0 V
5 1 V
4 1 V
4 1 V
5 0 V
4 1 V
4 1 V
5 0 V
4 1 V
5 1 V
4 1 V
4 0 V
5 1 V
4 1 V
4 0 V
5 1 V
4 1 V
4 0 V
5 1 V
4 1 V
5 1 V
4 0 V
4 1 V
5 1 V
4 0 V
4 1 V
5 1 V
4 0 V
4 1 V
5 1 V
4 0 V
5 1 V
4 1 V
4 1 V
5 0 V
4 1 V
4 1 V
5 0 V
4 1 V
4 1 V
5 0 V
4 1 V
5 1 V
4 0 V
4 1 V
5 1 V
4 0 V
4 1 V
5 1 V
4 0 V
4 1 V
5 1 V
4 0 V
5 1 V
4 1 V
4 1 V
5 0 V
4 1 V
4 1 V
5 0 V
4 1 V
4 1 V
5 0 V
4 1 V
5 1 V
4 0 V
4 1 V
5 1 V
4 0 V
4 1 V
5 1 V
4 0 V
4 1 V
5 1 V
4 0 V
5 1 V
4 1 V
4 0 V
5 1 V
4 1 V
4 0 V
5 1 V
4 0 V
4 1 V
5 1 V
4 0 V
5 1 V
4 1 V
4 0 V
5 1 V
4 1 V
4 0 V
5 1 V
4 1 V
4 0 V
5 1 V
4 1 V
5 0 V
4 1 V
4 1 V
5 0 V
4 1 V
4 0 V
5 1 V
4 1 V
4 0 V
5 1 V
4 1 V
5 0 V
4 1 V
4 1 V
5 0 V
4 1 V
4 1 V
5 0 V
4 1 V
4 0 V
5 1 V
4 1 V
4 0 V
5 1 V
4 1 V
5 0 V
4 1 V
4 0 V
5 1 V
4 1 V
4 0 V
5 1 V
4 1 V
4 0 V
5 1 V
4 0 V
5 1 V
4 1 V
4 0 V
5 1 V
4 1 V
4 0 V
5 1 V
4 0 V
4 1 V
5 1 V
4 0 V
5 1 V
4 1 V
4 0 V
5 1 V
4 0 V
4 1 V
stroke 10188 7870 M
5 1 V
4 0 V
4 1 V
5 0 V
4 1 V
5 1 V
4 0 V
4 1 V
5 1 V
4 0 V
4 1 V
5 0 V
4 1 V
4 1 V
5 0 V
4 1 V
5 0 V
4 1 V
4 1 V
5 0 V
4 1 V
4 0 V
5 1 V
4 1 V
4 0 V
5 1 V
4 0 V
5 1 V
4 1 V
4 0 V
5 1 V
4 0 V
4 1 V
5 1 V
4 0 V
4 1 V
5 0 V
4 1 V
5 1 V
4 0 V
4 1 V
5 0 V
4 1 V
4 1 V
5 0 V
4 1 V
4 0 V
5 1 V
4 0 V
5 1 V
4 1 V
4 0 V
5 1 V
4 0 V
% End plot #1
% Begin plot #2
2.000 UP
stroke
LTb
0.00 0.45 0.74 C 1497 950 M
4 0 V
5 0 V
4 0 V
4 0 V
5 0 V
4 0 V
5 0 V
4 0 V
4 0 V
5 0 V
4 0 V
4 0 V
5 0 V
4 0 V
4 0 V
5 0 V
4 0 V
5 0 V
4 0 V
4 0 V
5 0 V
4 0 V
4 0 V
5 0 V
4 0 V
4 0 V
5 0 V
4 0 V
5 0 V
4 0 V
4 0 V
5 0 V
4 0 V
4 0 V
5 0 V
4 0 V
4 0 V
5 1 V
4 0 V
5 0 V
4 0 V
4 0 V
5 0 V
4 0 V
4 0 V
5 0 V
4 0 V
4 0 V
5 0 V
4 0 V
5 0 V
4 0 V
4 0 V
5 0 V
4 0 V
4 0 V
5 0 V
4 0 V
4 0 V
5 0 V
4 0 V
5 1 V
4 0 V
4 0 V
5 0 V
4 0 V
4 0 V
5 0 V
4 0 V
4 0 V
5 0 V
4 0 V
5 0 V
4 0 V
4 0 V
5 0 V
4 0 V
4 1 V
5 0 V
4 0 V
4 0 V
5 0 V
4 0 V
5 0 V
4 0 V
4 0 V
5 0 V
4 0 V
4 1 V
5 0 V
4 0 V
4 0 V
5 0 V
4 0 V
4 0 V
5 0 V
4 0 V
5 0 V
4 1 V
4 0 V
5 0 V
4 0 V
4 0 V
5 0 V
4 0 V
4 0 V
5 1 V
4 0 V
5 0 V
4 0 V
4 0 V
5 0 V
4 0 V
4 1 V
5 0 V
4 0 V
4 0 V
5 0 V
4 0 V
5 1 V
4 0 V
4 0 V
5 0 V
4 0 V
4 0 V
5 1 V
4 0 V
4 0 V
5 0 V
4 0 V
5 1 V
4 0 V
4 0 V
5 0 V
4 0 V
4 1 V
5 0 V
4 0 V
4 0 V
5 0 V
4 1 V
5 0 V
4 0 V
4 0 V
5 1 V
4 0 V
4 0 V
5 0 V
4 1 V
4 0 V
5 0 V
4 0 V
5 1 V
4 0 V
4 0 V
5 1 V
4 0 V
4 0 V
5 0 V
4 1 V
4 0 V
5 0 V
4 1 V
5 0 V
4 0 V
4 1 V
5 0 V
4 0 V
4 1 V
5 0 V
4 0 V
4 1 V
5 0 V
4 0 V
5 1 V
4 0 V
4 1 V
5 0 V
4 0 V
4 1 V
5 0 V
4 1 V
4 0 V
5 0 V
4 1 V
5 0 V
4 1 V
4 0 V
5 1 V
4 0 V
4 1 V
5 0 V
4 1 V
4 0 V
5 1 V
4 0 V
5 1 V
4 0 V
4 1 V
5 0 V
4 1 V
4 0 V
5 1 V
4 0 V
4 1 V
5 0 V
4 1 V
5 1 V
4 0 V
4 1 V
5 0 V
4 1 V
4 1 V
5 0 V
4 1 V
4 0 V
5 1 V
4 1 V
5 0 V
4 1 V
4 1 V
5 0 V
4 1 V
4 1 V
5 1 V
4 0 V
4 1 V
5 1 V
4 1 V
5 0 V
4 1 V
4 1 V
5 1 V
4 0 V
4 1 V
5 1 V
4 1 V
4 1 V
5 0 V
4 1 V
5 1 V
4 1 V
4 1 V
5 1 V
4 1 V
4 1 V
5 1 V
4 0 V
4 1 V
stroke 2583 1018 M
5 1 V
4 1 V
5 1 V
4 1 V
4 1 V
5 1 V
4 1 V
4 1 V
5 1 V
4 1 V
4 1 V
5 2 V
4 1 V
5 1 V
4 1 V
4 1 V
5 1 V
4 1 V
4 1 V
5 1 V
4 2 V
4 1 V
5 1 V
4 1 V
5 2 V
4 1 V
4 1 V
5 1 V
4 2 V
4 1 V
5 1 V
4 1 V
4 2 V
5 1 V
4 1 V
4 2 V
5 1 V
4 2 V
5 1 V
4 1 V
4 2 V
5 1 V
4 2 V
4 1 V
5 2 V
4 1 V
4 2 V
5 1 V
4 2 V
5 2 V
4 1 V
4 2 V
5 1 V
4 2 V
4 2 V
5 1 V
4 2 V
4 2 V
5 1 V
4 2 V
5 2 V
4 2 V
4 1 V
5 2 V
4 2 V
4 2 V
5 2 V
4 1 V
4 2 V
5 2 V
4 2 V
5 2 V
4 2 V
4 2 V
5 2 V
4 2 V
4 2 V
5 2 V
4 2 V
4 2 V
5 2 V
4 2 V
5 2 V
4 2 V
4 3 V
5 2 V
4 2 V
4 2 V
5 2 V
4 3 V
4 2 V
5 2 V
4 2 V
5 3 V
4 2 V
4 2 V
5 3 V
4 2 V
4 3 V
5 2 V
4 3 V
4 2 V
5 2 V
4 3 V
5 3 V
4 2 V
4 3 V
5 2 V
4 3 V
4 2 V
5 3 V
4 3 V
4 2 V
5 3 V
4 3 V
5 3 V
4 2 V
4 3 V
5 3 V
4 3 V
4 3 V
5 3 V
4 2 V
4 3 V
5 3 V
4 3 V
5 3 V
4 3 V
4 3 V
5 3 V
4 3 V
4 4 V
5 3 V
4 3 V
4 3 V
5 3 V
4 3 V
5 4 V
4 3 V
4 3 V
5 3 V
4 4 V
4 3 V
5 3 V
4 4 V
4 3 V
5 4 V
4 3 V
5 3 V
4 4 V
4 3 V
5 4 V
4 4 V
4 3 V
5 4 V
4 3 V
4 4 V
5 4 V
4 3 V
5 4 V
4 4 V
4 4 V
5 3 V
4 4 V
4 4 V
5 4 V
4 4 V
4 4 V
5 4 V
4 4 V
5 4 V
4 4 V
4 4 V
5 4 V
4 4 V
4 4 V
5 4 V
4 4 V
4 4 V
5 4 V
4 5 V
5 4 V
4 4 V
4 4 V
5 5 V
4 4 V
4 4 V
5 5 V
4 4 V
4 5 V
5 4 V
4 5 V
5 4 V
4 5 V
4 4 V
5 5 V
4 4 V
4 5 V
5 5 V
4 4 V
4 5 V
5 5 V
4 4 V
5 5 V
4 5 V
4 5 V
5 5 V
4 4 V
4 5 V
5 5 V
4 5 V
4 5 V
5 5 V
4 5 V
5 5 V
4 5 V
4 5 V
5 5 V
4 5 V
4 6 V
5 5 V
4 5 V
4 5 V
5 5 V
4 6 V
4 5 V
5 5 V
4 6 V
5 5 V
4 5 V
4 6 V
5 5 V
4 6 V
4 5 V
5 6 V
4 5 V
4 6 V
5 5 V
4 6 V
5 5 V
4 6 V
4 6 V
5 5 V
4 6 V
4 6 V
5 5 V
4 6 V
4 6 V
5 6 V
stroke 3670 1790 M
4 6 V
5 5 V
4 6 V
4 6 V
5 6 V
4 6 V
4 6 V
5 6 V
4 6 V
4 6 V
5 6 V
4 6 V
5 6 V
4 6 V
4 7 V
5 6 V
4 6 V
4 6 V
5 6 V
4 6 V
4 7 V
5 6 V
4 6 V
5 7 V
4 6 V
4 6 V
5 7 V
4 6 V
4 7 V
5 6 V
4 6 V
4 7 V
5 6 V
4 7 V
5 6 V
4 7 V
4 7 V
5 6 V
4 7 V
4 6 V
5 7 V
4 7 V
4 6 V
5 7 V
4 7 V
5 7 V
4 6 V
4 7 V
5 7 V
4 7 V
4 6 V
5 7 V
4 7 V
4 7 V
5 7 V
4 7 V
5 7 V
4 7 V
4 7 V
5 7 V
4 7 V
4 7 V
5 7 V
4 7 V
4 7 V
5 7 V
4 7 V
5 7 V
4 7 V
4 7 V
5 7 V
4 8 V
4 7 V
5 7 V
4 7 V
4 7 V
5 8 V
4 7 V
5 7 V
4 7 V
4 8 V
5 7 V
4 7 V
4 8 V
5 7 V
4 7 V
4 8 V
5 7 V
4 8 V
5 7 V
4 7 V
4 8 V
5 7 V
4 8 V
4 7 V
5 8 V
4 7 V
4 8 V
5 7 V
4 8 V
5 7 V
4 8 V
4 7 V
5 8 V
4 7 V
4 8 V
5 8 V
4 7 V
4 8 V
5 7 V
4 8 V
5 8 V
4 7 V
4 8 V
5 8 V
4 7 V
4 8 V
5 8 V
4 7 V
4 8 V
5 8 V
4 8 V
5 7 V
4 8 V
4 8 V
5 8 V
4 7 V
4 8 V
5 8 V
4 8 V
4 7 V
5 8 V
4 8 V
5 8 V
4 8 V
4 7 V
5 8 V
4 8 V
4 8 V
5 8 V
4 8 V
4 7 V
5 8 V
4 8 V
5 8 V
4 8 V
4 8 V
5 8 V
4 7 V
4 8 V
5 8 V
4 8 V
4 8 V
5 8 V
4 8 V
4 8 V
5 8 V
4 7 V
5 8 V
4 8 V
4 8 V
5 8 V
4 8 V
4 8 V
5 8 V
4 8 V
4 8 V
5 8 V
4 7 V
5 8 V
4 8 V
4 8 V
5 8 V
4 8 V
4 8 V
5 8 V
4 8 V
4 8 V
5 8 V
4 8 V
5 7 V
4 8 V
4 8 V
5 8 V
4 8 V
4 8 V
5 8 V
4 8 V
4 8 V
5 8 V
4 8 V
5 7 V
4 8 V
4 8 V
5 8 V
4 8 V
4 8 V
5 8 V
4 8 V
4 7 V
5 8 V
4 8 V
5 8 V
4 8 V
4 8 V
5 8 V
4 7 V
4 8 V
5 8 V
4 8 V
4 8 V
5 8 V
4 7 V
5 8 V
4 8 V
4 8 V
5 8 V
4 7 V
4 8 V
5 8 V
4 8 V
4 8 V
5 7 V
4 8 V
5 8 V
4 8 V
4 7 V
5 8 V
4 8 V
4 8 V
5 7 V
4 8 V
4 8 V
5 7 V
4 8 V
5 8 V
4 7 V
4 8 V
5 8 V
4 7 V
4 8 V
5 8 V
4 7 V
4 8 V
5 7 V
4 8 V
5 8 V
4 7 V
4 8 V
stroke 4756 3628 M
5 7 V
4 8 V
4 8 V
5 7 V
4 8 V
4 7 V
5 8 V
4 7 V
5 8 V
4 7 V
4 8 V
5 7 V
4 8 V
4 7 V
5 7 V
4 8 V
4 7 V
5 8 V
4 7 V
5 8 V
4 7 V
4 7 V
5 8 V
4 7 V
4 7 V
5 8 V
4 7 V
4 7 V
5 8 V
4 7 V
5 7 V
4 8 V
4 7 V
5 7 V
4 7 V
4 8 V
5 7 V
4 7 V
4 7 V
5 7 V
4 8 V
5 7 V
4 7 V
4 7 V
5 7 V
4 7 V
4 7 V
5 7 V
4 8 V
4 7 V
5 7 V
4 7 V
5 7 V
4 7 V
4 7 V
5 7 V
4 7 V
4 7 V
5 7 V
4 7 V
4 7 V
5 7 V
4 7 V
5 6 V
4 7 V
4 7 V
5 7 V
4 7 V
4 7 V
5 7 V
4 7 V
4 6 V
5 7 V
4 7 V
5 7 V
4 7 V
4 6 V
5 7 V
4 7 V
4 6 V
5 7 V
4 7 V
4 7 V
5 6 V
4 7 V
5 7 V
4 6 V
4 7 V
5 6 V
4 7 V
4 7 V
5 6 V
4 7 V
4 6 V
5 7 V
4 6 V
4 7 V
5 6 V
4 7 V
5 6 V
4 7 V
4 6 V
5 7 V
4 6 V
4 6 V
5 7 V
4 6 V
4 7 V
5 6 V
4 6 V
5 7 V
4 6 V
4 6 V
5 7 V
4 6 V
4 6 V
5 6 V
4 7 V
4 6 V
5 6 V
4 6 V
5 7 V
4 6 V
4 6 V
5 6 V
4 6 V
4 6 V
5 6 V
4 7 V
4 6 V
5 6 V
4 6 V
5 6 V
4 6 V
4 6 V
5 6 V
4 6 V
4 6 V
5 6 V
4 6 V
4 6 V
5 6 V
4 6 V
5 6 V
4 6 V
4 6 V
5 5 V
4 6 V
4 6 V
5 6 V
4 6 V
4 6 V
5 5 V
4 6 V
5 6 V
4 6 V
4 6 V
5 5 V
4 6 V
4 6 V
5 5 V
4 6 V
4 6 V
5 6 V
4 5 V
5 6 V
4 6 V
4 5 V
5 6 V
4 5 V
4 6 V
5 6 V
4 5 V
4 6 V
5 5 V
4 6 V
5 5 V
4 6 V
4 5 V
5 6 V
4 5 V
4 6 V
5 5 V
4 6 V
4 5 V
5 5 V
4 6 V
5 5 V
4 6 V
4 5 V
5 5 V
4 6 V
4 5 V
5 5 V
4 6 V
4 5 V
5 5 V
4 5 V
5 6 V
4 5 V
4 5 V
5 5 V
4 6 V
4 5 V
5 5 V
4 5 V
4 5 V
5 6 V
4 5 V
5 5 V
4 5 V
4 5 V
5 5 V
4 5 V
4 5 V
5 6 V
4 5 V
4 5 V
5 5 V
4 5 V
5 5 V
4 5 V
4 5 V
5 5 V
4 5 V
4 5 V
5 5 V
4 5 V
4 5 V
5 4 V
4 5 V
5 5 V
4 5 V
4 5 V
5 5 V
4 5 V
4 5 V
5 5 V
4 4 V
4 5 V
5 5 V
4 5 V
5 5 V
4 4 V
4 5 V
5 5 V
4 5 V
4 4 V
5 5 V
stroke 5843 5162 M
4 5 V
4 5 V
5 4 V
4 5 V
5 5 V
4 4 V
4 5 V
5 5 V
4 4 V
4 5 V
5 4 V
4 5 V
4 5 V
5 4 V
4 5 V
5 4 V
4 5 V
4 5 V
5 4 V
4 5 V
4 4 V
5 5 V
4 4 V
4 5 V
5 4 V
4 5 V
5 4 V
4 4 V
4 5 V
5 4 V
4 4 V
4 5 V
5 4 V
4 4 V
4 4 V
5 4 V
4 5 V
4 4 V
5 4 V
4 4 V
5 4 V
4 4 V
4 5 V
5 4 V
4 4 V
4 4 V
5 4 V
4 4 V
4 4 V
5 4 V
4 4 V
5 4 V
4 4 V
4 4 V
5 4 V
4 4 V
4 4 V
5 4 V
4 4 V
4 4 V
5 3 V
4 4 V
5 4 V
4 4 V
4 4 V
5 4 V
4 3 V
4 4 V
5 4 V
4 4 V
4 4 V
5 3 V
4 4 V
5 4 V
4 3 V
4 4 V
5 4 V
4 3 V
4 4 V
5 4 V
4 3 V
4 4 V
5 3 V
4 4 V
5 4 V
4 3 V
4 4 V
5 3 V
4 4 V
4 3 V
5 4 V
4 3 V
4 4 V
5 3 V
4 3 V
5 4 V
4 3 V
4 4 V
5 3 V
4 3 V
4 4 V
5 3 V
4 3 V
4 3 V
5 4 V
4 3 V
5 3 V
4 3 V
4 4 V
5 3 V
4 3 V
4 3 V
5 3 V
4 3 V
4 3 V
5 3 V
4 4 V
5 3 V
4 3 V
4 3 V
5 3 V
4 3 V
4 3 V
5 3 V
4 2 V
4 3 V
5 3 V
4 3 V
5 3 V
4 3 V
4 3 V
5 3 V
4 2 V
4 3 V
5 3 V
4 3 V
4 2 V
5 3 V
4 3 V
5 2 V
4 3 V
4 3 V
5 2 V
4 3 V
4 2 V
5 3 V
4 2 V
4 3 V
5 2 V
4 3 V
5 2 V
4 3 V
4 2 V
5 2 V
4 3 V
4 2 V
5 2 V
4 3 V
4 2 V
5 2 V
4 3 V
5 2 V
4 2 V
4 2 V
5 2 V
4 2 V
4 2 V
5 3 V
4 2 V
4 2 V
5 2 V
4 2 V
5 2 V
4 1 V
4 2 V
5 2 V
4 2 V
4 2 V
5 2 V
4 2 V
4 1 V
5 2 V
4 2 V
5 1 V
4 2 V
4 2 V
5 1 V
4 2 V
4 2 V
5 1 V
4 2 V
4 1 V
5 1 V
4 2 V
5 1 V
4 2 V
4 1 V
5 1 V
4 2 V
4 1 V
5 1 V
4 1 V
4 1 V
5 2 V
4 1 V
5 1 V
4 1 V
4 1 V
5 1 V
4 1 V
4 1 V
5 1 V
4 1 V
4 0 V
5 1 V
4 1 V
4 1 V
5 1 V
4 0 V
5 1 V
4 0 V
4 1 V
5 1 V
4 0 V
4 1 V
5 0 V
4 1 V
4 0 V
5 0 V
4 1 V
5 0 V
4 0 V
4 0 V
5 1 V
4 0 V
4 0 V
5 0 V
4 0 V
4 0 V
5 0 V
4 0 V
5 0 V
4 0 V
4 0 V
5 -1 V
4 0 V
4 0 V
5 -1 V
4 0 V
stroke 6929 5829 M
4 0 V
5 -1 V
4 0 V
5 -1 V
4 0 V
4 -1 V
5 -1 V
4 0 V
4 -1 V
5 -1 V
4 0 V
4 -1 V
5 -1 V
4 -1 V
5 -1 V
4 -1 V
4 -1 V
5 -1 V
4 -1 V
4 -1 V
5 -2 V
4 -1 V
4 -1 V
5 -1 V
4 -2 V
5 -1 V
4 -2 V
4 -1 V
5 -2 V
4 -1 V
4 -2 V
5 -2 V
4 -1 V
4 -2 V
5 -2 V
4 -2 V
5 -2 V
4 -2 V
4 -2 V
5 -2 V
4 -2 V
4 -2 V
5 -2 V
4 -2 V
4 -3 V
5 -2 V
4 -2 V
5 -3 V
4 -2 V
4 -3 V
5 -2 V
4 -3 V
4 -3 V
5 -2 V
4 -3 V
4 -3 V
5 -3 V
4 -3 V
5 -2 V
4 -3 V
4 -4 V
5 -3 V
4 -3 V
4 -3 V
5 -3 V
4 -3 V
4 -4 V
5 -3 V
4 -4 V
5 -3 V
4 -4 V
4 -3 V
5 -4 V
4 -4 V
4 -3 V
5 -4 V
4 -4 V
4 -4 V
5 -4 V
4 -4 V
5 -4 V
4 -4 V
4 -4 V
5 -5 V
4 -4 V
4 -4 V
5 -5 V
4 -4 V
4 -5 V
5 -4 V
4 -5 V
5 -4 V
4 -5 V
4 -5 V
5 -5 V
4 -4 V
4 -5 V
5 -5 V
4 -5 V
4 -5 V
5 -6 V
4 -5 V
5 -5 V
4 -5 V
4 -6 V
5 -5 V
4 -6 V
4 -5 V
5 -6 V
4 -5 V
4 -6 V
5 -6 V
4 -5 V
5 -6 V
4 -6 V
4 -6 V
5 -6 V
4 -6 V
4 -6 V
5 -6 V
4 -7 V
4 -6 V
5 -6 V
4 -7 V
5 -6 V
4 -7 V
4 -6 V
5 -7 V
4 -6 V
4 -7 V
5 -7 V
4 -7 V
4 -7 V
5 -7 V
4 -7 V
5 -7 V
4 -7 V
4 -7 V
5 -7 V
4 -7 V
4 -8 V
5 -7 V
4 -8 V
4 -7 V
5 -8 V
4 -7 V
5 -8 V
4 -7 V
4 -8 V
5 -8 V
4 -8 V
4 -8 V
5 -8 V
4 -8 V
4 -8 V
5 -8 V
4 -8 V
4 -8 V
5 -9 V
4 -8 V
5 -8 V
4 -9 V
4 -8 V
5 -9 V
4 -8 V
4 -9 V
5 -9 V
4 -8 V
4 -9 V
5 -9 V
4 -9 V
5 -9 V
4 -9 V
4 -9 V
5 -9 V
4 -9 V
4 -9 V
5 -10 V
4 -9 V
4 -9 V
5 -10 V
4 -9 V
5 -10 V
4 -9 V
4 -10 V
5 -9 V
4 -10 V
4 -10 V
5 -10 V
4 -9 V
4 -10 V
5 -10 V
4 -10 V
5 -10 V
4 -10 V
4 -10 V
5 -10 V
4 -10 V
4 -11 V
5 -10 V
4 -10 V
4 -11 V
5 -10 V
4 -10 V
5 -11 V
4 -10 V
4 -11 V
5 -11 V
4 -10 V
4 -11 V
5 -11 V
4 -10 V
4 -11 V
5 -11 V
4 -11 V
5 -11 V
4 -11 V
4 -11 V
5 -11 V
4 -11 V
4 -11 V
5 -11 V
4 -11 V
4 -11 V
5 -12 V
4 -11 V
5 -11 V
4 -12 V
4 -11 V
5 -11 V
4 -12 V
4 -11 V
5 -12 V
4 -11 V
4 -12 V
5 -12 V
4 -11 V
5 -12 V
4 -12 V
4 -11 V
5 -12 V
4 -12 V
4 -12 V
5 -11 V
4 -12 V
4 -12 V
5 -12 V
4 -12 V
5 -12 V
stroke 8016 4241 M
4 -12 V
4 -12 V
5 -12 V
4 -12 V
4 -12 V
5 -12 V
4 -13 V
4 -12 V
5 -12 V
4 -12 V
5 -12 V
4 -13 V
4 -12 V
5 -12 V
4 -12 V
4 -13 V
5 -12 V
4 -12 V
4 -13 V
5 -12 V
4 -13 V
5 -12 V
4 -12 V
4 -13 V
5 -12 V
4 -13 V
4 -12 V
5 -13 V
4 -12 V
4 -13 V
5 -12 V
4 -13 V
5 -12 V
4 -13 V
4 -13 V
5 -12 V
4 -13 V
4 -12 V
5 -13 V
4 -12 V
4 -13 V
5 -13 V
4 -12 V
5 -13 V
4 -13 V
4 -12 V
5 -13 V
4 -13 V
4 -12 V
5 -13 V
4 -13 V
4 -12 V
5 -13 V
4 -13 V
5 -12 V
4 -13 V
4 -12 V
5 -13 V
4 -13 V
4 -12 V
5 -13 V
4 -13 V
4 -12 V
5 -13 V
4 -13 V
5 -12 V
4 -13 V
4 -12 V
5 -13 V
4 -13 V
4 -12 V
5 -13 V
4 -12 V
4 -13 V
5 -12 V
4 -13 V
5 -13 V
4 -12 V
4 -13 V
5 -12 V
4 -13 V
4 -12 V
5 -12 V
4 -13 V
4 -12 V
5 -13 V
4 -12 V
4 -13 V
5 -12 V
4 -12 V
5 -13 V
4 -12 V
4 -12 V
5 -12 V
4 -13 V
4 -12 V
5 -12 V
4 -12 V
4 -13 V
5 -12 V
4 -12 V
5 -12 V
4 -12 V
4 -12 V
5 -12 V
4 -12 V
4 -12 V
5 -12 V
4 -12 V
4 -12 V
5 -12 V
4 -12 V
5 -12 V
4 -12 V
4 -11 V
5 -12 V
4 -12 V
4 -12 V
5 -11 V
4 -12 V
4 -12 V
5 -11 V
4 -12 V
5 -11 V
4 -12 V
4 -11 V
5 -12 V
4 -11 V
4 -12 V
5 -11 V
4 -11 V
4 -12 V
5 -11 V
4 -11 V
5 -11 V
4 -12 V
4 -11 V
5 -11 V
4 -11 V
4 -11 V
5 -11 V
4 -11 V
4 -11 V
5 -11 V
4 -10 V
5 -11 V
4 -11 V
4 -11 V
5 -10 V
4 -11 V
4 -11 V
5 -10 V
4 -11 V
4 -10 V
5 -11 V
4 -10 V
5 -11 V
4 -10 V
4 -10 V
5 -11 V
4 -10 V
4 -10 V
5 -10 V
4 -10 V
4 -10 V
5 -10 V
4 -10 V
5 -10 V
4 -10 V
4 -10 V
5 -10 V
4 -10 V
4 -10 V
5 -9 V
4 -10 V
4 -10 V
5 -9 V
4 -10 V
5 -9 V
4 -10 V
4 -9 V
5 -9 V
4 -10 V
4 -9 V
5 -9 V
4 -9 V
4 -9 V
5 -10 V
4 -9 V
5 -9 V
4 -9 V
4 -8 V
5 -9 V
4 -9 V
4 -9 V
5 -9 V
4 -8 V
4 -9 V
5 -9 V
4 -8 V
5 -9 V
4 -8 V
4 -9 V
5 -8 V
4 -8 V
4 -9 V
5 -8 V
4 -8 V
4 -8 V
5 -8 V
4 -8 V
5 -8 V
4 -8 V
4 -8 V
5 -8 V
4 -8 V
4 -8 V
5 -7 V
4 -8 V
4 -8 V
5 -7 V
4 -8 V
5 -7 V
4 -8 V
4 -7 V
5 -7 V
4 -8 V
4 -7 V
5 -7 V
4 -7 V
4 -8 V
5 -7 V
4 -7 V
5 -7 V
4 -7 V
4 -7 V
5 -6 V
4 -7 V
4 -7 V
5 -7 V
4 -6 V
4 -7 V
5 -7 V
4 -6 V
5 -7 V
4 -6 V
4 -7 V
5 -6 V
4 -6 V
stroke 9102 1578 M
4 -7 V
5 -6 V
4 -6 V
4 -6 V
5 -6 V
4 -6 V
5 -6 V
4 -6 V
4 -6 V
5 -6 V
4 -6 V
4 -6 V
5 -6 V
4 -5 V
4 -6 V
5 -6 V
4 -5 V
5 -6 V
4 -5 V
4 -6 V
5 -5 V
4 -5 V
4 -6 V
5 -5 V
4 -5 V
4 -5 V
5 -6 V
4 -5 V
4 -5 V
5 -5 V
4 -5 V
5 -5 V
4 -5 V
4 -5 V
5 -4 V
4 -5 V
4 -5 V
5 -5 V
4 -4 V
4 -5 V
5 -5 V
4 -4 V
5 -5 V
4 -4 V
4 -5 V
5 -4 V
4 -5 V
4 -4 V
5 -4 V
4 -4 V
4 -5 V
5 -4 V
4 -4 V
5 -4 V
4 -4 V
4 -4 V
5 -4 V
4 -4 V
4 -4 V
5 -4 V
4 -4 V
4 -4 V
5 -3 V
4 -4 V
5 -4 V
4 -4 V
4 -3 V
5 -4 V
4 -4 V
4 -3 V
5 -4 V
4 -3 V
4 -4 V
5 -3 V
4 -3 V
5 -4 V
4 -3 V
4 -3 V
5 -4 V
4 -3 V
4 -3 V
5 -3 V
4 -3 V
4 -3 V
5 -3 V
4 -3 V
5 -3 V
4 -3 V
4 -3 V
5 -3 V
4 -3 V
4 -3 V
5 -3 V
4 -3 V
4 -2 V
5 -3 V
4 -3 V
5 -3 V
4 -2 V
4 -3 V
5 -3 V
4 -2 V
4 -3 V
5 -2 V
4 -3 V
4 -2 V
5 -3 V
4 -2 V
5 -2 V
4 -3 V
4 -2 V
5 -2 V
4 -3 V
4 -2 V
5 -2 V
4 -2 V
4 -3 V
5 -2 V
4 -2 V
5 -2 V
4 -2 V
4 -2 V
5 -2 V
4 -2 V
4 -2 V
5 -2 V
4 -2 V
4 -2 V
5 -2 V
4 -2 V
5 -2 V
4 -2 V
4 -2 V
5 -1 V
4 -2 V
4 -2 V
5 -2 V
4 -1 V
4 -2 V
5 -2 V
4 -1 V
5 -2 V
4 -2 V
4 -1 V
5 -2 V
4 -1 V
4 -2 V
5 -2 V
4 -1 V
4 -2 V
5 -1 V
4 -1 V
5 -2 V
4 -1 V
4 -2 V
5 -1 V
4 -1 V
4 -2 V
5 -1 V
4 -1 V
4 -2 V
5 -1 V
4 -1 V
5 -2 V
4 -1 V
4 -1 V
5 -1 V
4 -1 V
4 -2 V
5 -1 V
4 -1 V
4 -1 V
5 -1 V
4 -1 V
5 -1 V
4 -1 V
4 -1 V
5 -2 V
4 -1 V
4 -1 V
5 -1 V
4 -1 V
4 -1 V
5 -1 V
4 0 V
5 -1 V
4 -1 V
4 -1 V
5 -1 V
4 -1 V
4 -1 V
5 -1 V
4 -1 V
4 0 V
5 -1 V
4 -1 V
5 -1 V
4 -1 V
4 -1 V
5 0 V
4 -1 V
4 -1 V
5 -1 V
4 0 V
4 -1 V
5 -1 V
4 0 V
5 -1 V
4 -1 V
4 0 V
5 -1 V
4 -1 V
4 0 V
5 -1 V
4 -1 V
4 0 V
5 -1 V
4 -1 V
4 0 V
5 -1 V
4 0 V
5 -1 V
4 0 V
4 -1 V
5 -1 V
4 0 V
4 -1 V
5 0 V
4 -1 V
4 0 V
5 -1 V
4 0 V
5 -1 V
4 0 V
4 -1 V
5 0 V
4 0 V
4 -1 V
5 0 V
4 -1 V
4 0 V
5 -1 V
4 0 V
5 0 V
4 -1 V
4 0 V
5 -1 V
4 0 V
4 0 V
stroke 10188 964 M
5 -1 V
4 0 V
4 0 V
5 -1 V
4 0 V
5 -1 V
4 0 V
4 0 V
5 -1 V
4 0 V
4 0 V
5 0 V
4 -1 V
4 0 V
5 0 V
4 -1 V
5 0 V
4 0 V
4 -1 V
5 0 V
4 0 V
4 0 V
5 -1 V
4 0 V
4 0 V
5 0 V
4 -1 V
5 0 V
4 0 V
4 0 V
5 -1 V
4 0 V
4 0 V
5 0 V
4 0 V
4 -1 V
5 0 V
4 0 V
5 0 V
4 0 V
4 -1 V
5 0 V
4 0 V
4 0 V
5 0 V
4 -1 V
4 0 V
5 0 V
4 0 V
5 0 V
4 0 V
4 -1 V
5 0 V
4 0 V
% End plot #2
stroke
2.000 UL
LTb
LCb setrgbcolor
1.000 UP
0.500 UL
[] 0 setdash
PL 0.15 0.15 0.15 C 1497 950 M
8927 0 V
stroke
[] 0 setdash
0.00 0.45 0.74 C 1497 950 M
0 7041 V
stroke
1.000 UL
LTb
0.00 0.00 0.00 C grestore % colour palette end
gsave % colour palette begin
/maxcolors 64 def
/HSV2RGB {  exch dup 0.0 eq {pop exch pop dup dup} % achromatic gray
  { /HSVs exch def /HSVv exch def 6.0 mul dup floor dup 3 1 roll sub
     /HSVf exch def /HSVi exch cvi def /HSVp HSVv 1.0 HSVs sub mul def
	 /HSVq HSVv 1.0 HSVs HSVf mul sub mul def 
	 /HSVt HSVv 1.0 HSVs 1.0 HSVf sub mul sub mul def
	 /HSVi HSVi 6 mod def 0 HSVi eq {HSVv HSVt HSVp}
	 {1 HSVi eq {HSVq HSVv HSVp}{2 HSVi eq {HSVp HSVv HSVt}
	 {3 HSVi eq {HSVp HSVq HSVv}{4 HSVi eq {HSVt HSVp HSVv}
	 {HSVv HSVp HSVq} ifelse} ifelse} ifelse} ifelse} ifelse
  } ifelse} def
/Constrain {
  dup 0 lt {0 exch pop}{dup 1 gt {1 exch pop} if} ifelse} def
/CMY2RGB {  1 exch sub exch 1 exch sub 3 2 roll 1 exch sub 3 1 roll exch } def
/XYZ2RGB {  3 copy -0.9017 mul exch -0.1187 mul add exch 0.0585 mul exch add
  Constrain 4 1 roll 3 copy -0.0279 mul exch 1.999 mul add exch
  -0.9844 mul add Constrain 5 1 roll -0.2891 mul exch -0.5338 mul add
  exch 1.91 mul exch add Constrain 3 1 roll} def
/SelectSpace {ColorSpace (HSV) eq {HSV2RGB}{ColorSpace (XYZ) eq {
  XYZ2RGB}{ColorSpace (CMY) eq {CMY2RGB}{ColorSpace (YIQ) eq {YIQ2RGB}
  if} ifelse} ifelse} ifelse} def
/InterpolatedColor true def
/grayindex {/gidx 0 def
  {GrayA gidx get grayv ge {exit} if /gidx gidx 1 add def} loop} def
/dgdx {grayv GrayA gidx get sub GrayA gidx 1 sub get
  GrayA gidx get sub div} def 
/redvalue {RedA gidx get RedA gidx 1 sub get
  RedA gidx get sub dgdxval mul add} def
/greenvalue {GreenA gidx get GreenA gidx 1 sub get
  GreenA gidx get sub dgdxval mul add} def
/bluevalue {BlueA gidx get BlueA gidx 1 sub get
  BlueA gidx get sub dgdxval mul add} def
/interpolate {
  grayindex grayv GrayA gidx get sub abs 1e-5 le
    {RedA gidx get GreenA gidx get BlueA gidx get}
    {/dgdxval dgdx def redvalue greenvalue bluevalue} ifelse} def
/GrayA [0 .0159 .0317 .0476 .0635 .0794 .0952 .1111 .127 .1429 .1587 .1746 
  .1905 .2063 .2222 .2381 .254 .2698 .2857 .3016 .3175 .3333 .3492 .3651 
  .381 .3968 .4127 .4286 .4444 .4603 .4762 .4921 .5079 .5238 .5397 .5556 
  .5714 .5873 .6032 .619 .6349 .6508 .6667 .6825 .6984 .7143 .7302 .746 
  .7619 .7778 .7937 .8095 .8254 .8413 .8571 .873 .8889 .9048 .9206 .9365 
  .9524 .9683 .9841 1 ] def
/RedA [.267 .2727 .2771 .2804 .2824 .2832 .2828 .2812 .2785 .2747 .27 .2644 
  .258 .2511 .2437 .2361 .2283 .2204 .2127 .2051 .1977 .1906 .1838 .1773 
  .171 .1648 .1588 .153 .1471 .1414 .1358 .1306 .1259 .1222 .1199 .1196 .122 
  .1277 .1368 .1496 .166 .1855 .208 .2331 .2605 .29 .3213 .3544 .3889 .4249 
  .4622 .5008 .5403 .5809 .6222 .6641 .7064 .7489 .7913 .8333 .8747 .9153 
  .9548 .9932 ] def
/GreenA [.0049 .0258 .0509 .0742 .096 .1169 .1374 .1575 .1773 .197 .2163 
  .2354 .2542 .2726 .2906 .3083 .3256 .3425 .3591 .3754 .3913 .4071 .4226 
  .4379 .4531 .4681 .4831 .4981 .513 .5279 .5428 .5577 .5726 .5875 .6024 
  .6173 .6321 .6469 .6616 .6761 .6905 .7047 .7187 .7324 .7458 .7588 .7715 
  .7837 .7955 .8067 .8173 .8274 .8369 .8457 .8538 .8613 .8682 .8745 .8803 
  .8858 .8909 .896 .901 .9062 ] def
/BlueA [.3294 .3534 .3762 .3979 .4183 .4372 .4546 .4704 .4847 .4973 .5083 
  .5177 .5258 .5325 .5381 .5427 .5463 .5493 .5516 .5535 .555 .5561 .557 
  .5576 .558 .5581 .5581 .5577 .557 .5559 .5543 .5522 .5494 .546 .5418 .5368 
  .5308 .5239 .516 .5069 .4968 .4854 .4729 .4591 .4441 .4278 .4103 .3915 
  .3714 .3501 .3275 .3038 .2789 .253 .2262 .1989 .1715 .145 .1213 .1033 
  .0954 .1005 .1179 .1439 ] def
/pm3dround {maxcolors 0 gt {dup 1 ge
	{pop 1} {maxcolors mul floor maxcolors 1 sub div} ifelse} if} def
/pm3dGamma 1.0 1.5 Gamma mul div def
/ColorSpace (RGB) def
Color InterpolatedColor or { % COLOUR vs. GRAY map
  InterpolatedColor { %% Interpolation vs. RGB-Formula
    /g {stroke pm3dround /grayv exch def interpolate
        SelectSpace setrgbcolor} bind def
  }{
  /g {stroke pm3dround dup cF7 Constrain exch dup cF5 Constrain exch cF15 Constrain 
       SelectSpace setrgbcolor} bind def
  } ifelse
}{
  /g {stroke pm3dround pm3dGamma exp setgray} bind def
} ifelse
1.000 UL
LTb
0.00 0.00 0.00 C 1497 950 M
0 88 V
stroke
0.15 0.15 0.15 C 1497 670 M
[ [(Helvetica) 280.0 0.0 true true 0 (0)]
] -93.3 MCshow
/Helvetica findfont 280 scalefont setfont
1.000 UL
LTb
0.00 0.00 0.00 C 2737 950 M
0 88 V
stroke
0.15 0.15 0.15 C 2737 670 M
[ [(Helvetica) 280.0 0.0 true true 0 (0.5)]
] -93.3 MCshow
/Helvetica findfont 280 scalefont setfont
1.000 UL
LTb
0.00 0.00 0.00 C 3978 950 M
0 88 V
stroke
0.15 0.15 0.15 C 3978 670 M
[ [(Helvetica) 280.0 0.0 true true 0 (1)]
] -93.3 MCshow
/Helvetica findfont 280 scalefont setfont
1.000 UL
LTb
0.00 0.00 0.00 C 5218 950 M
0 88 V
stroke
0.15 0.15 0.15 C 5218 670 M
[ [(Helvetica) 280.0 0.0 true true 0 (1.5)]
] -93.3 MCshow
/Helvetica findfont 280 scalefont setfont
1.000 UL
LTb
0.00 0.00 0.00 C 6459 950 M
0 88 V
stroke
0.15 0.15 0.15 C 6459 670 M
[ [(Helvetica) 280.0 0.0 true true 0 (2)]
] -93.3 MCshow
/Helvetica findfont 280 scalefont setfont
1.000 UL
LTb
0.00 0.00 0.00 C 7699 950 M
0 88 V
stroke
0.15 0.15 0.15 C 7699 670 M
[ [(Helvetica) 280.0 0.0 true true 0 (2.5)]
] -93.3 MCshow
/Helvetica findfont 280 scalefont setfont
1.000 UL
LTb
0.00 0.00 0.00 C 8940 950 M
0 88 V
stroke
0.15 0.15 0.15 C 8940 670 M
[ [(Helvetica) 280.0 0.0 true true 0 (3)]
] -93.3 MCshow
/Helvetica findfont 280 scalefont setfont
1.000 UL
LTb
0.00 0.00 0.00 C 10180 950 M
0 88 V
stroke
0.15 0.15 0.15 C 10180 670 M
[ [(Helvetica) 280.0 0.0 true true 0 (3.5)]
] -93.3 MCshow
/Helvetica findfont 280 scalefont setfont
1.000 UL
LTb
0.00 0.00 0.00 C 10424 950 M
-88 0 V
stroke
0.85 0.33 0.10 C 10592 950 M
[ [(Helvetica) 280.0 0.0 true true 0 (0)]
] -93.3 MLshow
/Helvetica findfont 280 scalefont setfont
1.000 UL
LTb
0.00 0.00 0.00 C 10424 1956 M
-88 0 V
stroke
0.85 0.33 0.10 C 10592 1956 M
[ [(Helvetica) 280.0 0.0 true true 0 (50)]
] -93.3 MLshow
/Helvetica findfont 280 scalefont setfont
1.000 UL
LTb
0.00 0.00 0.00 C 10424 2962 M
-88 0 V
stroke
0.85 0.33 0.10 C 10592 2962 M
[ [(Helvetica) 280.0 0.0 true true 0 (100)]
] -93.3 MLshow
/Helvetica findfont 280 scalefont setfont
1.000 UL
LTb
0.00 0.00 0.00 C 10424 3968 M
-88 0 V
stroke
0.85 0.33 0.10 C 10592 3968 M
[ [(Helvetica) 280.0 0.0 true true 0 (150)]
] -93.3 MLshow
/Helvetica findfont 280 scalefont setfont
1.000 UL
LTb
0.00 0.00 0.00 C 10424 4973 M
-88 0 V
stroke
0.85 0.33 0.10 C 10592 4973 M
[ [(Helvetica) 280.0 0.0 true true 0 (200)]
] -93.3 MLshow
/Helvetica findfont 280 scalefont setfont
1.000 UL
LTb
0.00 0.00 0.00 C 10424 5979 M
-88 0 V
stroke
0.85 0.33 0.10 C 10592 5979 M
[ [(Helvetica) 280.0 0.0 true true 0 (250)]
] -93.3 MLshow
/Helvetica findfont 280 scalefont setfont
1.000 UL
LTb
0.00 0.00 0.00 C 10424 6985 M
-88 0 V
stroke
0.85 0.33 0.10 C 10592 6985 M
[ [(Helvetica) 280.0 0.0 true true 0 (300)]
] -93.3 MLshow
/Helvetica findfont 280 scalefont setfont
1.000 UL
LTb
0.00 0.00 0.00 C 10424 7991 M
-88 0 V
stroke
0.85 0.33 0.10 C 10592 7991 M
[ [(Helvetica) 280.0 0.0 true true 0 (350)]
] -93.3 MLshow
/Helvetica findfont 280 scalefont setfont
1.000 UL
LTb
0.00 0.00 0.00 C 1.000 UP
1.000 UL
LTb
0.00 0.00 0.00 C 0.85 0.33 0.10 C 11600 4470 M
currentpoint gsave translate 90 rotate 0 0 moveto
[ [(Helvetica) 308.0 0.0 true true 0 (Q [pC/mm])]
] -102.7 MCshow
grestore
/Helvetica findfont 280 scalefont setfont
LTb
1.000 UL
LTb
LCb setrgbcolor
6833 6948 N
0 980 V
3423 0 V
0 -980 V
-3423 0 V
Z stroke
% Begin plot #1
2.000 UP
0.500 UL
LTb
0.85 0.33 0.10 C 0.00 0.00 0.00 C 7904 7438 M
[ [(Helvetica) 280.0 0.0 true true 0 (charge profile)]
] -93.3 MLshow
/Helvetica findfont 280 scalefont setfont
2.000 UP
0.500 UL
LTb
0.85 0.33 0.10 C 7001 7438 M
735 0 V
1497 1024 M
4 2 V
5 1 V
4 1 V
4 2 V
5 1 V
4 2 V
5 1 V
4 1 V
4 2 V
5 1 V
4 2 V
4 2 V
5 1 V
4 2 V
4 1 V
5 2 V
4 2 V
5 1 V
4 2 V
4 2 V
5 2 V
4 2 V
4 1 V
5 2 V
4 2 V
4 2 V
5 2 V
4 2 V
5 2 V
4 2 V
4 2 V
5 2 V
4 2 V
4 2 V
5 3 V
4 2 V
4 2 V
5 2 V
4 3 V
5 2 V
4 2 V
4 3 V
5 2 V
4 3 V
4 2 V
5 3 V
4 3 V
4 2 V
5 3 V
4 3 V
5 2 V
4 3 V
4 3 V
5 3 V
4 3 V
4 3 V
5 3 V
4 3 V
4 3 V
5 3 V
4 3 V
5 3 V
4 3 V
4 4 V
5 3 V
4 3 V
4 4 V
5 3 V
4 4 V
4 3 V
5 4 V
4 3 V
5 4 V
4 4 V
4 3 V
5 4 V
4 4 V
4 4 V
5 4 V
4 4 V
4 4 V
5 4 V
4 4 V
5 5 V
4 4 V
4 4 V
5 4 V
4 5 V
4 4 V
5 5 V
4 5 V
4 4 V
5 5 V
4 5 V
4 4 V
5 5 V
4 5 V
5 5 V
4 5 V
4 5 V
5 6 V
4 5 V
4 5 V
5 6 V
4 5 V
4 5 V
5 6 V
4 6 V
5 5 V
4 6 V
4 6 V
5 6 V
4 6 V
4 6 V
5 6 V
4 6 V
4 6 V
5 6 V
4 7 V
5 6 V
4 7 V
4 6 V
5 7 V
4 6 V
4 7 V
5 7 V
4 7 V
4 7 V
5 7 V
4 7 V
5 7 V
4 8 V
4 7 V
5 8 V
4 7 V
4 8 V
5 7 V
4 8 V
4 8 V
5 8 V
4 8 V
5 8 V
4 8 V
4 8 V
5 9 V
4 8 V
4 9 V
5 8 V
4 9 V
4 9 V
5 8 V
4 9 V
5 9 V
4 9 V
4 10 V
5 9 V
4 9 V
4 10 V
5 9 V
4 10 V
4 9 V
5 10 V
4 10 V
5 10 V
4 10 V
4 10 V
5 11 V
4 10 V
4 10 V
5 11 V
4 10 V
4 11 V
5 11 V
4 11 V
5 11 V
4 11 V
4 11 V
5 11 V
4 12 V
4 11 V
5 12 V
4 11 V
4 12 V
5 12 V
4 12 V
5 12 V
4 12 V
4 13 V
5 12 V
4 12 V
4 13 V
5 13 V
4 12 V
4 13 V
5 13 V
4 13 V
5 13 V
4 14 V
4 13 V
5 13 V
4 14 V
4 14 V
5 13 V
4 14 V
4 14 V
5 14 V
4 14 V
5 15 V
4 14 V
4 14 V
5 15 V
4 15 V
4 15 V
5 14 V
4 15 V
4 15 V
5 16 V
4 15 V
5 15 V
4 16 V
4 15 V
5 16 V
4 16 V
4 16 V
5 16 V
4 16 V
4 16 V
5 17 V
4 16 V
5 16 V
4 17 V
4 17 V
5 17 V
4 17 V
4 17 V
5 17 V
4 17 V
4 17 V
5 18 V
4 17 V
5 18 V
4 18 V
4 17 V
5 18 V
4 18 V
4 19 V
5 18 V
stroke 2575 2958 M
4 18 V
4 18 V
5 19 V
4 19 V
5 18 V
4 19 V
4 19 V
5 19 V
4 19 V
4 19 V
5 19 V
4 20 V
4 19 V
5 20 V
4 19 V
5 20 V
4 20 V
4 20 V
5 20 V
4 20 V
4 20 V
5 20 V
4 21 V
4 20 V
5 21 V
4 20 V
5 21 V
4 21 V
4 20 V
5 21 V
4 21 V
4 21 V
5 22 V
4 21 V
4 21 V
5 21 V
4 22 V
4 21 V
5 22 V
4 22 V
5 21 V
4 22 V
4 22 V
5 22 V
4 22 V
4 22 V
5 22 V
4 23 V
4 22 V
5 22 V
4 23 V
5 22 V
4 23 V
4 22 V
5 23 V
4 22 V
4 23 V
5 23 V
4 23 V
4 23 V
5 23 V
4 23 V
5 23 V
4 23 V
4 23 V
5 23 V
4 23 V
4 23 V
5 24 V
4 23 V
4 23 V
5 24 V
4 23 V
5 24 V
4 23 V
4 24 V
5 23 V
4 24 V
4 23 V
5 24 V
4 24 V
4 23 V
5 24 V
4 24 V
5 24 V
4 23 V
4 24 V
5 24 V
4 24 V
4 23 V
5 24 V
4 24 V
4 24 V
5 23 V
4 24 V
5 24 V
4 24 V
4 24 V
5 23 V
4 24 V
4 24 V
5 24 V
4 23 V
4 24 V
5 24 V
4 23 V
5 24 V
4 24 V
4 23 V
5 24 V
4 24 V
4 23 V
5 24 V
4 23 V
4 23 V
5 24 V
4 23 V
5 24 V
4 23 V
4 23 V
5 23 V
4 23 V
4 24 V
5 23 V
4 23 V
4 22 V
5 23 V
4 23 V
5 23 V
4 23 V
4 22 V
5 23 V
4 22 V
4 23 V
5 22 V
4 22 V
4 23 V
5 22 V
4 22 V
5 22 V
4 22 V
4 22 V
5 21 V
4 22 V
4 21 V
5 22 V
4 21 V
4 22 V
5 21 V
4 21 V
5 21 V
4 21 V
4 20 V
5 21 V
4 21 V
4 20 V
5 20 V
4 21 V
4 20 V
5 20 V
4 20 V
5 19 V
4 20 V
4 19 V
5 20 V
4 19 V
4 19 V
5 19 V
4 19 V
4 19 V
5 18 V
4 19 V
5 18 V
4 18 V
4 18 V
5 18 V
4 18 V
4 17 V
5 18 V
4 17 V
4 17 V
5 17 V
4 17 V
5 17 V
4 16 V
4 16 V
5 17 V
4 16 V
4 15 V
5 16 V
4 16 V
4 15 V
5 15 V
4 15 V
5 15 V
4 14 V
4 15 V
5 14 V
4 14 V
4 14 V
5 14 V
4 13 V
4 14 V
5 13 V
4 13 V
5 13 V
4 12 V
4 13 V
5 12 V
4 12 V
4 12 V
5 11 V
4 12 V
4 11 V
5 11 V
4 11 V
5 10 V
4 11 V
4 10 V
5 10 V
4 10 V
4 9 V
5 10 V
4 9 V
4 9 V
5 9 V
4 8 V
4 8 V
5 9 V
4 7 V
5 8 V
4 8 V
4 7 V
5 7 V
4 7 V
4 6 V
5 7 V
4 6 V
4 6 V
5 5 V
4 6 V
5 5 V
4 5 V
4 5 V
5 4 V
4 5 V
4 4 V
5 4 V
4 3 V
stroke 3661 7610 M
4 4 V
5 3 V
4 3 V
5 3 V
4 2 V
4 3 V
5 2 V
4 2 V
4 1 V
5 2 V
4 1 V
4 1 V
5 0 V
4 1 V
5 0 V
4 0 V
4 0 V
5 -1 V
4 0 V
4 -1 V
5 -1 V
4 -2 V
4 -1 V
5 -2 V
4 -2 V
5 -3 V
4 -2 V
4 -3 V
5 -3 V
4 -3 V
4 -4 V
5 -3 V
4 -4 V
4 -4 V
5 -5 V
4 -4 V
5 -5 V
4 -5 V
4 -5 V
5 -6 V
4 -5 V
4 -6 V
5 -6 V
4 -7 V
4 -6 V
5 -7 V
4 -7 V
5 -7 V
4 -8 V
4 -8 V
5 -7 V
4 -9 V
4 -8 V
5 -8 V
4 -9 V
4 -9 V
5 -9 V
4 -10 V
5 -9 V
4 -10 V
4 -10 V
5 -10 V
4 -11 V
4 -10 V
5 -11 V
4 -11 V
4 -11 V
5 -12 V
4 -11 V
5 -12 V
4 -12 V
4 -12 V
5 -13 V
4 -12 V
4 -13 V
5 -13 V
4 -13 V
4 -14 V
5 -13 V
4 -14 V
5 -14 V
4 -14 V
4 -14 V
5 -15 V
4 -14 V
4 -15 V
5 -15 V
4 -15 V
4 -15 V
5 -16 V
4 -16 V
5 -15 V
4 -16 V
4 -17 V
5 -16 V
4 -16 V
4 -17 V
5 -17 V
4 -17 V
4 -17 V
5 -17 V
4 -18 V
5 -17 V
4 -18 V
4 -18 V
5 -18 V
4 -18 V
4 -18 V
5 -19 V
4 -18 V
4 -19 V
5 -19 V
4 -19 V
5 -19 V
4 -19 V
4 -20 V
5 -19 V
4 -20 V
4 -19 V
5 -20 V
4 -20 V
4 -20 V
5 -21 V
4 -20 V
5 -20 V
4 -21 V
4 -21 V
5 -20 V
4 -21 V
4 -21 V
5 -21 V
4 -21 V
4 -22 V
5 -21 V
4 -22 V
5 -21 V
4 -22 V
4 -21 V
5 -22 V
4 -22 V
4 -22 V
5 -22 V
4 -22 V
4 -23 V
5 -22 V
4 -22 V
5 -23 V
4 -22 V
4 -23 V
5 -22 V
4 -23 V
4 -23 V
5 -23 V
4 -23 V
4 -22 V
5 -23 V
4 -23 V
4 -24 V
5 -23 V
4 -23 V
5 -23 V
4 -23 V
4 -24 V
5 -23 V
4 -24 V
4 -23 V
5 -23 V
4 -24 V
4 -23 V
5 -24 V
4 -24 V
5 -23 V
4 -24 V
4 -24 V
5 -23 V
4 -24 V
4 -24 V
5 -23 V
4 -24 V
4 -24 V
5 -24 V
4 -23 V
5 -24 V
4 -24 V
4 -24 V
5 -24 V
4 -23 V
4 -24 V
5 -24 V
4 -24 V
4 -23 V
5 -24 V
4 -24 V
5 -24 V
4 -23 V
4 -24 V
5 -24 V
4 -24 V
4 -23 V
5 -24 V
4 -24 V
4 -23 V
5 -24 V
4 -23 V
5 -24 V
4 -23 V
4 -24 V
5 -23 V
4 -24 V
4 -23 V
5 -23 V
4 -24 V
4 -23 V
5 -23 V
4 -23 V
5 -23 V
4 -23 V
4 -23 V
5 -23 V
4 -23 V
4 -23 V
5 -23 V
4 -23 V
4 -23 V
5 -22 V
4 -23 V
5 -22 V
4 -23 V
4 -22 V
5 -23 V
4 -22 V
4 -22 V
5 -23 V
4 -22 V
4 -22 V
5 -22 V
4 -22 V
5 -22 V
4 -22 V
4 -21 V
5 -22 V
4 -22 V
4 -21 V
5 -22 V
4 -21 V
4 -21 V
5 -21 V
4 -22 V
5 -21 V
stroke 4748 3568 M
4 -21 V
4 -21 V
5 -20 V
4 -21 V
4 -21 V
5 -20 V
4 -21 V
4 -20 V
5 -21 V
4 -20 V
5 -20 V
4 -20 V
4 -20 V
5 -20 V
4 -20 V
4 -20 V
5 -19 V
4 -20 V
4 -19 V
5 -20 V
4 -19 V
5 -19 V
4 -19 V
4 -19 V
5 -19 V
4 -19 V
4 -18 V
5 -19 V
4 -19 V
4 -18 V
5 -18 V
4 -18 V
5 -19 V
4 -18 V
4 -18 V
5 -17 V
4 -18 V
4 -18 V
5 -17 V
4 -18 V
4 -17 V
5 -17 V
4 -17 V
5 -17 V
4 -17 V
4 -17 V
5 -17 V
4 -17 V
4 -16 V
5 -16 V
4 -17 V
4 -16 V
5 -16 V
4 -16 V
5 -16 V
4 -16 V
4 -16 V
5 -15 V
4 -16 V
4 -15 V
5 -15 V
4 -16 V
4 -15 V
5 -15 V
4 -14 V
5 -15 V
4 -15 V
4 -15 V
5 -14 V
4 -14 V
4 -15 V
5 -14 V
4 -14 V
4 -14 V
5 -14 V
4 -13 V
5 -14 V
4 -14 V
4 -13 V
5 -13 V
4 -14 V
4 -13 V
5 -13 V
4 -13 V
4 -13 V
5 -12 V
4 -13 V
5 -13 V
4 -12 V
4 -12 V
5 -13 V
4 -12 V
4 -12 V
5 -12 V
4 -12 V
4 -12 V
5 -11 V
4 -12 V
4 -11 V
5 -12 V
4 -11 V
5 -11 V
4 -11 V
4 -11 V
5 -11 V
4 -11 V
4 -11 V
5 -10 V
4 -11 V
4 -10 V
5 -10 V
4 -11 V
5 -10 V
4 -10 V
4 -10 V
5 -10 V
4 -10 V
4 -9 V
5 -10 V
4 -9 V
4 -10 V
5 -9 V
4 -9 V
5 -10 V
4 -9 V
4 -9 V
5 -9 V
4 -8 V
4 -9 V
5 -9 V
4 -8 V
4 -9 V
5 -8 V
4 -9 V
5 -8 V
4 -8 V
4 -8 V
5 -8 V
4 -8 V
4 -8 V
5 -8 V
4 -7 V
4 -8 V
5 -7 V
4 -8 V
5 -7 V
4 -8 V
4 -7 V
5 -7 V
4 -7 V
4 -7 V
5 -7 V
4 -7 V
4 -7 V
5 -6 V
4 -7 V
5 -6 V
4 -7 V
4 -6 V
5 -7 V
4 -6 V
4 -6 V
5 -6 V
4 -6 V
4 -6 V
5 -6 V
4 -6 V
5 -6 V
4 -6 V
4 -5 V
5 -6 V
4 -6 V
4 -5 V
5 -5 V
4 -6 V
4 -5 V
5 -5 V
4 -6 V
5 -5 V
4 -5 V
4 -5 V
5 -5 V
4 -5 V
4 -4 V
5 -5 V
4 -5 V
4 -4 V
5 -5 V
4 -5 V
5 -4 V
4 -5 V
4 -4 V
5 -4 V
4 -4 V
4 -5 V
5 -4 V
4 -4 V
4 -4 V
5 -4 V
4 -4 V
5 -4 V
4 -4 V
4 -4 V
5 -3 V
4 -4 V
4 -4 V
5 -3 V
4 -4 V
4 -3 V
5 -4 V
4 -3 V
5 -4 V
4 -3 V
4 -3 V
5 -4 V
4 -3 V
4 -3 V
5 -3 V
4 -3 V
4 -3 V
5 -3 V
4 -3 V
5 -3 V
4 -3 V
4 -3 V
5 -3 V
4 -3 V
4 -2 V
5 -3 V
4 -3 V
4 -2 V
5 -3 V
4 -3 V
5 -2 V
4 -3 V
4 -2 V
5 -3 V
4 -2 V
4 -2 V
5 -3 V
4 -2 V
4 -2 V
5 -2 V
4 -3 V
5 -2 V
4 -2 V
4 -2 V
5 -2 V
4 -2 V
stroke 5834 1072 M
4 -2 V
5 -2 V
4 -2 V
4 -2 V
5 -2 V
4 -2 V
5 -1 V
4 -2 V
4 -2 V
5 -2 V
4 -2 V
4 -1 V
5 -2 V
4 -2 V
4 -1 V
5 -2 V
4 -1 V
5 -2 V
4 -2 V
4 -1 V
5 -2 V
4 -1 V
4 -1 V
5 -2 V
4 -1 V
4 -2 V
5 -1 V
4 -1 V
5 -2 V
4 -74 V
4 0 V
5 0 V
4 0 V
4 0 V
5 0 V
4 0 V
4 0 V
5 0 V
4 0 V
4 0 V
5 0 V
4 0 V
5 0 V
4 0 V
4 0 V
5 0 V
4 0 V
4 0 V
5 0 V
4 0 V
4 0 V
5 0 V
4 0 V
5 0 V
4 0 V
4 0 V
5 0 V
4 0 V
4 0 V
5 0 V
4 0 V
4 0 V
5 0 V
4 0 V
5 0 V
4 0 V
4 0 V
5 0 V
4 0 V
4 0 V
5 0 V
4 0 V
4 0 V
5 0 V
4 0 V
5 0 V
4 0 V
4 0 V
5 0 V
4 0 V
4 0 V
5 0 V
4 0 V
4 0 V
5 0 V
4 0 V
5 0 V
4 0 V
4 0 V
5 0 V
4 0 V
4 0 V
5 0 V
4 0 V
4 0 V
5 0 V
4 0 V
5 0 V
4 0 V
4 0 V
5 0 V
4 0 V
4 0 V
5 0 V
4 0 V
4 0 V
5 0 V
4 0 V
5 0 V
4 0 V
4 0 V
5 0 V
4 0 V
4 0 V
5 0 V
4 0 V
4 0 V
5 0 V
4 0 V
5 0 V
4 0 V
4 0 V
5 0 V
4 0 V
4 0 V
5 0 V
4 0 V
4 0 V
5 0 V
4 0 V
5 0 V
4 0 V
4 0 V
5 0 V
4 0 V
4 0 V
5 0 V
4 0 V
4 0 V
5 0 V
4 0 V
5 0 V
4 0 V
4 0 V
5 0 V
4 0 V
4 0 V
5 0 V
4 0 V
4 0 V
5 0 V
4 0 V
5 0 V
4 0 V
4 0 V
5 0 V
4 0 V
4 0 V
5 0 V
4 0 V
4 0 V
5 0 V
4 0 V
5 0 V
4 0 V
4 0 V
5 0 V
4 0 V
4 0 V
5 0 V
4 0 V
4 0 V
5 0 V
4 0 V
5 0 V
4 0 V
4 0 V
5 0 V
4 0 V
4 0 V
5 0 V
4 0 V
4 0 V
5 0 V
4 0 V
5 0 V
4 0 V
4 0 V
5 0 V
4 0 V
4 0 V
5 0 V
4 0 V
4 0 V
5 0 V
4 0 V
5 0 V
4 0 V
4 0 V
5 0 V
4 0 V
4 0 V
5 0 V
4 0 V
4 0 V
5 0 V
4 0 V
5 0 V
4 0 V
4 0 V
5 0 V
4 0 V
4 0 V
5 0 V
4 0 V
4 0 V
5 0 V
4 0 V
4 0 V
5 0 V
4 0 V
5 0 V
4 0 V
4 0 V
5 0 V
4 0 V
4 0 V
5 0 V
4 0 V
4 0 V
5 0 V
4 0 V
5 0 V
4 0 V
4 0 V
5 0 V
4 0 V
4 0 V
5 0 V
4 0 V
4 0 V
5 0 V
4 0 V
5 0 V
4 0 V
4 0 V
5 0 V
4 0 V
4 0 V
stroke 6920 950 M
5 0 V
4 0 V
4 0 V
5 0 V
4 0 V
5 0 V
4 0 V
4 0 V
5 0 V
4 0 V
4 0 V
5 0 V
4 0 V
4 0 V
5 0 V
4 0 V
5 0 V
4 0 V
4 0 V
5 0 V
4 0 V
4 0 V
5 0 V
4 0 V
4 0 V
5 0 V
4 0 V
5 0 V
4 0 V
4 0 V
5 0 V
4 0 V
4 0 V
5 0 V
4 0 V
4 0 V
5 0 V
4 0 V
5 0 V
4 0 V
4 0 V
5 0 V
4 0 V
4 0 V
5 0 V
4 0 V
4 0 V
5 0 V
4 0 V
5 0 V
4 0 V
4 0 V
5 0 V
4 0 V
4 0 V
5 0 V
4 0 V
4 0 V
5 0 V
4 0 V
5 0 V
4 0 V
4 0 V
5 0 V
4 0 V
4 0 V
5 0 V
4 0 V
4 0 V
5 0 V
4 0 V
5 0 V
4 0 V
4 0 V
5 0 V
4 0 V
4 0 V
5 0 V
4 0 V
4 0 V
5 0 V
4 0 V
5 0 V
4 0 V
4 0 V
5 0 V
4 0 V
4 0 V
5 0 V
4 0 V
4 0 V
5 0 V
4 0 V
5 0 V
4 0 V
4 0 V
5 0 V
4 0 V
4 0 V
5 0 V
4 0 V
4 0 V
5 0 V
4 0 V
5 0 V
4 0 V
4 0 V
5 0 V
4 0 V
4 0 V
5 0 V
4 0 V
4 0 V
5 0 V
4 0 V
5 0 V
4 0 V
4 0 V
5 0 V
4 0 V
4 0 V
5 0 V
4 0 V
4 0 V
5 0 V
4 0 V
5 0 V
4 0 V
4 0 V
5 0 V
4 0 V
4 0 V
5 0 V
4 0 V
4 0 V
5 0 V
4 0 V
5 0 V
4 0 V
4 0 V
5 0 V
4 0 V
4 0 V
5 0 V
4 0 V
4 0 V
5 0 V
4 0 V
5 0 V
4 0 V
4 0 V
5 0 V
4 0 V
4 0 V
5 0 V
4 0 V
4 0 V
5 0 V
4 0 V
4 0 V
5 0 V
4 0 V
5 0 V
4 0 V
4 0 V
5 0 V
4 0 V
4 0 V
5 0 V
4 0 V
4 0 V
5 0 V
4 0 V
5 0 V
4 0 V
4 0 V
5 0 V
4 0 V
4 0 V
5 0 V
4 0 V
4 0 V
5 0 V
4 0 V
5 0 V
4 0 V
4 0 V
5 0 V
4 0 V
4 0 V
5 0 V
4 0 V
4 0 V
5 0 V
4 0 V
5 0 V
4 0 V
4 0 V
5 0 V
4 0 V
4 0 V
5 0 V
4 0 V
4 0 V
5 0 V
4 0 V
5 0 V
4 0 V
4 0 V
5 0 V
4 0 V
4 0 V
5 0 V
4 0 V
4 0 V
5 0 V
4 0 V
5 0 V
4 0 V
4 0 V
5 0 V
4 0 V
4 0 V
5 0 V
4 0 V
4 0 V
5 0 V
4 0 V
5 0 V
4 0 V
4 0 V
5 0 V
4 0 V
4 0 V
5 0 V
4 0 V
4 0 V
5 0 V
4 0 V
5 0 V
4 0 V
4 0 V
5 0 V
4 0 V
4 0 V
5 0 V
4 0 V
4 0 V
5 0 V
stroke 8007 950 M
4 0 V
5 0 V
4 0 V
4 0 V
5 0 V
4 0 V
4 0 V
5 0 V
4 0 V
4 0 V
5 0 V
4 0 V
5 0 V
4 0 V
4 0 V
5 0 V
4 0 V
4 0 V
5 0 V
4 0 V
4 0 V
5 0 V
4 0 V
5 0 V
4 0 V
4 0 V
5 0 V
4 0 V
4 0 V
5 0 V
4 0 V
4 0 V
5 0 V
4 0 V
5 0 V
4 0 V
4 0 V
5 0 V
4 0 V
4 0 V
5 0 V
4 0 V
4 0 V
5 0 V
4 0 V
5 0 V
4 0 V
4 0 V
5 0 V
4 0 V
4 0 V
5 0 V
4 0 V
4 0 V
5 0 V
4 0 V
5 0 V
4 0 V
4 0 V
5 0 V
4 0 V
4 0 V
5 0 V
4 0 V
4 0 V
5 0 V
4 0 V
5 0 V
4 0 V
4 0 V
5 0 V
4 0 V
4 0 V
5 0 V
4 0 V
4 0 V
5 0 V
4 0 V
5 0 V
4 0 V
4 0 V
5 0 V
4 0 V
4 0 V
5 0 V
4 0 V
4 0 V
5 0 V
4 0 V
4 0 V
5 0 V
4 0 V
5 0 V
4 0 V
4 0 V
5 0 V
4 0 V
4 0 V
5 0 V
4 0 V
4 0 V
5 0 V
4 0 V
5 0 V
4 0 V
4 0 V
5 0 V
4 0 V
4 0 V
5 0 V
4 0 V
4 0 V
5 0 V
4 0 V
5 0 V
4 0 V
4 0 V
5 0 V
4 0 V
4 0 V
5 0 V
4 0 V
4 0 V
5 0 V
4 0 V
5 0 V
4 0 V
4 0 V
5 0 V
4 0 V
4 0 V
5 0 V
4 0 V
4 0 V
5 0 V
4 0 V
5 0 V
4 0 V
4 0 V
5 0 V
4 0 V
4 0 V
5 0 V
4 0 V
4 0 V
5 0 V
4 0 V
5 0 V
4 0 V
4 0 V
5 0 V
4 0 V
4 0 V
5 0 V
4 0 V
4 0 V
5 0 V
4 0 V
5 0 V
4 0 V
4 0 V
5 0 V
4 0 V
4 0 V
5 0 V
4 0 V
4 0 V
5 0 V
4 0 V
5 0 V
4 0 V
4 0 V
5 0 V
4 0 V
4 0 V
5 0 V
4 0 V
4 0 V
5 0 V
4 0 V
5 0 V
4 0 V
4 0 V
5 0 V
4 0 V
4 0 V
5 0 V
4 0 V
4 0 V
5 0 V
4 0 V
5 0 V
4 0 V
4 0 V
5 0 V
4 0 V
4 0 V
5 0 V
4 0 V
4 0 V
5 0 V
4 0 V
5 0 V
4 0 V
4 0 V
5 0 V
4 0 V
4 0 V
5 0 V
4 0 V
4 0 V
5 0 V
4 0 V
5 0 V
4 0 V
4 0 V
5 0 V
4 0 V
4 0 V
5 0 V
4 0 V
4 0 V
5 0 V
4 0 V
5 0 V
4 0 V
4 0 V
5 0 V
4 0 V
4 0 V
5 0 V
4 0 V
4 0 V
5 0 V
4 0 V
5 0 V
4 0 V
4 0 V
5 0 V
4 0 V
4 0 V
5 0 V
4 0 V
4 0 V
5 0 V
4 0 V
5 0 V
4 0 V
4 0 V
stroke 9093 950 M
5 0 V
4 0 V
4 0 V
5 0 V
4 0 V
4 0 V
5 0 V
4 0 V
5 0 V
4 0 V
4 0 V
5 0 V
4 0 V
4 0 V
5 0 V
4 0 V
4 0 V
5 0 V
4 0 V
5 0 V
4 0 V
4 0 V
5 0 V
4 0 V
4 0 V
5 0 V
4 0 V
4 0 V
5 0 V
4 0 V
4 0 V
5 0 V
4 0 V
5 0 V
4 0 V
4 0 V
5 0 V
4 0 V
4 0 V
5 0 V
4 0 V
4 0 V
5 0 V
4 0 V
5 0 V
4 0 V
4 0 V
5 0 V
4 0 V
4 0 V
5 0 V
4 0 V
4 0 V
5 0 V
4 0 V
5 0 V
4 0 V
4 0 V
5 0 V
4 0 V
4 0 V
5 0 V
4 0 V
4 0 V
5 0 V
4 0 V
5 0 V
4 0 V
4 0 V
5 0 V
4 0 V
4 0 V
5 0 V
4 0 V
4 0 V
5 0 V
4 0 V
5 0 V
4 0 V
4 0 V
5 0 V
4 0 V
4 0 V
5 0 V
4 0 V
4 0 V
5 0 V
4 0 V
5 0 V
4 0 V
4 0 V
5 0 V
4 0 V
4 0 V
5 0 V
4 0 V
4 0 V
5 0 V
4 0 V
5 0 V
4 0 V
4 0 V
5 0 V
4 0 V
4 0 V
5 0 V
4 0 V
4 0 V
5 0 V
4 0 V
5 0 V
4 0 V
4 0 V
5 0 V
4 0 V
4 0 V
5 0 V
4 0 V
4 0 V
5 0 V
4 0 V
5 0 V
4 0 V
4 0 V
5 0 V
4 0 V
4 0 V
5 0 V
4 0 V
4 0 V
5 0 V
4 0 V
5 0 V
4 0 V
4 0 V
5 0 V
4 0 V
4 0 V
5 0 V
4 0 V
4 0 V
5 0 V
4 0 V
5 0 V
4 0 V
4 0 V
5 0 V
4 0 V
4 0 V
5 0 V
4 0 V
4 0 V
5 0 V
4 0 V
5 0 V
4 0 V
4 0 V
5 0 V
4 0 V
4 0 V
5 0 V
4 0 V
4 0 V
5 0 V
4 0 V
5 0 V
4 0 V
4 0 V
5 0 V
4 0 V
4 0 V
5 0 V
4 0 V
4 0 V
5 0 V
4 0 V
5 0 V
4 0 V
4 0 V
5 0 V
4 0 V
4 0 V
5 0 V
4 0 V
4 0 V
5 0 V
4 0 V
5 0 V
4 0 V
4 0 V
5 0 V
4 0 V
4 0 V
5 0 V
4 0 V
4 0 V
5 0 V
4 0 V
5 0 V
4 0 V
4 0 V
5 0 V
4 0 V
4 0 V
5 0 V
4 0 V
4 0 V
5 0 V
4 0 V
5 0 V
4 0 V
4 0 V
5 0 V
4 0 V
4 0 V
5 0 V
4 0 V
4 0 V
5 0 V
4 0 V
4 0 V
5 0 V
4 0 V
5 0 V
4 0 V
4 0 V
5 0 V
4 0 V
4 0 V
5 0 V
4 0 V
4 0 V
5 0 V
4 0 V
5 0 V
4 0 V
4 0 V
5 0 V
4 0 V
4 0 V
5 0 V
4 0 V
4 0 V
5 0 V
4 0 V
5 0 V
4 0 V
4 0 V
5 0 V
stroke 10180 950 M
4 0 V
4 0 V
5 0 V
4 0 V
4 0 V
5 0 V
4 0 V
5 0 V
4 0 V
4 0 V
5 0 V
4 0 V
4 0 V
5 0 V
4 0 V
4 0 V
5 0 V
4 0 V
5 0 V
4 0 V
4 0 V
5 0 V
4 0 V
4 0 V
5 0 V
4 0 V
4 0 V
5 0 V
4 0 V
5 0 V
4 0 V
4 0 V
5 0 V
4 0 V
4 0 V
5 0 V
4 0 V
4 0 V
5 0 V
4 0 V
5 0 V
4 0 V
4 0 V
5 0 V
4 0 V
4 0 V
5 0 V
4 0 V
4 0 V
5 0 V
4 0 V
5 0 V
4 0 V
4 0 V
5 0 V
4 0 V
7369 7438 Pnt
% End plot #1
2.000 UL
LTb
LCb setrgbcolor
1.000 UP
0.500 UL
[] 0 setdash
PL 0.15 0.15 0.15 C 1497 950 M
8927 0 V
stroke
[] 0 setdash
0.85 0.33 0.10 C 10424 950 M
0 7041 V
stroke
1.000 UL
LTb
0.00 0.00 0.00 C grestore % colour palette end
gsave % colour palette begin
/maxcolors 64 def
/HSV2RGB {  exch dup 0.0 eq {pop exch pop dup dup} % achromatic gray
  { /HSVs exch def /HSVv exch def 6.0 mul dup floor dup 3 1 roll sub
     /HSVf exch def /HSVi exch cvi def /HSVp HSVv 1.0 HSVs sub mul def
	 /HSVq HSVv 1.0 HSVs HSVf mul sub mul def 
	 /HSVt HSVv 1.0 HSVs 1.0 HSVf sub mul sub mul def
	 /HSVi HSVi 6 mod def 0 HSVi eq {HSVv HSVt HSVp}
	 {1 HSVi eq {HSVq HSVv HSVp}{2 HSVi eq {HSVp HSVv HSVt}
	 {3 HSVi eq {HSVp HSVq HSVv}{4 HSVi eq {HSVt HSVp HSVv}
	 {HSVv HSVp HSVq} ifelse} ifelse} ifelse} ifelse} ifelse
  } ifelse} def
/Constrain {
  dup 0 lt {0 exch pop}{dup 1 gt {1 exch pop} if} ifelse} def
/CMY2RGB {  1 exch sub exch 1 exch sub 3 2 roll 1 exch sub 3 1 roll exch } def
/XYZ2RGB {  3 copy -0.9017 mul exch -0.1187 mul add exch 0.0585 mul exch add
  Constrain 4 1 roll 3 copy -0.0279 mul exch 1.999 mul add exch
  -0.9844 mul add Constrain 5 1 roll -0.2891 mul exch -0.5338 mul add
  exch 1.91 mul exch add Constrain 3 1 roll} def
/SelectSpace {ColorSpace (HSV) eq {HSV2RGB}{ColorSpace (XYZ) eq {
  XYZ2RGB}{ColorSpace (CMY) eq {CMY2RGB}{ColorSpace (YIQ) eq {YIQ2RGB}
  if} ifelse} ifelse} ifelse} def
/InterpolatedColor true def
/grayindex {/gidx 0 def
  {GrayA gidx get grayv ge {exit} if /gidx gidx 1 add def} loop} def
/dgdx {grayv GrayA gidx get sub GrayA gidx 1 sub get
  GrayA gidx get sub div} def 
/redvalue {RedA gidx get RedA gidx 1 sub get
  RedA gidx get sub dgdxval mul add} def
/greenvalue {GreenA gidx get GreenA gidx 1 sub get
  GreenA gidx get sub dgdxval mul add} def
/bluevalue {BlueA gidx get BlueA gidx 1 sub get
  BlueA gidx get sub dgdxval mul add} def
/interpolate {
  grayindex grayv GrayA gidx get sub abs 1e-5 le
    {RedA gidx get GreenA gidx get BlueA gidx get}
    {/dgdxval dgdx def redvalue greenvalue bluevalue} ifelse} def
/GrayA [0 .0159 .0317 .0476 .0635 .0794 .0952 .1111 .127 .1429 .1587 .1746 
  .1905 .2063 .2222 .2381 .254 .2698 .2857 .3016 .3175 .3333 .3492 .3651 
  .381 .3968 .4127 .4286 .4444 .4603 .4762 .4921 .5079 .5238 .5397 .5556 
  .5714 .5873 .6032 .619 .6349 .6508 .6667 .6825 .6984 .7143 .7302 .746 
  .7619 .7778 .7937 .8095 .8254 .8413 .8571 .873 .8889 .9048 .9206 .9365 
  .9524 .9683 .9841 1 ] def
/RedA [.267 .2727 .2771 .2804 .2824 .2832 .2828 .2812 .2785 .2747 .27 .2644 
  .258 .2511 .2437 .2361 .2283 .2204 .2127 .2051 .1977 .1906 .1838 .1773 
  .171 .1648 .1588 .153 .1471 .1414 .1358 .1306 .1259 .1222 .1199 .1196 .122 
  .1277 .1368 .1496 .166 .1855 .208 .2331 .2605 .29 .3213 .3544 .3889 .4249 
  .4622 .5008 .5403 .5809 .6222 .6641 .7064 .7489 .7913 .8333 .8747 .9153 
  .9548 .9932 ] def
/GreenA [.0049 .0258 .0509 .0742 .096 .1169 .1374 .1575 .1773 .197 .2163 
  .2354 .2542 .2726 .2906 .3083 .3256 .3425 .3591 .3754 .3913 .4071 .4226 
  .4379 .4531 .4681 .4831 .4981 .513 .5279 .5428 .5577 .5726 .5875 .6024 
  .6173 .6321 .6469 .6616 .6761 .6905 .7047 .7187 .7324 .7458 .7588 .7715 
  .7837 .7955 .8067 .8173 .8274 .8369 .8457 .8538 .8613 .8682 .8745 .8803 
  .8858 .8909 .896 .901 .9062 ] def
/BlueA [.3294 .3534 .3762 .3979 .4183 .4372 .4546 .4704 .4847 .4973 .5083 
  .5177 .5258 .5325 .5381 .5427 .5463 .5493 .5516 .5535 .555 .5561 .557 
  .5576 .558 .5581 .5581 .5577 .557 .5559 .5543 .5522 .5494 .546 .5418 .5368 
  .5308 .5239 .516 .5069 .4968 .4854 .4729 .4591 .4441 .4278 .4103 .3915 
  .3714 .3501 .3275 .3038 .2789 .253 .2262 .1989 .1715 .145 .1213 .1033 
  .0954 .1005 .1179 .1439 ] def
/pm3dround {maxcolors 0 gt {dup 1 ge
	{pop 1} {maxcolors mul floor maxcolors 1 sub div} ifelse} if} def
/pm3dGamma 1.0 1.5 Gamma mul div def
/ColorSpace (RGB) def
Color InterpolatedColor or { % COLOUR vs. GRAY map
  InterpolatedColor { %% Interpolation vs. RGB-Formula
    /g {stroke pm3dround /grayv exch def interpolate
        SelectSpace setrgbcolor} bind def
  }{
  /g {stroke pm3dround dup cF7 Constrain exch dup cF5 Constrain exch cF15 Constrain 
       SelectSpace setrgbcolor} bind def
  } ifelse
}{
  /g {stroke pm3dround pm3dGamma exp setgray} bind def
} ifelse
1.000 UL
LTb
0.00 0.00 0.00 C 1.000 UP
1.000 UL
LTb
0.00 0.00 0.00 C 1.000 UL
LTb
LCb setrgbcolor
7161 5356 N
0 2940 V
4431 0 V
0 -2940 V
-4431 0 V
Z stroke
% Begin plot #1
2.000 UP
0.500 UL
LTb
[10.0 dl1 10.0 dl2 ] 0 setdash
0.00 0.00 1.00 C % End plot #1
% Begin plot #2
2.000 UP
0.500 UL
LTb
0.00 0.45 0.74 C % End plot #2
% Begin plot #3
2.000 UP
0.500 UL
LTb
0.85 0.33 0.10 C % End plot #3
% Begin plot #4
2.000 UP
0.500 UL
LTb
[10.0 dl1 10.0 dl2 ] 0 setdash
0.00 0.00 1.00 C 0.00 0.00 0.00 C 8232 7806 M
[ [(Helvetica) 280.0 0.0 true true 0 (single-particle wake)]
] -93.3 MLshow
/Helvetica findfont 280 scalefont setfont
2.000 UP
0.500 UL
LTb
[10.0 dl1 10.0 dl2 ] 0 setdash
0.00 0.00 1.00 C 7329 7806 M
735 0 V
7697 7806 Pnt
% End plot #4
% Begin plot #5
2.000 UP
0.500 UL
LTb
0.00 0.45 0.74 C 0.00 0.00 0.00 C 8232 6826 M
[ [(Helvetica) 280.0 0.0 true true 0 (total wake)]
] -93.3 MLshow
/Helvetica findfont 280 scalefont setfont
2.000 UP
0.500 UL
LTb
0.00 0.45 0.74 C 7329 6826 M
735 0 V
7697 6826 Pnt
% End plot #5
% Begin plot #6
2.000 UP
0.500 UL
LTb
0.85 0.33 0.10 C 0.00 0.00 0.00 C 8232 5846 M
[ [(Helvetica) 280.0 0.0 true true 0 (charge profile)]
] -93.3 MLshow
/Helvetica findfont 280 scalefont setfont
2.000 UP
0.500 UL
LTb
0.85 0.33 0.10 C 7329 5846 M
735 0 V
7697 5846 Pnt
% End plot #6
2.000 UL
LTb
LCb setrgbcolor
1.000 UP
0.00 0.00 0.00 C 3319 23068 M
[ [(Helvetica) 140.0 0.0 true true 0 (single-particle wake)]
] -46.7 MLshow
/Helvetica findfont 280 scalefont setfont
0.00 0.00 0.00 C 3319 20394 M
[ [(Helvetica) 140.0 0.0 true true 0 (total wake)]
] -46.7 MLshow
/Helvetica findfont 280 scalefont setfont
0.00 0.00 0.00 C 3319 17719 M
[ [(Helvetica) 140.0 0.0 true true 0 (charge profile)]
] -46.7 MLshow
/Helvetica findfont 280 scalefont setfont
0.500 UL
[] 0 setdash
PL 0.15 0.15 0.15 C 420 336 M
11340 0 V
stroke
[] 0 setdash
0.15 0.15 0.15 C 420 336 M
0 8023 V
stroke
1.000 UL
LTb
0.00 0.00 0.00 C grestore % colour palette end
stroke
grestore
end
showpage
%%Trailer
%%DocumentFonts: Helvetica
