 -0.11950000   -0.00039630
 -0.11900000   -0.00079285
 -0.11850000   -0.00118990
 -0.11800000   -0.00158771
 -0.11750000   -0.00198654
 -0.11700000   -0.00238664
 -0.11650000   -0.00278829
 -0.11600000   -0.00319175
 -0.11550000   -0.00359729
 -0.11500000   -0.00400723
 -0.11450000   -0.00441743
 -0.11400000   -0.00483055
 -0.11350000   -0.00524688
 -0.11300000   -0.00566759
 -0.11250000   -0.00609113
 -0.11200000   -0.00651828
 -0.11150000   -0.00695018
 -0.11100000   -0.00738663
 -0.11050000   -0.00782790
 -0.11000000   -0.00827380
 -0.10950000   -0.00872618
 -0.10900000   -0.00918436
 -0.10850000   -0.00964872
 -0.10800000   -0.01011963
 -0.10750000   -0.01059835
 -0.10700000   -0.01108232
 -0.10650000   -0.01157523
 -0.10600000   -0.01207626
 -0.10550000   -0.01258581
 -0.10500000   -0.01310295
 -0.10450000   -0.01363047
 -0.10400000   -0.01416761
 -0.10350000   -0.01471480
 -0.10300000   -0.01527251
 -0.10250000   -0.01584180
 -0.10200000   -0.01642119
 -0.10150000   -0.01701328
 -0.10100000   -0.01761793
 -0.10050000   -0.01823569
 -0.10000000   -0.01886621
 -0.09950000   -0.01951087
 -0.09900000   -0.02017028
 -0.09850000   -0.02084501
 -0.09800000   -0.02153567
 -0.09750000   -0.02224383
 -0.09700000   -0.02296708
 -0.09650000   -0.02370910
 -0.09600000   -0.02446965
 -0.09550000   -0.02524947
 -0.09500000   -0.02604790
 -0.09450000   -0.02686739
 -0.09400000   -0.02770838
 -0.09350000   -0.02857170
 -0.09300000   -0.02945816
 -0.09250000   -0.03037023
 -0.09200000   -0.03130363
 -0.09150000   -0.03226450
 -0.09100000   -0.03325211
 -0.09050000   -0.03426739
 -0.09000000   -0.03530923
 -0.08950000   -0.03638148
 -0.08900000   -0.03748441
 -0.08850000   -0.03861906
 -0.08800000   -0.03978651
 -0.08750000   -0.04099017
 -0.08700000   -0.04222367
 -0.08650000   -0.04349599
 -0.08600000   -0.04480575
 -0.08550000   -0.04615420
 -0.08500000   -0.04753979
 -0.08450000   -0.04896758
 -0.08400000   -0.05043784
 -0.08350000   -0.05195191
 -0.08300000   -0.05351109
 -0.08250000   -0.05512036
 -0.08200000   -0.05676950
 -0.08150000   -0.05847181
 -0.08100000   -0.06022483
 -0.08050000   -0.06203003
 -0.08000000   -0.06388628
 -0.07950000   -0.06579801
 -0.07900000   -0.06776626
 -0.07850000   -0.06979249
 -0.07800000   -0.07187818
 -0.07750000   -0.07402968
 -0.07700000   -0.07623316
 -0.07650000   -0.07850549
 -0.07600000   -0.08084313
 -0.07550000   -0.08324746
 -0.07500000   -0.08571691
 -0.07450000   -0.08825581
 -0.07400000   -0.09086522
 -0.07350000   -0.09354638
 -0.07300000   -0.09630037
 -0.07250000   -0.09913364
 -0.07200000   -0.10202985
 -0.07150000   -0.10500781
 -0.07100000   -0.10806245
 -0.07050000   -0.11119452
 -0.07000000   -0.11440405
 -0.06950000   -0.11768947
 -0.06900000   -0.12105393
 -0.06850000   -0.12449764
 -0.06800000   -0.12802070
 -0.06750000   -0.13162895
 -0.06700000   -0.13530477
 -0.06650000   -0.13906443
 -0.06600000   -0.14290232
 -0.06550000   -0.14681774
 -0.06500000   -0.15081311
 -0.06450000   -0.15487750
 -0.06400000   -0.15901611
 -0.06350000   -0.16322727
 -0.06300000   -0.16750911
 -0.06250000   -0.17186351
 -0.06200000   -0.17627619
 -0.06150000   -0.18075634
 -0.06100000   -0.18529764
 -0.06050000   -0.18989709
 -0.06000000   -0.19455673
 -0.05950000   -0.19926035
 -0.05900000   -0.20401204
 -0.05850000   -0.20880784
 -0.05800000   -0.21364365
 -0.05750000   -0.21851639
 -0.05700000   -0.22341871
 -0.05650000   -0.22834777
 -0.05600000   -0.23329857
 -0.05550000   -0.23826580
 -0.05500000   -0.24325544
 -0.05450000   -0.24823931
 -0.05400000   -0.25322429
 -0.05350000   -0.25820439
 -0.05300000   -0.26317384
 -0.05250000   -0.26812420
 -0.05200000   -0.27305947
 -0.05150000   -0.27796212
 -0.05100000   -0.28283038
 -0.05050000   -0.28765825
 -0.05000000   -0.29245017
 -0.04950000   -0.29718128
 -0.04900000   -0.30185470
 -0.04850000   -0.30646376
 -0.04800000   -0.31100293
 -0.04750000   -0.31545998
 -0.04700000   -0.31984891
 -0.04650000   -0.32414376
 -0.04600000   -0.32834584
 -0.04550000   -0.33244917
 -0.04500000   -0.33645775
 -0.04450000   -0.34035360
 -0.04400000   -0.34413582
 -0.04350000   -0.34779955
 -0.04300000   -0.35134035
 -0.04250000   -0.35474511
 -0.04200000   -0.35803847
 -0.04150000   -0.36118559
 -0.04100000   -0.36419269
 -0.04050000   -0.36705621
 -0.04000000   -0.36977993
 -0.03950000   -0.37235209
 -0.03900000   -0.37477002
 -0.03850000   -0.37703061
 -0.03800000   -0.37913099
 -0.03750000   -0.38105539
 -0.03700000   -0.38283977
 -0.03650000   -0.38444329
 -0.03600000   -0.38587505
 -0.03550000   -0.38713305
 -0.03500000   -0.38821819
 -0.03450000   -0.38912935
 -0.03400000   -0.38986032
 -0.03350000   -0.39040866
 -0.03300000   -0.39077326
 -0.03250000   -0.39093770
 -0.03200000   -0.39094657
 -0.03150000   -0.39075107
 -0.03100000   -0.39036539
 -0.03050000   -0.38978798
 -0.03000000   -0.38902150
 -0.02950000   -0.38806552
 -0.02900000   -0.38691403
 -0.02850000   -0.38556659
 -0.02800000   -0.38402166
 -0.02750000   -0.38226280
 -0.02700000   -0.38033796
 -0.02650000   -0.37819719
 -0.02600000   -0.37585560
 -0.02550000   -0.37331229
 -0.02500000   -0.37056860
 -0.02450000   -0.36763074
 -0.02400000   -0.36449005
 -0.02350000   -0.36114654
 -0.02300000   -0.35759998
 -0.02250000   -0.35383572
 -0.02200000   -0.34988551
 -0.02150000   -0.34574756
 -0.02100000   -0.34139280
 -0.02050000   -0.33683633
 -0.02000000   -0.33207570
 -0.01950000   -0.32712689
 -0.01900000   -0.32197814
 -0.01850000   -0.31663056
 -0.01800000   -0.31108548
 -0.01750000   -0.30532870
 -0.01700000   -0.29939394
 -0.01650000   -0.29328166
 -0.01600000   -0.28696323
 -0.01550000   -0.28045506
 -0.01500000   -0.27375627
 -0.01450000   -0.26688328
 -0.01400000   -0.25982699
 -0.01350000   -0.25259007
 -0.01300000   -0.24516142
 -0.01250000   -0.23757122
 -0.01200000   -0.22980927
 -0.01150000   -0.22189228
 -0.01100000   -0.21379460
 -0.01050000   -0.20553321
 -0.01000000   -0.19710572
 -0.00950000   -0.18853324
 -0.00900000   -0.17980628
 -0.00850000   -0.17092838
 -0.00800000   -0.16189162
 -0.00750000   -0.15272200
 -0.00700000   -0.14341200
 -0.00650000   -0.13397766
 -0.00600000   -0.12439731
 -0.00550000   -0.11468632
 -0.00500000   -0.10484227
 -0.00450000   -0.09488560
 -0.00400000   -0.08480795
 -0.00350000   -0.07461268
 -0.00300000   -0.06429359
 -0.00250000   -0.05387282
 -0.00200000   -0.04334394
 -0.00150000   -0.03272074
 -0.00100000   -0.02198619
 -0.00050000   -0.01115272
  0.00000000   -0.00021666
  0.00050000    0.01080178
  0.00100000    0.02191059
  0.00150000    0.03310671
  0.00200000    0.04439426
  0.00250000    0.05575602
  0.00300000    0.06719635
  0.00350000    0.07870421
  0.00400000    0.09029118
  0.00450000    0.10194735
  0.00500000    0.11367614
  0.00550000    0.12545886
  0.00600000    0.13730127
  0.00650000    0.14919987
  0.00700000    0.16115501
  0.00750000    0.17315500
  0.00800000    0.18520097
  0.00850000    0.19728252
  0.00900000    0.20940513
  0.00950000    0.22156033
  0.01000000    0.23375238
  0.01050000    0.24595830
  0.01100000    0.25818331
  0.01150000    0.27042207
  0.01200000    0.28266949
  0.01250000    0.29492246
  0.01300000    0.30717099
  0.01350000    0.31941131
  0.01400000    0.33163876
  0.01450000    0.34384623
  0.01500000    0.35604017
  0.01550000    0.36819217
  0.01600000    0.38030644
  0.01650000    0.39237678
  0.01700000    0.40439230
  0.01750000    0.41635768
  0.01800000    0.42825803
  0.01850000    0.44009247
  0.01900000    0.45184703
  0.01950000    0.46351926
  0.02000000    0.47511338
  0.02050000    0.48660631
  0.02100000    0.49799849
  0.02150000    0.50928437
  0.02200000    0.52044954
  0.02250000    0.53150685
  0.02300000    0.54244035
  0.02350000    0.55325290
  0.02400000    0.56392476
  0.02450000    0.57445859
  0.02500000    0.58485750
  0.02550000    0.59510907
  0.02600000    0.60521040
  0.02650000    0.61515794
  0.02700000    0.62493817
  0.02750000    0.63456994
  0.02800000    0.64403994
  0.02850000    0.65335549
  0.02900000    0.66249395
  0.02950000    0.67146399
  0.03000000    0.68026603
  0.03050000    0.68890232
  0.03100000    0.69736640
  0.03150000    0.70565828
  0.03200000    0.71376575
  0.03250000    0.72171211
  0.03300000    0.72948761
  0.03350000    0.73710266
  0.03400000    0.74453508
  0.03450000    0.75179708
  0.03500000    0.75888821
  0.03550000    0.76582044
  0.03600000    0.77258581
  0.03650000    0.77918673
  0.03700000    0.78561368
  0.03750000    0.79189084
  0.03800000    0.79801045
  0.03850000    0.80398537
  0.03900000    0.80979496
  0.03950000    0.81545299
  0.04000000    0.82095813
  0.04050000    0.82632701
  0.04100000    0.83155166
  0.04150000    0.83663539
  0.04200000    0.84157066
  0.04250000    0.84638033
  0.04300000    0.85105797
  0.04350000    0.85561688
  0.04400000    0.86003843
  0.04450000    0.86433571
  0.04500000    0.86850717
  0.04550000    0.87257078
  0.04600000    0.87651833
  0.04650000    0.88035316
  0.04700000    0.88407037
  0.04750000    0.88768816
  0.04800000    0.89120188
  0.04850000    0.89462262
  0.04900000    0.89793662
  0.04950000    0.90115409
  0.05000000    0.90427236
  0.05050000    0.90730942
  0.05100000    0.91025727
  0.05150000    0.91311879
  0.05200000    0.91589044
  0.05250000    0.91858643
  0.05300000    0.92120319
  0.05350000    0.92375004
  0.05400000    0.92621590
  0.05450000    0.92860920
  0.05500000    0.93092749
  0.05550000    0.93318520
  0.05600000    0.93537612
  0.05650000    0.93750245
  0.05700000    0.93956178
  0.05750000    0.94156473
  0.05800000    0.94350866
  0.05850000    0.94540067
  0.05900000    0.94723253
  0.05950000    0.94901047
  0.06000000    0.95073293
  0.06050000    0.95241035
  0.06100000    0.95403806
  0.06150000    0.95561806
  0.06200000    0.95714834
  0.06250000    0.95863669
  0.06300000    0.96008133
  0.06350000    0.96148757
  0.06400000    0.96284921
  0.06450000    0.96417046
  0.06500000    0.96545088
  0.06550000    0.96669756
  0.06600000    0.96790742
  0.06650000    0.96908176
  0.06700000    0.97021883
  0.06750000    0.97132483
  0.06800000    0.97239842
  0.06850000    0.97344340
  0.06900000    0.97445486
  0.06950000    0.97543615
  0.07000000    0.97638725
  0.07050000    0.97731284
  0.07100000    0.97821091
  0.07150000    0.97908235
  0.07200000    0.97992538
  0.07250000    0.98074534
  0.07300000    0.98154088
  0.07350000    0.98231424
  0.07400000    0.98306252
  0.07450000    0.98378794
  0.07500000    0.98448984
  0.07550000    0.98517288
  0.07600000    0.98583461
  0.07650000    0.98647593
  0.07700000    0.98709573
  0.07750000    0.98769732
  0.07800000    0.98828028
  0.07850000    0.98884637
  0.07900000    0.98939272
  0.07950000    0.98992153
  0.08000000    0.99043192
  0.08050000    0.99092766
  0.08100000    0.99140677
  0.08150000    0.99186967
  0.08200000    0.99231549
  0.08250000    0.99274732
  0.08300000    0.99316407
  0.08350000    0.99356706
  0.08400000    0.99395451
  0.08450000    0.99432777
  0.08500000    0.99468637
  0.08550000    0.99503255
  0.08600000    0.99536519
  0.08650000    0.99568474
  0.08700000    0.99599031
  0.08750000    0.99628412
  0.08800000    0.99656573
  0.08850000    0.99683579
  0.08900000    0.99709276
  0.08950000    0.99733819
  0.09000000    0.99757120
  0.09050000    0.99779355
  0.09100000    0.99800459
  0.09150000    0.99820408
  0.09200000    0.99839160
  0.09250000    0.99856913
  0.09300000    0.99873578
  0.09350000    0.99889267
  0.09400000    0.99903802
  0.09450000    0.99917294
  0.09500000    0.99929721
  0.09550000    0.99941150
  0.09600000    0.99951535
  0.09650000    0.99960900
  0.09700000    0.99969199
  0.09750000    0.99976522
  0.09800000    0.99982869
  0.09850000    0.99988261
  0.09900000    0.99992610
  0.09950000    0.99995917
  0.10000000    0.99998247
  0.10050000    0.99999623
  0.10100000    1.00000000
  0.10150000    0.99999356
  0.10200000    0.99997670
  0.10250000    0.99995051
  0.10300000    0.99991434
  0.10350000    0.99986907
  0.10400000    0.99981293
  0.10450000    0.99974658
  0.10500000    0.99967046
  0.10550000    0.99958458
  0.10600000    0.99948828
  0.10650000    0.99938154
  0.10700000    0.99926370
  0.10750000    0.99913611
  0.10800000    0.99899808
  0.10850000    0.99884984
  0.10900000    0.99869007
  0.10950000    0.99851942
  0.11000000    0.99833767
  0.11050000    0.99814528
  0.11100000    0.99794157
  0.11150000    0.99772631
  0.11200000    0.99749863
  0.11250000    0.99725964
  0.11300000    0.99700888
  0.11350000    0.99674725
  0.11400000    0.99647208
  0.11450000    0.99618426
  0.11500000    0.99588357
  0.11550000    0.99557090
  0.11600000    0.99524470
  0.11650000    0.99490517
  0.11700000    0.99455034
  0.11750000    0.99418308
  0.11800000    0.99380140
  0.11850000    0.99340640
  0.11900000    0.99299520
  0.11950000    0.99256869
  0.12000000    0.99212686
  0.12050000    0.99166973
  0.12100000    0.99119640
  0.12150000    0.99070642
  0.12200000    0.99019780
  0.12250000    0.98967343
  0.12300000    0.98913108
  0.12350000    0.98857209
  0.12400000    0.98799291
  0.12450000    0.98739464
  0.12500000    0.98677729
  0.12550000    0.98614018
  0.12600000    0.98548222
  0.12650000    0.98480296
  0.12700000    0.98410017
  0.12750000    0.98337719
  0.12800000    0.98263135
  0.12850000    0.98186332
  0.12900000    0.98106955
  0.12950000    0.98025092
  0.13000000    0.97940811
  0.13050000    0.97853889
  0.13100000    0.97764260
  0.13150000    0.97671856
  0.13200000    0.97576346
  0.13250000    0.97478196
  0.13300000    0.97377027
  0.13350000    0.97272951
  0.13400000    0.97165458
  0.13450000    0.97054681
  0.13500000    0.96940730
  0.13550000    0.96823251
  0.13600000    0.96702177
  0.13650000    0.96577398
  0.13700000    0.96448535
  0.13750000    0.96316099
  0.13800000    0.96179624
  0.13850000    0.96039333
  0.13900000    0.95894448
  0.13950000    0.95745170
  0.14000000    0.95591630
  0.14050000    0.95433364
  0.14100000    0.95270305
  0.14150000    0.95102297
  0.14200000    0.94928764
  0.14250000    0.94750481
  0.14300000    0.94566785
  0.14350000    0.94377962
  0.14400000    0.94183014
  0.14450000    0.93982141
  0.14500000    0.93775543
  0.14550000    0.93562665
  0.14600000    0.93343352
  0.14650000    0.93117448
  0.14700000    0.92884198
  0.14750000    0.92644580
  0.14800000    0.92397772
  0.14850000    0.92144129
  0.14900000    0.91882343
  0.14950000    0.91612767
  0.15000000    0.91335535
  0.15050000    0.91050048
  0.15100000    0.90756106
  0.15150000    0.90453488
  0.15200000    0.90141261
  0.15250000    0.89820668
  0.15300000    0.89490733
  0.15350000    0.89151899
  0.15400000    0.88802524
  0.15450000    0.88443075
  0.15500000    0.88073728
  0.15550000    0.87693863
  0.15600000    0.87303235
  0.15650000    0.86901579
  0.15700000    0.86487806
  0.15750000    0.86063492
  0.15800000    0.85627506
  0.15850000    0.85180447
  0.15900000    0.84720384
  0.15950000    0.84247916
  0.16000000    0.83763132
  0.16050000    0.83265899
  0.16100000    0.82755662
  0.16150000    0.82232288
  0.16200000    0.81694578
  0.16250000    0.81144442
  0.16300000    0.80580747
  0.16350000    0.80004247
  0.16400000    0.79412925
  0.16450000    0.78807599
  0.16500000    0.78188271
  0.16550000    0.77555385
  0.16600000    0.76908318
  0.16650000    0.76247072
  0.16700000    0.75570691
  0.16750000    0.74881084
  0.16800000    0.74177542
  0.16850000    0.73460951
  0.16900000    0.72729492
  0.16950000    0.71984252
  0.17000000    0.71224966
  0.17050000    0.70453297
  0.17100000    0.69668425
  0.17150000    0.68870615
  0.17200000    0.68059402
  0.17250000    0.67236516
  0.17300000    0.66402735
  0.17350000    0.65556593
  0.17400000    0.64699311
  0.17450000    0.63831356
  0.17500000    0.62952172
  0.17550000    0.62064732
  0.17600000    0.61168128
  0.17650000    0.60262914
  0.17700000    0.59349356
  0.17750000    0.58428586
  0.17800000    0.57501891
  0.17850000    0.56568694
  0.17900000    0.55630171
  0.17950000    0.54687033
  0.18000000    0.53738657
  0.18050000    0.52788617
  0.18100000    0.51836159
  0.18150000    0.50882013
  0.18200000    0.49926958
  0.18250000    0.48971659
  0.18300000    0.48017159
  0.18350000    0.47064079
  0.18400000    0.46113174
  0.18450000    0.45165242
  0.18500000    0.44219707
  0.18550000    0.43279697
  0.18600000    0.42344791
  0.18650000    0.41415744
  0.18700000    0.40493177
  0.18750000    0.39578198
  0.18800000    0.38670099
  0.18850000    0.37770943
  0.18900000    0.36880841
  0.18950000    0.36000348
  0.19000000    0.35129153
  0.19050000    0.34269030
  0.19100000    0.33420004
  0.19150000    0.32582583
  0.19200000    0.31757123
  0.19250000    0.30944823
  0.19300000    0.30143507
  0.19350000    0.29356127
  0.19400000    0.28582083
  0.19450000    0.27821688
  0.19500000    0.27074806
  0.19550000    0.26341683
  0.19600000    0.25622806
  0.19650000    0.24918265
  0.19700000    0.24228215
  0.19750000    0.23553720
  0.19800000    0.22891675
  0.19850000    0.22245318
  0.19900000    0.21613641
  0.19950000    0.20996617
  0.20000000    0.20394360
  0.20050000    0.19805889
  0.20100000    0.19231926
  0.20150000    0.18672367
  0.20200000    0.18127093
  0.20250000    0.17596991
  0.20300000    0.17078747
  0.20350000    0.16575349
  0.20400000    0.16085628
  0.20450000    0.15609401
  0.20500000    0.15146881
  0.20550000    0.14696453
  0.20600000    0.14258927
  0.20650000    0.13834059
  0.20700000    0.13421615
  0.20750000    0.13022271
  0.20800000    0.12632963
  0.20850000    0.12256218
  0.20900000    0.11890911
  0.20950000    0.11536791
  0.21000000    0.11194110
  0.21050000    0.10861112
  0.21100000    0.10538550
  0.21150000    0.10226155
  0.21200000    0.09923659
  0.21250000    0.09631552
  0.21300000    0.09347290
  0.21350000    0.09072846
  0.21400000    0.08807273
  0.21450000    0.08550319
  0.21500000    0.08302229
  0.21550000    0.08061410
  0.21600000    0.07828505
  0.21650000    0.07603260
  0.21700000    0.07385440
  0.21750000    0.07175382
  0.21800000    0.06971136
  0.21850000    0.06774156
  0.21900000    0.06583709
  0.21950000    0.06399584
  0.22000000    0.06221963
  0.22050000    0.06049605
  0.22100000    0.05882984
  0.22150000    0.05721905
  0.22200000    0.05566175
  0.22250000    0.05416026
  0.22300000    0.05270034
  0.22350000    0.05129237
  0.22400000    0.04993095
  0.22450000    0.04861450
  0.22500000    0.04734437
  0.22550000    0.04611131
  0.22600000    0.04491881
  0.22650000    0.04376539
  0.22700000    0.04264967
  0.22750000    0.04157321
  0.22800000    0.04052591
  0.22850000    0.03951507
  0.22900000    0.03853684
  0.22950000    0.03759011
  0.23000000    0.03667582
  0.23050000    0.03578734
  0.23100000    0.03492721
  0.23150000    0.03409434
  0.23200000    0.03328779
  0.23250000    0.03250862
  0.23300000    0.03174973
  0.23350000    0.03101628
  0.23400000    0.03030557
  0.23450000    0.02961676
  0.23500000    0.02895061
  0.23550000    0.02830243
  0.23600000    0.02767398
  0.23650000    0.02706455
  0.23700000    0.02647348
  0.23750000    0.02590150
  0.23800000    0.02534371
  0.23850000    0.02480365
  0.23900000    0.02427948
  0.23950000    0.02377064
  0.24000000    0.02327762
  0.24050000    0.02279721
  0.24100000    0.02233064
  0.24150000    0.02187741
  0.24200000    0.02143705
  0.24250000    0.02101011
  0.24300000    0.02059317
  0.24350000    0.02018871
  0.24400000    0.01979546
  0.24450000    0.01941302
  0.24500000    0.01904170
  0.24550000    0.01867936
  0.24600000    0.01832683
  0.24650000    0.01798375
  0.24700000    0.01764981
  0.24750000    0.01732539
  0.24800000    0.01700810
  0.24850000    0.01669970
  0.24900000    0.01639930
  0.24950000    0.01610662
  0.25000000    0.01582190
  0.25050000    0.01554361
  0.25100000    0.01527236
  0.25150000    0.01500790
  0.25200000    0.01475001
  0.25250000    0.01449900
  0.25300000    0.01425312
  0.25350000    0.01401367
  0.25400000    0.01378001
  0.25450000    0.01355195
  0.25500000    0.01332966
  0.25550000    0.01311206
  0.25600000    0.01289957
  0.25650000    0.01269205
  0.25700000    0.01248932
  0.25750000    0.01229162
  0.25800000    0.01209770
  0.25850000    0.01190849
  0.25900000    0.01172352
  0.25950000    0.01154269
  0.26000000    0.01136610
  0.26050000    0.01119299
  0.26100000    0.01102367
  0.26150000    0.01085802
  0.26200000    0.01069593
  0.26250000    0.01053757
  0.26300000    0.01038204
  0.26350000    0.01023002
  0.26400000    0.01008117
  0.26450000    0.00993542
  0.26500000    0.00979281
  0.26550000    0.00965285
  0.26600000    0.00951573
  0.26650000    0.00938138
  0.26700000    0.00924971
  0.26750000    0.00912086
  0.26800000    0.00899415
  0.26850000    0.00887010
  0.26900000    0.00874846
  0.26950000    0.00862916
  0.27000000    0.00851227
  0.27050000    0.00839739
  0.27100000    0.00828469
  0.27150000    0.00817410
  0.27200000    0.00806557
  0.27250000    0.00795920
  0.27300000    0.00785447
  0.27350000    0.00775178
  0.27400000    0.00765096
  0.27450000    0.00755195
  0.27500000    0.00745479
  0.27550000    0.00735919
  0.27600000    0.00726527
  0.27650000    0.00717300
  0.27700000    0.00708232
  0.27750000    0.00699333
  0.27800000    0.00690562
  0.27850000    0.00681951
  0.27900000    0.00673485
  0.27950000    0.00665161
  0.28000000    0.00656982
  0.28050000    0.00648926
  0.28100000    0.00641002
  0.28150000    0.00633208
  0.28200000    0.00625540
  0.28250000    0.00618004
  0.28300000    0.00610570
  0.28350000    0.00603263
  0.28400000    0.00596071
  0.28450000    0.00588991
  0.28500000    0.00582027
  0.28550000    0.00575161
  0.28600000    0.00568400
  0.28650000    0.00561743
  0.28700000    0.00555187
  0.28750000    0.00548736
  0.28800000    0.00542368
  0.28850000    0.00536100
  0.28900000    0.00529926
  0.28950000    0.00523842
  0.29000000    0.00517850
  0.29050000    0.00511938
  0.29100000    0.00506111
  0.29150000    0.00500367
  0.29200000    0.00494705
  0.29250000    0.00489129
  0.29300000    0.00483619
  0.29350000    0.00478192
  0.29400000    0.00472840
  0.29450000    0.00467561
  0.29500000    0.00462358
  0.29550000    0.00457219
  0.29600000    0.00452150
  0.29650000    0.00447149
  0.29700000    0.00442215
  0.29750000    0.00437351
  0.29800000    0.00432542
  0.29850000    0.00427800
  0.29900000    0.00423119
  0.29950000    0.00418500
  0.30000000    0.00413943
  0.30050000    0.00409439
  0.30100000    0.00404992
  0.30150000    0.00400601
  0.30200000    0.00396266
  0.30250000    0.00391989
  0.30300000    0.00387758
  0.30350000    0.00383582
  0.30400000    0.00379457
  0.30450000    0.00375383
  0.30500000    0.00371360
  0.30550000    0.00367382
  0.30600000    0.00363452
  0.30650000    0.00359568
  0.30700000    0.00355731
  0.30750000    0.00351942
  0.30800000    0.00348191
  0.30850000    0.00344487
  0.30900000    0.00340826
  0.30950000    0.00337207
  0.31000000    0.00333630
  0.31050000    0.00330092
  0.31100000    0.00326593
  0.31150000    0.00323134
  0.31200000    0.00319714
  0.31250000    0.00316334
  0.31300000    0.00312987
  0.31350000    0.00309679
  0.31400000    0.00306407
  0.31450000    0.00303170
  0.31500000    0.00299970
  0.31550000    0.00296802
  0.31600000    0.00293667
  0.31650000    0.00290566
  0.31700000    0.00287498
  0.31750000    0.00284464
  0.31800000    0.00281457
  0.31850000    0.00278484
  0.31900000    0.00275542
  0.31950000    0.00272629
  0.32000000    0.00269748
  0.32050000    0.00266893
  0.32100000    0.00264067
  0.32150000    0.00261270
  0.32200000    0.00258501
  0.32250000    0.00255761
  0.32300000    0.00253044
  0.32350000    0.00250356
  0.32400000    0.00247693
  0.32450000    0.00245057
  0.32500000    0.00242447
  0.32550000    0.00239860
  0.32600000    0.00237298
  0.32650000    0.00234760
  0.32700000    0.00232246
  0.32750000    0.00229757
  0.32800000    0.00227288
  0.32850000    0.00224844
  0.32900000    0.00222422
  0.32950000    0.00220022
  0.33000000    0.00217644
  0.33050000    0.00215286
  0.33100000    0.00212950
  0.33150000    0.00210635
  0.33200000    0.00208340
  0.33250000    0.00206066
  0.33300000    0.00203810
  0.33350000    0.00201575
  0.33400000    0.00199359
  0.33450000    0.00197162
  0.33500000    0.00194984
  0.33550000    0.00192823
  0.33600000    0.00190681
  0.33650000    0.00188557
  0.33700000    0.00186450
  0.33750000    0.00184362
  0.33800000    0.00182289
  0.33850000    0.00180233
  0.33900000    0.00178194
  0.33950000    0.00176172
  0.34000000    0.00174166
  0.34050000    0.00172175
  0.34100000    0.00170200
  0.34150000    0.00168240
  0.34200000    0.00166296
  0.34250000    0.00164367
  0.34300000    0.00162451
  0.34350000    0.00160551
  0.34400000    0.00158665
  0.34450000    0.00156793
  0.34500000    0.00154936
  0.34550000    0.00153091
  0.34600000    0.00151259
  0.34650000    0.00149442
  0.34700000    0.00147637
  0.34750000    0.00145846
  0.34800000    0.00144065
  0.34850000    0.00142299
  0.34900000    0.00140544
  0.34950000    0.00138802
  0.35000000    0.00137072
  0.35050000    0.00135353
  0.35100000    0.00133645
  0.35150000    0.00131949
  0.35200000    0.00130265
  0.35250000    0.00128592
  0.35300000    0.00126928
  0.35350000    0.00125276
  0.35400000    0.00123635
  0.35450000    0.00122004
  0.35500000    0.00120383
  0.35550000    0.00118772
  0.35600000    0.00117171
  0.35650000    0.00115580
  0.35700000    0.00113998
  0.35750000    0.00112427
  0.35800000    0.00110863
  0.35850000    0.00109309
  0.35900000    0.00107765
  0.35950000    0.00106229
  0.36000000    0.00104702
  0.36050000    0.00103183
  0.36100000    0.00101672
  0.36150000    0.00100170
  0.36200000    0.00098676
  0.36250000    0.00097191
  0.36300000    0.00095713
  0.36350000    0.00094242
  0.36400000    0.00092780
  0.36450000    0.00091325
  0.36500000    0.00089877
  0.36550000    0.00088436
  0.36600000    0.00087002
  0.36650000    0.00085576
  0.36700000    0.00084156
  0.36750000    0.00082743
  0.36800000    0.00081336
  0.36850000    0.00079936
  0.36900000    0.00078543
  0.36950000    0.00077155
  0.37000000    0.00075774
  0.37050000    0.00074399
  0.37100000    0.00073029
  0.37150000    0.00071665
  0.37200000    0.00070307
  0.37250000    0.00068955
  0.37300000    0.00067607
  0.37350000    0.00066265
  0.37400000    0.00064928
  0.37450000    0.00063596
  0.37500000    0.00062270
  0.37550000    0.00060948
  0.37600000    0.00059631
  0.37650000    0.00058318
  0.37700000    0.00057010
  0.37750000    0.00055707
  0.37800000    0.00054407
  0.37850000    0.00053112
  0.37900000    0.00051821
  0.37950000    0.00050534
  0.38000000    0.00049251
  0.38050000    0.00047972
  0.38100000    0.00046696
  0.38150000    0.00045424
  0.38200000    0.00044156
  0.38250000    0.00042891
  0.38300000    0.00041629
  0.38350000    0.00040370
  0.38400000    0.00039115
  0.38450000    0.00037862
  0.38500000    0.00036613
  0.38550000    0.00035366
  0.38600000    0.00034122
  0.38650000    0.00032880
  0.38700000    0.00031641
  0.38750000    0.00030405
  0.38800000    0.00029171
  0.38850000    0.00027939
  0.38900000    0.00026709
  0.38950000    0.00025481
  0.39000000    0.00024255
  0.39050000    0.00023030
  0.39100000    0.00021808
  0.39150000    0.00020587
  0.39200000    0.00019368
  0.39250000    0.00018151
  0.39300000    0.00016935
  0.39350000    0.00015719
  0.39400000    0.00014505
  0.39450000    0.00013292
  0.39500000    0.00012081
  0.39550000    0.00010871
  0.39600000    0.00009661
  0.39650000    0.00008451
  0.39700000    0.00007243
  0.39750000    0.00006035
  0.39800000    0.00004827
  0.39850000    0.00003620
  0.39900000    0.00002413
  0.39950000    0.00001207
  0.40000000    0.00000000
