0.0  -1.0
0.00009999268  -0.9999306374
0.0001999854  -0.999723147555
0.000299978  -0.999353014373
0.0003999707  -0.998854919154
0.0004999634  -0.998204345806
0.0005999561  -0.997413851352
0.0006999488  -0.996467889003
0.0007999414  -0.995374232153
0.0008999341  -0.994116138106
0.0009999268  -0.99270556593
0.00109992  -0.991119195442
0.00119991  -0.98937257343
0.0012999  -0.98743699813
0.0013999  -0.985331006099
0.00149989  -0.983019916035
0.00159988  -0.980527048125
0.00169988  -0.977809947673
0.00179987  -0.974896120538
0.00189986  -0.971735936583
0.00199985  -0.968361685296
0.00209985  -0.964715963145
0.00219984  -0.960836441196
0.00229983  -0.956655550712
0.00239982  -0.952216942293
0.00249982  -0.947444675852
0.00259981  -0.942388381525
0.0026998  -0.936961356063
0.0027998  -0.931219209135
0.00289979  -0.925065072284
0.00299978  -0.918561730621
0.00309977  -0.91160215048
0.00319977  -0.904255096507
0.00329976  -0.896402771873
0.00339975  -0.888121116666
0.00349974  -0.879283364756
0.00359974  -0.869969641904
0.00369973  -0.860046604491
0.00379972  -0.849600357815
0.00389971  -0.838489186909
0.00399971  -0.826804578649
0.0040997  -0.814403024209
0.00419969  -0.80137660842
0.00429969  -0.787583018361
0.00439968  -0.773115534771
0.00449967  -0.757837226309
0.00459966  -0.741839579854
0.00469966  -0.724997025182
0.00479965  -0.707395069635
0.00489964  -0.688926081593
0.00499963  -0.669668990912
0.00509963  -0.649538290248
0.00519962  -0.628602146294
0.00529961  -0.60680315552
0.0053996  -0.584198482275
0.0054996  -0.560760381518
0.00559959  -0.536533699759
0.00569958  -0.511521665946
0.00579958  -0.485757526291
0.00589957  -0.459272972325
0.00599956  -0.432091384029
0.00609955  -0.404268012301
0.00619955  -0.375819121475
0.00629954  -0.346816525759
0.00639953  -0.31727272238
0.00649952  -0.287268136077
0.00659952  -0.256814666124
0.00669951  -0.22599399296
0.0067995  -0.194819989105
0.00689949  -0.163369790555
0.00699949  -0.131661216321
0.00709948  -0.0997638083894
0.00719947  -0.0676998106281
0.00729947  -0.0355314221545
0.00739946  -0.00328456963198
0.00749945  0.0289829409862
0.00759944  0.061242929948
0.00769944  0.0934378197182
0.00779943  0.125538890593
0.00789942  0.157484553368
0.00799941  0.189247182593
0.00809941  0.220758910553
0.0081994  0.251993666477
0.00829939  0.282877902092
0.00839939  0.31338668274
0.00849938  0.343444427104
0.00859937  0.373025662368
0.00869936  0.402059232072
0.00879936  0.430516374656
0.00889935  0.458338311296
0.00899934  0.485490061715
0.00909933  0.511932938325
0.00919933  0.537622812163
0.00929932  0.562547783955
0.00939931  0.586652184234
0.0094993  0.609954968126
0.0095993  0.632388387505
0.00969929  0.654002610665
0.00979928  0.674718109797
0.00989928  0.694616206571
0.00999927  0.713604218203
0.0100993  0.731792168125
0.0101993  0.7490778063
0.0102992  0.765593280438
0.0103992  0.781228567106
0.0104992  0.796131958758
0.0105992  0.810191040146
0.0106992  0.823561877119
0.0107992  0.836132652384
0.0108992  0.848062421556
0.0109992  0.859241161202
0.0110992  0.869827328984
0.0111992  0.879715087143
0.0112992  0.88905751176
0.0113992  0.897754146658
0.0114992  0.905949696569
0.0115992  0.913551478709
0.0116991  0.920692836697
0.0117991  0.927289459097
0.0118991  0.933462730459
0.0119991  0.939136710694
0.0120991  0.944419629376
0.0121991  0.949245113674
0.0122991  0.953707042277
0.0123991  0.957748011655
0.0124991  0.961448745524
0.0125991  0.964760809653
0.0126991  0.967751772782
0.0127991  0.970380376125
0.0128991  0.972703425257
0.012999  0.974686238879
0.013099  0.976373065546
0.013199  0.977738791213
0.013299  0.978813911506
0.013399  0.979581085776
0.013499  0.980060046485
0.013599  0.980240030472
0.013699  0.980129409084
0.013799  0.979724594603
0.013899  0.979023195212
0.013999  0.978027602727
0.014099  0.976725260125
0.014199  0.975125136707
0.014299  0.973202716383
0.0143989  0.970974741849
0.0144989  0.968405335897
0.0145989  0.965518416667
0.0146989  0.962266147882
0.0147989  0.958679025168
0.0148989  0.954698449088
0.0149989  0.950362090708
0.0150989  0.945598793569
0.0151989  0.940454002132
0.0152989  0.934844002916
0.0153989  0.928822013776
0.0154989  0.922292960115
0.0155989  0.915316637277
0.0156989  0.90778660955
0.0157988  0.899771043626
0.0158988  0.89115094677
0.0159988  0.882002259068
0.0160988  0.872197018485
0.0161988  0.861817144641
0.0162988  0.850728098012
0.0163988  0.839014787987
0.0164988  0.826541479134
0.0165988  0.813394874702
0.0166988  0.799439837213
0.0167988  0.784764863777
0.0168988  0.769239600543
0.0169988  0.752951348714
0.0170987  0.7357805176
0.0171987  0.717810222732
0.0172987  0.698939409975
0.0173987  0.679242823512
0.0174987  0.658642729394
0.0175987  0.637204902501
0.0176987  0.614878516788
0.0177987  0.591718942747
0.0178987  0.567704893232
0.0179987  0.542881573526
0.0180987  0.517256637433
0.0181987  0.490865663181
0.0182987  0.463743212481
0.0183987  0.4359166716
0.0184986  0.407442547138
0.0185986  0.378342544806
0.0186986  0.348688060245
0.0187986  0.318498227965
0.0188986  0.287851320072
0.0189986  0.256766770053
0.0190986  0.225322670628
0.0191986  0.193541026483
0.0192986  0.161494309576
0.0193986  0.129208411292
0.0194986  0.0967477312151
0.0195986  0.0641422866098
0.0196986  0.0314489727459
0.0197986  -0.00129882783186
0.0198985  -0.0340486769981
0.0199985  -0.0667652691897
0.0200985  -0.0993964257931
0.0201985  -0.131906496824
0.0202985  -0.16423951384
0.0203985  -0.196360915132
0.0204985  -0.228208932109
0.0205985  -0.259750378355
0.0206985  -0.290918701652
0.0207985  -0.321681492922
0.0208985  -0.351971123632
0.0209985  -0.381754407365
0.0210985  -0.410969037373
0.0211984  -0.439578598289
0.0212984  -0.467533579571
0.0213984  -0.494791705907
0.0214984  -0.521323677581
0.0215984  -0.54707878814
0.0216984  -0.572053928225
0.0217984  -0.596188166382
0.0218984  -0.619507872356
0.0219984  -0.641941291735
0.0220984  -0.66354594764
0.0221984  -0.684238126588
0.0222984  -0.704104531829
0.0223984  -0.72305248058
0.0224984  -0.741192594227
0.0225983  -0.758425014545
0.0226983  -0.774881291292
0.0227983  -0.790454988755
0.0228983  -0.805292007575
0.0229983  -0.819284716131
0.0230983  -0.832584994597
0.0231983  -0.845086407263
0.0232983  -0.856944422021
0.0233983  -0.868053799067
0.0234983  -0.878568212436
0.0235983  -0.888387205949
0.0236983  -0.89765907206
0.0237983  -0.906288736172
0.0238983  -0.914414923483
0.0239982  -0.921952126651
0.0240982  -0.929026513854
0.0241982  -0.935560351142
0.0242982  -0.941669043532
0.0243982  -0.947282032516
0.0244982  -0.952502166086
0.0245982  -0.957267257086
0.0246982  -0.961667596484
0.0247982  -0.965649966425
0.0248982  -0.969290306995
0.0249982  -0.972543173734
0.0250982  -0.975473743565
0.0251982  -0.978043149516
0.0252981  -0.980304609444
0.0253981  -0.982227627721
0.0254981  -0.983851669277
0.0255981  -0.985154609832
0.0256981  -0.9861645532
0.0257981  -0.986866550544
0.0258981  -0.987277344561
0.0259981  -0.987387965948
0.0260981  -0.987204992194
0.0261981  -0.986726031485
0.0262981  -0.985946898146
0.0263981  -0.984871777853
0.0264981  -0.983485123815
0.0265981  -0.981798297148
0.026698  -0.979784389947
0.026798  -0.977461340815
0.026898  -0.974792076638
0.026998  -0.971800515555
0.027098  -0.968438223337
0.027198  -0.964735695608
0.027298  -0.960633734979
0.027398  -0.956168816608
0.027498  -0.951270979944
0.027598  -0.945983875587
0.027698  -0.940224985963
0.027798  -0.934045735067
0.027898  -0.927351048302
0.027998  -0.920200123059
0.0280979  -0.912487121578
0.0281979  -0.904277818738
0.0282979  -0.89545621157
0.0283979  -0.886092858582
0.0284979  -0.876065777271
0.0285979  -0.86545030977
0.0286979  -0.854117298135
0.0287979  -0.842146868129
0.0288979  -0.829407469993
0.0289979  -0.815981023349
0.0290979  -0.801738968207
0.0291979  -0.786762028282
0.0292979  -0.770928221071
0.0293978  -0.754317074381
0.0294978  -0.73681856478
0.0295978  -0.718506838495
0.0296978  -0.699291604554
0.0297978  -0.679238637838
0.0298978  -0.658280369607
0.0299978  -0.636475399298
0.0300978  -0.613781870171
0.0301978  -0.590249292771
0.0302978  -0.565864691507
0.0303978  -0.540667531307
0.0304978  -0.514673777529
0.0305978  -0.487913925798
0.0306978  -0.460429593673
0.0307977  -0.432244519906
0.0308977  -0.403420293703
0.0309977  -0.373976587731
0.0310977  -0.343987787399
0.0311977  -0.313472369468
0.0312977  -0.282509861747
0.0313977  -0.251120176085
0.0314977  -0.219381106226
0.0315977  -0.187315972353
0.0316977  -0.154995871131
0.0317977  -0.122448607396
0.0318977  -0.0897367868732
0.0319977  -0.056892394092
0.0320976  -0.0239706679917
0.0321976  0.00899313609241
0.0322976  0.0419479708749
0.0323976  0.0748565958152
0.0324976  0.107668095177
0.0325976  0.140344457061
0.0326976  0.172831626475
0.0327976  0.205091693171
0.0328976  0.23706581853
0.0329976  0.268716211893
0.0330976  0.299980925285
0.0331976  0.330821330913
0.0332976  0.361176557116
0.0333976  0.391005524492
0.0334975  0.420254835799
0.0335975  0.448878628008
0.0336975  0.476838452712
0.0337975  0.504081211645
0.0338975  0.530590461088
0.0339975  0.556303714905
0.0340975  0.581231736259
0.0341975  0.605301694421
0.0342975  0.628554310019
0.0343975  0.650905211822
0.0344975  0.672426154244
0.0345975  0.693023258595
0.0346975  0.712793991285
0.0347975  0.731637896137
0.0348974  0.749675759745
0.0349974  0.766799352536
0.0350974  0.78314919357
0.0351974  0.798613465553
0.0352974  0.813343450706
0.0353974  0.827226733781
0.0354974  0.840422370395
0.0355974  0.852818543254
0.0356974  0.864574307974
0.0357974  0.875583228841
0.0358974  0.886000175798
0.0359974  0.895724094713
0.0360974  0.904902680087
0.0361973  0.913442651182
0.0362973  0.92148153729
0.0363973  0.92893383107
0.0364973  0.935925700697
0.0365973  0.942380010177
0.0366973  0.948410370665
0.0367973  0.953948017515
0.0368973  0.959094004859
0.0369973  0.963787341445
0.0370973  0.968116524384
0.0371973  0.972029531725
0.0372973  0.975601107649
0.0373973  0.978787601555
0.0374973  0.981650602647
0.0375972  0.984154831673
0.0376972  0.986349320815
0.0377972  0.988206564213
0.0378972  0.989763634983
0.0379972  0.991000202706
0.0380972  0.991942577335
0.0381972  0.992576407986
0.0382972  0.992917241449
0.0383972  0.992956706377
0.0384972  0.992700782302
0.0385972  0.992147675366
0.0386972  0.99129080808
0.0387972  0.990136757932
0.0388972  0.988666988366
0.0389971  0.986895252309
0.0390971  0.984792250045
0.0391971  0.982377116082
0.0392971  0.979610983448
0.0393971  0.976518966186
0.0394971  0.973050238255
0.0395971  0.969238285046
0.0396971  0.965019723494
0.0397971  0.960434616482
0.0398971  0.955408219827
0.0399971  0.949988369806
0.0400971  0.944087765215
0.0401971  0.937761417772
0.040297  0.930910665157
0.040397  0.923597694531
0.040497  0.915712482458
0.040597  0.907324391538
0.040697  0.898313233128
0.040797  0.88875375141
0.040897  0.878519778207
0.040997  0.867689047466
0.041097  0.85613000943
0.041197  0.843925779627
0.041297  0.830941818532
0.041397  0.817263035535
0.041497  0.802757880877
0.041597  0.787510665995
0.0416969  0.771397614525
0.0417969  0.754500048135
0.0418969  0.736707943393
0.0419969  0.718097240385
0.0420969  0.698577050188
0.0421969  0.678216137448
0.0422969  0.656946335472
0.0423969  0.634828635512
0.0424969  0.611822974687
0.0425969  0.587979102723
0.0426969  0.563286974003
0.0427969  0.537786173044
0.0428969  0.511495774562
0.0429969  0.484446513363
0.0430968  0.456682757594
0.0431968  0.428228485187
0.0432968  0.399147736955
0.0433968  0.369460544341
0.0434968  0.339242967021
0.0435968  0.308514079711
0.0436968  0.277354247353
0.0437968  0.245784278728
0.0438968  0.213882027373
0.0439968  0.181671590813
0.0440968  0.149223946122
0.0441968  0.116567436293
0.0442968  0.0837644278692
0.0443967  0.0508472402356
0.0444967  0.01787112429
0.0445967  -0.0151288320594
0.0446967  -0.0481010493485
0.0447967  -0.0810089986014
0.0448967  -0.113800705705
0.0449967  -0.146439456317
0.0450967  -0.178869580972
0.0451967  -0.211054903487
0.0452967  -0.242934970769
0.0453967  -0.274474084997
0.0454967  -0.30560880331
0.0455967  -0.336302710344
0.0456967  -0.366494037507
0.0457966  -0.396143678645
0.0458966  -0.425198415902
0.0459966  -0.453613940926
0.0460966  -0.481352821832
0.0461966  -0.508363335647
0.0462966  -0.534630593331
0.0463966  -0.560093424246
0.0464966  -0.58476444521
0.0465966  -0.608571901809
0.0466966  -0.631558428124
0.0467966  -0.653641446784
0.0468966  -0.67489390811
0.0469966  -0.695222531364
0.0470966  -0.714727174772
0.0471965  -0.733307382154
0.0472965  -0.751085733967
0.0473965  -0.767955794498
0.0474965  -0.784056886899
0.0475965  -0.799278987737
0.0476965  -0.813773379232
0.0477965  -0.827429439999
0.0478965  -0.840403833838
0.0479965  -0.852588331178
0.0480965  -0.864138997866
0.0481965  -0.874952387957
0.0482965  -0.885180381626
0.0483965  -0.894724316554
0.0484964  -0.903730093382
0.0485964  -0.91210562728
0.0486964  -0.919986055726
0.0487964  -0.927288861144
0.0488964  -0.934136623991
0.0489964  -0.940454600086
0.0490964  -0.946353410816
0.0491964  -0.951767281303
0.0492964  -0.956793677958
0.0493964  -0.961374001343
0.0494964  -0.965594356755
0.0495964  -0.96940391815
0.0496964  -0.972875037895
0.0497964  -0.975966457204
0.0498963  -0.978737373466
0.0499963  -0.981153703335
0.0500963  -0.983262685134
0.0501963  -0.985037410957
0.0502963  -0.986514953919
0.0503963  -0.987674385648
0.0504963  -0.988540820189
0.0505963  -0.989101102566
0.0506963  -0.98936898571
0.0507963  -0.98933789213
0.0508963  -0.98901140955
0.0509963  -0.988389537967
0.0510963  -0.987463308082
0.0511963  -0.986240493288
0.0512962  -0.984702557028
0.0513962  -0.982862056326
0.0514962  -0.980689093509
0.0515962  -0.978204596946
0.0516962  -0.975366709899
0.0517962  -0.972202938224
0.0518962  -0.968660662018
0.0519962  -0.964773366675
0.0520962  -0.960477071176
0.0521962  -0.955813034309
0.0522962  -0.950705315986
0.0523962  -0.945201154529
0.0524962  -0.939213846688
0.0525961  -0.932798404182
0.0526961  -0.925854968784
0.0527961  -0.918445727653
0.0528961  -0.910461853261
0.0529961  -0.901970914349
0.0530961  -0.89285391818
0.0531961  -0.883185608935
0.0532961  -0.872838622531
0.0533961  -0.861891290868
0.0534961  -0.850213858049
0.0535961  -0.83788704779
0.0536961  -0.824779310332
0.0537961  -0.810972565298
0.0538961  -0.79634064451
0.053996  -0.780962477823
0.054096  -0.764720866363
0.054196  -0.747691750216
0.054296  -0.72977407525
0.054396  -0.711034812252
0.054496  -0.691394433412
0.054596  -0.670912136123
0.054696  -0.64953350662
0.054796  -0.627306979133
0.054896  -0.604208037571
0.054996  -0.580273037502
0.055096  -0.555508078052
0.055196  -0.52993988774
0.055296  -0.503602669503
0.0553959  -0.476514541331
0.0554959  -0.448734521228
0.0555959  -0.420274508467
0.0556959  -0.39121169884
0.0557959  -0.361555121441
0.0558959  -0.331392316657
0.0559959  -0.30073261256
0.0560959  -0.269665761963
0.0561959  -0.238204381683
0.0562959  -0.206433500701
0.0563959  -0.174370818437
0.0564959  -0.142092514161
0.0565959  -0.109621848262
0.0566958  -0.0770250739818
0.0567958  -0.0443303429682
0.0568958  -0.0115960633137
0.0569958  0.0211462827327
0.0570958  0.053842341203
0.0571958  0.0864588658856
0.0572958  0.118941311467
0.0573958  0.151256031108
0.0574958  0.183345083119
0.0575958  0.215175161492
0.0576958  0.246684019276
0.0577958  0.277838350462
0.0578958  0.308574054441
0.0579958  0.338856210733
0.0580957  0.368623947677
0.0581957  0.397838637479
0.0582957  0.426449573689
0.0583957  0.454411610821
0.0584957  0.481691861435
0.0585957  0.508236210745
0.0586957  0.534036048221
0.0587957  0.55902643612
0.0588957  0.583227645062
0.0589957  0.606562778235
0.0590957  0.629083498817
0.0591957  0.650701309697
0.0592957  0.671497532545
0.0593957  0.691372907088
0.0594956  0.710436260854
0.0595956  0.728579962221
0.0596956  0.745934962996
0.0597956  0.762388847929
0.0598956  0.778087517662
0.0599956  0.79291556718
0.0600956  0.807030258238
0.0601956  0.820316185822
0.0602956  0.832933601456
0.0603956  0.844770687844
0.0604956  0.855987098556
0.0605956  0.866475201974
0.0606956  0.876389868038
0.0607955  0.885630042616
0.0608955  0.894342224303
0.0609955  0.902433132361
0.0610955  0.910037904269
0.0611955  0.91707222859
0.0612955  0.923659881689
0.0613955  0.92972372757
0.0614955  0.935374985574
0.0615955  0.940546684916
0.0616955  0.9453350961
0.0617955  0.949682815595
0.0618955  0.953673556884
0.0619955  0.957256493924
0.0620955  0.960503381128
0.0621954  0.963372959708
0.0622954  0.965922035242
0.0623954  0.968118318244
0.0624954  0.970006655222
0.0625954  0.971561334178
0.0626954  0.972816438458
0.0627954  0.973753431505
0.0628954  0.974393839644
0.0629954  0.97472809562
0.0630954  0.974765766687
0.0631954  0.974502667171
0.0632954  0.97393999298
0.0633954  0.97307894002
0.0634954  0.971909941036
0.0635953  0.970441367376
0.0636953  0.968652888623
0.0637953  0.966559453614
0.0638953  0.964129370815
0.0639953  0.961385960412
0.0640953  0.958286169755
0.0641953  0.954859298565
0.0642953  0.951052128983
0.0643953  0.946901136171
0.0644953  0.942342937064
0.0645953  0.937420584308
0.0646953  0.932059931678
0.0647953  0.926310609309
0.0648952  0.920090697578
0.0649952  0.913454012298
0.0650952  0.906312056356
0.0651952  0.898722233284
0.0652952  0.890591860299
0.0653952  0.881981928651
0.0654952  0.872795569883
0.0655952  0.863096765012
0.0656952  0.852789243535
0.0657952  0.841935790563
0.0658952  0.830447311033
0.0659952  0.818382404383
0.0660952  0.80566273871
0.0661952  0.792341531873
0.0662951  0.778358390572
0.0663951  0.763755769503
0.0664951  0.748497791459
0.0665951  0.732613756158
0.0666951  0.71610007588
0.0667951  0.698969307648
0.0668951  0.681253740946
0.0669951  0.662948592149
0.0670951  0.644127409528
0.0671951  0.624766274947
0.0672951  0.604980593421
0.0673951  0.58472808964
0.0674951  0.564165965566
0.0675951  0.543234366059
0.067695  0.522126549671
0.067795  0.500770283627
0.067895  0.479384837455
0.067995  0.457891460687
0.068095  0.436522338644
0.068195  0.415199259016
0.068295  0.39415165654
0.068395  0.373309510868
0.068495  0.352883182021
0.068595  0.332817777873
0.068695  0.313289276124
0.068795  0.294263892402
0.068895  0.275870844448
0.0689949  0.258101342346
0.0690949  0.241030070481
0.0691949  0.22467478807
0.0692949  0.209052775969
0.0693949  0.194207684778
0.0694949  0.180101963021
0.0695949  0.166802282508
0.0696949  0.154222956509
0.0697949  0.142449312981
0.0698949  0.131357396176
0.0699949  0.121045808615
0.0700949  0.111363746441
0.0701949  0.102417465981
0.0702949  0.0940406165857
0.0703948  0.0863417866012
0.0704948  0.0791491840028
0.0705948  0.0725694836851
0.0706948  0.0664334648233
0.0707948  0.0608424207308
0.0708948  0.055635824826
0.0709948  0.0509073644544
0.0710948  0.0465089684047
0.0711948  0.0425253487414
0.0712948  0.0388230482351
0.0713948  0.0354773133473
0.0714948  0.0323699645593
0.0715948  0.0295669082997
0.0716948  0.0269649378039
0.0717947  0.0246211157692
0.0718947  0.0224463291937
0.0719947  0.020489532526
0.0720947  0.0186744269065
0.0721947  0.0170427255675
0.0722947  0.0155295445807
0.0723947  0.0141702110357
0.0724947  0.0129098507448
0.0725947  0.0117782657078
0.0726947  0.0107292161847
0.0727947  0.00978775642486
0.0728947  0.00891506729069
0.0729947  0.00813214890715
0.0730946  0.00740647260686
0.0731946  0.00675561822108
0.0732946  0.00615239082715
0.0733946  0.00561147018215
0.0734946  0.00511015558151
0.0735946  0.00466069729743
0.0736946  0.0042441599382
0.0737946  0.0038707583425
0.0738946  0.0035247155087
0.0739946  0.00321453971637
0.0740946  0.00292709452627
0.0741946  0.00266946389288
0.0742946  0.00243071543336
0.0743946  0.00221674496867
0.0744945  0.00201845822488
0.0745945  0.00184075901818
0.0746945  0.00167608503137
0.0747945  0.00152851550284
0.0748945  0.00139176235417
0.0749945  0.00126921777524
0.0750945  0.00115565505501
0.0751945  0.00105389473986
0.0752945  0.000959592100078
0.0753945  0.000875092907016
0.0754945  0.000796785521873
0.0755945  0.00072661987083
0.0756945  0.00066159482555
0.0757945  0.000603332035774
0.0758944  0.000549337796458
0.0759944  0.000500959117325
0.0760944  0.000456123910305
0.0761944  0.00041595250097
0.0762944  0.000378722843197
0.0763944  0.000345366189679
0.0764944  0.00031445169762
0.0765944  0.000286753537343
0.0766944  0.000261082618629
0.0767944  0.000238082638362
0.0768944  0.000216765478473
0.0769944  0.000197666307297
0.0770944  0.000179963895571
0.0771943  0.00016410324025
0.0772943  0.000149401897067
0.0773943  0.000136229939409
0.0774943  0.000124019969253
0.0775943  0.000113079872827
0.0776943  0.000102937924659
0.0777943  0.000093850407595
0.0778943  0.00008542500438
0.0779943  0.0000778748256218
0.0780943  0.0000708738073071
0.0781943  0.0000645992426322
0.0782943  0.0000587798640373
0.0783943  0.0000535633600439
0.0784943  0.0000487238776563
0.0785942  0.0000443844996116
0.0786942  0.0000403571336743
0.0787942  0.000036744406594
0.0788942  0.0000333895588957
0.0789942  0.0000303782055537
0.0790942  0.0000275795562109
0.0791942  0.000025065144038
0.0792942  0.0000227256870635
0.0793942  0.000020621028468
0.0794942  0.0000186596694155
0.0795942  0.0000168917781999
0.0796942  0.0000152405477014
0.0797942  0.0000137481156992
0.0798942  0.0000123498015691
0.0799941  0.0000110810878687
0.0800941  9.88726185757e-6
0.0801941  8.79828698297e-6
0.0802941  7.76761256922e-6
0.0803941  6.8206336991e-6
0.0804941  5.91727433685e-6
0.0805941  5.0795242204e-6
0.0806941  4.4702844046e-6
0.0807941  3.72523680451e-6
0.0808941  2.8846553785e-6
0.0809941  2.1634912349e-6
0.0810941  1.40712915974e-6
0.0811941  7.03564579869e-7
0.081294  0.0